<svg width="1024" height="768" viewBox="0 0 1024 768" xmlns="http://www.w3.org/2000/svg">
<rect x="0" y="0" width="1024" height="768" opacity="1" fill="#FFFFFF" stroke="none"/>
<rect x="71" y="7" width="942" height="714" opacity="1" fill="#EEEEEE" stroke="none"/>
<text x="512" y="5" dy="0.76em" text-anchor="middle" font-family="sans-serif" font-size="35.75846828529295" opacity="1" fill="#000000">

</text>
<line opacity="1" stroke="#FFFFFF" stroke-width="1" x1="113" y1="721" x2="113" y2="7"/>
<line opacity="1" stroke="#FFFFFF" stroke-width="1" x1="199" y1="721" x2="199" y2="7"/>
<line opacity="1" stroke="#FFFFFF" stroke-width="1" x1="285" y1="721" x2="285" y2="7"/>
<line opacity="1" stroke="#FFFFFF" stroke-width="1" x1="370" y1="721" x2="370" y2="7"/>
<line opacity="1" stroke="#FFFFFF" stroke-width="1" x1="456" y1="721" x2="456" y2="7"/>
<line opacity="1" stroke="#FFFFFF" stroke-width="1" x1="542" y1="721" x2="542" y2="7"/>
<line opacity="1" stroke="#FFFFFF" stroke-width="1" x1="627" y1="721" x2="627" y2="7"/>
<line opacity="1" stroke="#FFFFFF" stroke-width="1" x1="713" y1="721" x2="713" y2="7"/>
<line opacity="1" stroke="#FFFFFF" stroke-width="1" x1="798" y1="721" x2="798" y2="7"/>
<line opacity="1" stroke="#FFFFFF" stroke-width="1" x1="884" y1="721" x2="884" y2="7"/>
<line opacity="1" stroke="#FFFFFF" stroke-width="1" x1="970" y1="721" x2="970" y2="7"/>
<line opacity="1" stroke="#FFFFFF" stroke-width="1" x1="71" y1="689" x2="1013" y2="689"/>
<line opacity="1" stroke="#FFFFFF" stroke-width="1" x1="71" y1="624" x2="1013" y2="624"/>
<line opacity="1" stroke="#FFFFFF" stroke-width="1" x1="71" y1="559" x2="1013" y2="559"/>
<line opacity="1" stroke="#FFFFFF" stroke-width="1" x1="71" y1="494" x2="1013" y2="494"/>
<line opacity="1" stroke="#FFFFFF" stroke-width="1" x1="71" y1="429" x2="1013" y2="429"/>
<line opacity="1" stroke="#FFFFFF" stroke-width="1" x1="71" y1="364" x2="1013" y2="364"/>
<line opacity="1" stroke="#FFFFFF" stroke-width="1" x1="71" y1="300" x2="1013" y2="300"/>
<line opacity="1" stroke="#FFFFFF" stroke-width="1" x1="71" y1="235" x2="1013" y2="235"/>
<line opacity="1" stroke="#FFFFFF" stroke-width="1" x1="71" y1="170" x2="1013" y2="170"/>
<line opacity="1" stroke="#FFFFFF" stroke-width="1" x1="71" y1="105" x2="1013" y2="105"/>
<line opacity="1" stroke="#FFFFFF" stroke-width="1" x1="71" y1="40" x2="1013" y2="40"/>
<text x="0" y="364" dy="0.76em" text-anchor="middle" font-family="sans-serif" font-size="17.741935483870968" opacity="1" fill="#000000" transform="rotate(270, 0, 364)">
density
</text>
<text x="542" y="768" dy="-0.5ex" text-anchor="middle" font-family="sans-serif" font-size="17.741935483870968" opacity="1" fill="#000000">
x
</text>
<line opacity="1" stroke="#FFFFFF" stroke-width="1" x1="113" y1="721" x2="113" y2="7"/>
<line opacity="1" stroke="#FFFFFF" stroke-width="1" x1="199" y1="721" x2="199" y2="7"/>
<line opacity="1" stroke="#FFFFFF" stroke-width="1" x1="285" y1="721" x2="285" y2="7"/>
<line opacity="1" stroke="#FFFFFF" stroke-width="1" x1="370" y1="721" x2="370" y2="7"/>
<line opacity="1" stroke="#FFFFFF" stroke-width="1" x1="456" y1="721" x2="456" y2="7"/>
<line opacity="1" stroke="#FFFFFF" stroke-width="1" x1="542" y1="721" x2="542" y2="7"/>
<line opacity="1" stroke="#FFFFFF" stroke-width="1" x1="627" y1="721" x2="627" y2="7"/>
<line opacity="1" stroke="#FFFFFF" stroke-width="1" x1="713" y1="721" x2="713" y2="7"/>
<line opacity="1" stroke="#FFFFFF" stroke-width="1" x1="798" y1="721" x2="798" y2="7"/>
<line opacity="1" stroke="#FFFFFF" stroke-width="1" x1="884" y1="721" x2="884" y2="7"/>
<line opacity="1" stroke="#FFFFFF" stroke-width="1" x1="970" y1="721" x2="970" y2="7"/>
<line opacity="1" stroke="#FFFFFF" stroke-width="1" x1="71" y1="689" x2="1013" y2="689"/>
<line opacity="1" stroke="#FFFFFF" stroke-width="1" x1="71" y1="624" x2="1013" y2="624"/>
<line opacity="1" stroke="#FFFFFF" stroke-width="1" x1="71" y1="559" x2="1013" y2="559"/>
<line opacity="1" stroke="#FFFFFF" stroke-width="1" x1="71" y1="494" x2="1013" y2="494"/>
<line opacity="1" stroke="#FFFFFF" stroke-width="1" x1="71" y1="429" x2="1013" y2="429"/>
<line opacity="1" stroke="#FFFFFF" stroke-width="1" x1="71" y1="364" x2="1013" y2="364"/>
<line opacity="1" stroke="#FFFFFF" stroke-width="1" x1="71" y1="300" x2="1013" y2="300"/>
<line opacity="1" stroke="#FFFFFF" stroke-width="1" x1="71" y1="235" x2="1013" y2="235"/>
<line opacity="1" stroke="#FFFFFF" stroke-width="1" x1="71" y1="170" x2="1013" y2="170"/>
<line opacity="1" stroke="#FFFFFF" stroke-width="1" x1="71" y1="105" x2="1013" y2="105"/>
<line opacity="1" stroke="#FFFFFF" stroke-width="1" x1="71" y1="40" x2="1013" y2="40"/>
<polyline fill="none" opacity="1" stroke="#FFFFFF" stroke-width="1" points="70,7 70,721 "/>
<text x="61" y="689" dy="0.5ex" text-anchor="end" font-family="sans-serif" font-size="10.483870967741936" opacity="1" fill="#000000">
0.0
</text>
<polyline fill="none" opacity="1" stroke="#FFFFFF" stroke-width="1" points="65,689 70,689 "/>
<text x="61" y="624" dy="0.5ex" text-anchor="end" font-family="sans-serif" font-size="10.483870967741936" opacity="1" fill="#000000">
0.1
</text>
<polyline fill="none" opacity="1" stroke="#FFFFFF" stroke-width="1" points="65,624 70,624 "/>
<text x="61" y="559" dy="0.5ex" text-anchor="end" font-family="sans-serif" font-size="10.483870967741936" opacity="1" fill="#000000">
0.2
</text>
<polyline fill="none" opacity="1" stroke="#FFFFFF" stroke-width="1" points="65,559 70,559 "/>
<text x="61" y="494" dy="0.5ex" text-anchor="end" font-family="sans-serif" font-size="10.483870967741936" opacity="1" fill="#000000">
0.30
</text>
<polyline fill="none" opacity="1" stroke="#FFFFFF" stroke-width="1" points="65,494 70,494 "/>
<text x="61" y="429" dy="0.5ex" text-anchor="end" font-family="sans-serif" font-size="10.483870967741936" opacity="1" fill="#000000">
0.4
</text>
<polyline fill="none" opacity="1" stroke="#FFFFFF" stroke-width="1" points="65,429 70,429 "/>
<text x="61" y="364" dy="0.5ex" text-anchor="end" font-family="sans-serif" font-size="10.483870967741936" opacity="1" fill="#000000">
0.5
</text>
<polyline fill="none" opacity="1" stroke="#FFFFFF" stroke-width="1" points="65,364 70,364 "/>
<text x="61" y="300" dy="0.5ex" text-anchor="end" font-family="sans-serif" font-size="10.483870967741936" opacity="1" fill="#000000">
0.6
</text>
<polyline fill="none" opacity="1" stroke="#FFFFFF" stroke-width="1" points="65,300 70,300 "/>
<text x="61" y="235" dy="0.5ex" text-anchor="end" font-family="sans-serif" font-size="10.483870967741936" opacity="1" fill="#000000">
0.7
</text>
<polyline fill="none" opacity="1" stroke="#FFFFFF" stroke-width="1" points="65,235 70,235 "/>
<text x="61" y="170" dy="0.5ex" text-anchor="end" font-family="sans-serif" font-size="10.483870967741936" opacity="1" fill="#000000">
0.79
</text>
<polyline fill="none" opacity="1" stroke="#FFFFFF" stroke-width="1" points="65,170 70,170 "/>
<text x="61" y="105" dy="0.5ex" text-anchor="end" font-family="sans-serif" font-size="10.483870967741936" opacity="1" fill="#000000">
0.89
</text>
<polyline fill="none" opacity="1" stroke="#FFFFFF" stroke-width="1" points="65,105 70,105 "/>
<text x="61" y="40" dy="0.5ex" text-anchor="end" font-family="sans-serif" font-size="10.483870967741936" opacity="1" fill="#000000">
0.99
</text>
<polyline fill="none" opacity="1" stroke="#FFFFFF" stroke-width="1" points="65,40 70,40 "/>
<polyline fill="none" opacity="1" stroke="#FFFFFF" stroke-width="1" points="71,722 1013,722 "/>
<text x="113" y="732" dy="0.76em" text-anchor="middle" font-family="sans-serif" font-size="10.483870967741936" opacity="1" fill="#000000">
-1.00
</text>
<polyline fill="none" opacity="1" stroke="#FFFFFF" stroke-width="1" points="113,722 113,727 "/>
<text x="199" y="732" dy="0.76em" text-anchor="middle" font-family="sans-serif" font-size="10.483870967741936" opacity="1" fill="#000000">
-0.80
</text>
<polyline fill="none" opacity="1" stroke="#FFFFFF" stroke-width="1" points="199,722 199,727 "/>
<text x="285" y="732" dy="0.76em" text-anchor="middle" font-family="sans-serif" font-size="10.483870967741936" opacity="1" fill="#000000">
-0.60
</text>
<polyline fill="none" opacity="1" stroke="#FFFFFF" stroke-width="1" points="285,722 285,727 "/>
<text x="370" y="732" dy="0.76em" text-anchor="middle" font-family="sans-serif" font-size="10.483870967741936" opacity="1" fill="#000000">
-0.40
</text>
<polyline fill="none" opacity="1" stroke="#FFFFFF" stroke-width="1" points="370,722 370,727 "/>
<text x="456" y="732" dy="0.76em" text-anchor="middle" font-family="sans-serif" font-size="10.483870967741936" opacity="1" fill="#000000">
-0.20
</text>
<polyline fill="none" opacity="1" stroke="#FFFFFF" stroke-width="1" points="456,722 456,727 "/>
<text x="542" y="732" dy="0.76em" text-anchor="middle" font-family="sans-serif" font-size="10.483870967741936" opacity="1" fill="#000000">
0.0
</text>
<polyline fill="none" opacity="1" stroke="#FFFFFF" stroke-width="1" points="542,722 542,727 "/>
<text x="627" y="732" dy="0.76em" text-anchor="middle" font-family="sans-serif" font-size="10.483870967741936" opacity="1" fill="#000000">
0.19
</text>
<polyline fill="none" opacity="1" stroke="#FFFFFF" stroke-width="1" points="627,722 627,727 "/>
<text x="713" y="732" dy="0.76em" text-anchor="middle" font-family="sans-serif" font-size="10.483870967741936" opacity="1" fill="#000000">
0.39
</text>
<polyline fill="none" opacity="1" stroke="#FFFFFF" stroke-width="1" points="713,722 713,727 "/>
<text x="798" y="732" dy="0.76em" text-anchor="middle" font-family="sans-serif" font-size="10.483870967741936" opacity="1" fill="#000000">
0.59
</text>
<polyline fill="none" opacity="1" stroke="#FFFFFF" stroke-width="1" points="798,722 798,727 "/>
<text x="884" y="732" dy="0.76em" text-anchor="middle" font-family="sans-serif" font-size="10.483870967741936" opacity="1" fill="#000000">
0.79
</text>
<polyline fill="none" opacity="1" stroke="#FFFFFF" stroke-width="1" points="884,722 884,727 "/>
<text x="970" y="732" dy="0.76em" text-anchor="middle" font-family="sans-serif" font-size="10.483870967741936" opacity="1" fill="#000000">
0.99
</text>
<polyline fill="none" opacity="1" stroke="#FFFFFF" stroke-width="1" points="970,722 970,727 "/>
<polyline fill="none" opacity="1" stroke="#000000" stroke-width="2" points="970,689 969,689 969,689 968,689 968,689 968,689 967,689 967,689 966,689 966,689 965,689 965,689 965,689 964,689 964,689 963,689 963,689 962,689 962,689 962,689 961,689 961,689 960,689 960,689 959,689 959,689 959,689 958,689 958,689 957,689 957,689 956,689 956,689 956,689 955,689 955,689 954,689 954,689 953,689 953,689 953,689 952,689 952,689 951,689 951,689 950,689 950,689 950,689 949,689 949,689 948,689 948,689 947,689 947,689 947,689 946,689 946,689 945,689 945,689 944,689 944,689 944,689 943,689 943,689 942,689 942,689 941,689 941,689 941,689 940,689 940,689 939,689 939,689 938,689 938,689 938,689 937,689 937,689 936,689 936,689 935,689 935,689 935,689 934,689 934,689 933,689 933,689 932,689 932,689 932,689 931,689 931,689 930,689 930,689 929,689 929,689 929,689 928,689 928,689 927,689 927,689 926,689 926,689 926,689 925,689 925,689 924,689 924,689 923,689 923,689 923,689 922,689 922,689 921,689 921,689 920,689 920,689 920,689 919,689 919,689 918,689 918,689 917,689 917,689 917,689 916,689 916,689 915,689 915,689 914,689 914,689 914,689 913,689 913,689 912,689 912,689 911,689 911,689 911,689 910,689 910,689 909,689 909,689 908,689 908,689 908,689 907,689 907,689 906,689 906,689 905,689 905,689 905,689 904,689 904,689 903,689 903,689 902,689 902,689 902,689 901,689 901,689 900,689 900,689 899,689 899,689 899,689 898,689 898,689 897,689 897,689 896,689 896,689 896,689 895,689 895,689 894,689 894,689 893,689 893,689 893,689 892,689 892,689 891,689 891,689 890,689 890,689 890,689 889,689 889,689 888,689 888,689 887,689 887,689 887,689 886,689 886,689 885,689 885,689 884,689 884,689 884,689 883,689 883,689 882,689 882,689 881,689 881,689 881,689 880,689 880,689 879,689 879,689 878,689 878,689 878,689 877,689 877,689 876,689 876,689 875,689 875,689 875,689 874,689 874,689 873,689 873,689 872,689 872,689 872,689 871,689 871,689 870,689 870,689 869,689 869,689 869,689 868,689 868,689 867,689 867,689 866,689 866,689 866,689 865,689 865,689 864,689 864,689 863,689 863,689 863,689 862,689 862,689 861,689 861,689 860,689 860,689 860,689 859,689 859,689 858,689 858,689 857,689 857,689 857,689 856,689 856,689 855,689 855,689 855,689 854,689 854,689 853,689 853,689 852,689 852,689 852,689 851,689 851,689 850,689 850,689 849,689 849,689 849,689 848,689 848,689 847,689 847,689 846,689 846,689 846,689 845,689 845,689 844,689 844,689 843,689 843,689 843,689 842,689 842,689 841,689 841,689 840,689 840,689 840,689 839,689 839,689 838,689 838,689 837,689 837,689 837,689 836,689 836,689 835,689 835,689 834,689 834,689 834,689 833,689 833,689 832,689 832,689 831,689 831,689 831,689 830,689 830,689 829,689 829,689 828,689 828,689 828,689 827,689 827,689 826,689 826,689 825,689 825,689 825,689 824,689 824,689 823,689 823,689 822,689 822,689 822,689 821,689 821,689 820,689 820,689 819,689 819,689 819,689 818,689 818,689 817,689 817,689 816,689 816,689 816,689 815,689 815,689 814,689 814,689 813,689 813,689 813,689 812,689 812,689 811,689 811,689 810,689 810,689 810,689 809,689 809,689 808,689 808,689 807,689 807,689 807,689 806,689 806,689 805,689 805,689 804,689 804,689 804,689 803,689 803,689 802,689 802,689 801,689 801,689 801,689 800,689 800,689 799,689 799,689 798,689 798,689 798,689 797,689 797,689 796,689 796,689 795,689 795,689 795,689 794,689 794,689 793,689 793,689 792,689 792,689 792,689 791,689 791,689 790,689 790,689 789,689 789,689 789,689 788,689 788,689 787,689 787,689 786,689 786,689 786,689 785,689 785,689 784,689 784,689 783,689 783,689 783,689 782,689 782,689 781,689 781,689 780,689 780,689 780,689 779,689 779,689 778,689 778,689 777,689 777,689 777,689 776,689 776,689 775,689 775,689 774,689 774,689 774,689 773,689 773,689 772,689 772,689 771,689 771,689 771,689 770,689 770,689 769,689 769,689 768,689 768,689 768,689 767,689 767,689 766,689 766,689 765,689 765,689 765,689 764,689 764,689 763,689 763,689 762,689 762,689 762,689 761,689 761,689 760,689 760,689 759,689 759,689 759,689 758,689 758,689 757,689 757,689 756,689 756,689 756,689 755,689 755,689 754,689 754,689 753,689 753,689 753,689 752,689 752,689 751,689 751,689 750,689 750,689 750,689 749,689 749,689 748,689 748,689 747,689 747,689 747,689 746,689 746,689 745,689 745,689 744,689 744,689 744,689 743,689 743,689 742,689 742,689 741,689 741,689 741,689 740,689 740,689 739,689 739,689 738,689 738,689 738,689 737,689 737,689 736,689 736,689 735,689 735,689 735,689 734,689 734,689 733,689 733,689 732,689 732,689 732,689 731,689 731,689 730,689 730,689 729,689 729,689 729,689 728,689 728,689 727,689 727,689 726,689 726,689 726,689 725,689 725,689 724,689 724,689 723,689 723,689 723,689 722,689 722,689 721,689 721,689 720,689 720,689 720,689 719,689 719,689 718,689 718,689 717,689 717,689 717,689 716,689 716,689 715,689 715,689 714,689 714,689 714,689 713,689 713,689 712,689 712,689 711,689 711,689 711,689 710,689 710,689 709,689 709,689 708,689 708,689 708,689 707,689 707,689 706,689 706,689 705,689 705,689 705,689 704,689 704,689 703,689 703,689 702,689 702,689 702,689 701,689 701,689 700,689 700,689 700,689 699,689 699,689 698,689 698,689 697,689 697,689 697,689 696,689 696,689 695,689 695,689 694,689 694,689 694,689 693,689 693,689 692,689 692,689 691,689 691,689 691,689 690,689 690,689 689,689 689,689 688,689 688,689 688,689 687,689 687,689 686,689 686,689 685,689 685,689 685,689 684,689 684,689 683,689 683,689 682,689 682,689 682,689 681,689 681,689 680,689 680,689 679,689 679,689 679,689 678,689 678,689 677,689 677,689 676,689 676,689 676,689 675,689 675,689 674,689 674,689 673,689 673,689 673,689 672,689 672,689 671,689 671,689 670,689 670,689 670,689 669,689 669,689 668,689 668,689 667,689 667,689 667,689 666,689 666,689 665,689 665,689 664,689 664,689 664,689 663,689 663,689 662,689 662,689 661,689 661,689 661,689 660,689 660,689 659,689 659,689 658,689 658,689 658,689 657,689 657,689 656,689 656,689 655,689 655,689 655,689 654,689 654,689 653,689 653,689 652,689 652,689 652,689 651,689 651,689 650,689 650,689 649,689 649,689 649,689 648,689 648,689 647,689 647,689 646,689 646,689 646,689 645,689 645,689 644,689 644,689 643,689 643,689 643,689 642,689 642,689 641,689 641,689 640,689 640,689 640,689 639,689 639,689 638,689 638,689 637,689 637,689 637,689 636,689 636,689 635,689 635,689 634,689 634,689 634,689 633,689 633,689 632,689 632,689 631,689 631,689 631,689 630,689 630,689 629,689 629,689 628,689 628,689 628,689 627,689 627,689 626,689 626,689 625,689 625,689 625,689 624,689 624,689 623,689 623,689 622,689 622,689 622,689 621,689 621,689 620,689 620,689 619,689 619,689 619,689 618,689 618,689 617,689 617,689 616,689 616,689 616,689 615,689 615,689 614,689 614,689 613,689 613,689 613,689 612,689 612,689 611,689 611,689 610,689 610,689 610,689 609,689 609,689 608,689 608,689 607,689 607,689 607,689 606,689 606,689 605,689 605,689 604,689 604,689 604,689 603,689 603,689 602,689 602,689 601,689 601,689 601,689 600,689 600,689 599,689 599,689 598,689 598,689 598,689 597,689 597,689 596,689 596,689 595,689 595,689 595,689 594,689 594,689 593,689 593,689 592,689 592,689 592,689 591,689 591,689 590,689 590,689 589,689 589,689 589,689 588,689 588,689 587,689 587,689 586,689 586,689 586,689 585,689 585,689 584,689 584,689 583,689 583,689 583,689 582,689 582,689 581,689 581,689 580,689 580,689 580,689 579,689 579,689 578,689 578,689 577,689 577,689 577,689 576,689 576,689 575,689 575,689 574,689 574,689 574,689 573,689 573,689 572,689 572,689 571,689 571,689 571,689 570,689 570,689 569,689 569,689 568,689 568,689 568,689 567,689 567,689 566,689 566,689 565,689 565,689 565,689 564,689 564,689 563,689 563,689 562,689 562,689 562,689 561,689 561,689 560,689 560,689 559,689 559,689 559,689 558,689 558,689 557,689 557,689 556,689 556,689 556,689 555,689 555,689 554,689 554,689 553,689 553,689 553,689 552,689 552,689 551,689 551,689 550,689 550,689 550,689 549,689 549,689 548,689 548,689 547,689 547,689 547,689 546,689 546,689 545,689 545,689 544,689 544,689 544,689 543,689 543,689 542,689 542,689 542,40 541,689 541,689 540,689 540,689 539,689 539,689 539,689 538,689 538,689 537,689 537,689 536,689 536,689 536,689 535,689 535,689 534,689 534,689 533,689 533,689 533,689 532,689 532,689 531,689 531,689 530,689 530,689 530,689 529,689 529,689 528,689 528,689 527,689 527,689 527,689 526,689 526,689 525,689 525,689 524,689 524,689 524,689 523,689 523,689 522,689 522,689 521,689 521,689 521,689 520,689 520,689 519,689 519,689 518,689 518,689 518,689 517,689 517,689 516,689 516,689 515,689 515,689 515,689 514,689 514,689 513,689 513,689 512,689 512,689 512,689 511,689 511,689 510,689 510,689 509,689 509,689 509,689 508,689 508,689 507,689 507,689 506,689 506,689 506,689 505,689 505,689 504,689 504,689 503,689 503,689 503,689 502,689 502,689 501,689 501,689 500,689 500,689 500,689 499,689 499,689 498,689 498,689 497,689 497,689 497,689 496,689 496,689 495,689 495,689 494,689 494,689 494,689 493,689 493,689 492,689 492,689 491,689 491,689 491,689 490,689 490,689 489,689 489,689 488,689 488,689 488,689 487,689 487,689 486,689 486,689 485,689 485,689 485,689 484,689 484,689 483,689 483,689 482,689 482,689 482,689 481,689 481,689 480,689 480,689 479,689 479,689 479,689 478,689 478,689 477,689 477,689 476,689 476,689 476,689 475,689 475,689 474,689 474,689 473,689 473,689 473,689 472,689 472,689 471,689 471,689 470,689 470,689 470,689 469,689 469,689 468,689 468,689 467,689 467,689 467,689 466,689 466,689 465,689 465,689 464,689 464,689 464,689 463,689 463,689 462,689 462,689 461,689 461,689 461,689 460,689 460,689 459,689 459,689 458,689 458,689 458,689 457,689 457,689 456,689 456,689 455,689 455,689 455,689 454,689 454,689 453,689 453,689 452,689 452,689 452,689 451,689 451,689 450,689 450,689 449,689 449,689 449,689 448,689 448,689 447,689 447,689 446,689 446,689 446,689 445,689 445,689 444,689 444,689 443,689 443,689 443,689 442,689 442,689 441,689 441,689 440,689 440,689 440,689 439,689 439,689 438,689 438,689 437,689 437,689 437,689 436,689 436,689 435,689 435,689 434,689 434,689 434,689 433,689 433,689 432,689 432,689 431,689 431,689 431,689 430,689 430,689 429,689 429,689 428,689 428,689 428,689 427,689 427,689 426,689 426,689 425,689 425,689 425,689 424,689 424,689 423,689 423,689 422,689 422,689 422,689 421,689 421,689 420,689 420,689 419,689 419,689 419,689 418,689 418,689 417,689 417,689 416,689 416,689 416,689 415,689 415,689 414,689 414,689 413,689 413,689 413,689 412,689 412,689 411,689 411,689 410,689 410,689 410,689 409,689 409,689 408,689 408,689 407,689 407,689 407,689 406,689 406,689 405,689 405,689 404,689 404,689 404,689 403,689 403,689 402,689 402,689 401,689 401,689 401,689 400,689 400,689 399,689 399,689 398,689 398,689 398,689 397,689 397,689 396,689 396,689 395,689 395,689 395,689 394,689 394,689 393,689 393,689 392,689 392,689 392,689 391,689 391,689 390,689 390,689 389,689 389,689 389,689 388,689 388,689 387,689 387,689 386,689 386,689 386,689 385,689 385,689 384,689 384,689 384,689 383,689 383,689 382,689 382,689 381,689 381,689 381,689 380,689 380,689 379,689 379,689 378,689 378,689 378,689 377,689 377,689 376,689 376,689 375,689 375,689 375,689 374,689 374,689 373,689 373,689 372,689 372,689 372,689 371,689 371,689 370,689 370,689 369,689 369,689 369,689 368,689 368,689 367,689 367,689 366,689 366,689 366,689 365,689 365,689 364,689 364,689 363,689 363,689 363,689 362,689 362,689 361,689 361,689 360,689 360,689 360,689 359,689 359,689 358,689 358,689 357,689 357,689 357,689 356,689 356,689 355,689 355,689 354,689 354,689 354,689 353,689 353,689 352,689 352,689 351,689 351,689 351,689 350,689 350,689 349,689 349,689 348,689 348,689 348,689 347,689 347,689 346,689 346,689 345,689 345,689 345,689 344,689 344,689 343,689 343,689 342,689 342,689 342,689 341,689 341,689 340,689 340,689 339,689 339,689 339,689 338,689 338,689 337,689 337,689 336,689 336,689 336,689 335,689 335,689 334,689 334,689 333,689 333,689 333,689 332,689 332,689 331,689 331,689 330,689 330,689 330,689 329,689 329,689 328,689 328,689 327,689 327,689 327,689 326,689 326,689 325,689 325,689 324,689 324,689 324,689 323,689 323,689 322,689 322,689 321,689 321,689 321,689 320,689 320,689 319,689 319,689 318,689 318,689 318,689 317,689 317,689 316,689 316,689 315,689 315,689 315,689 314,689 314,689 313,689 313,689 312,689 312,689 312,689 311,689 311,689 310,689 310,689 309,689 309,689 309,689 308,689 308,689 307,689 307,689 306,689 306,689 306,689 305,689 305,689 304,689 304,689 303,689 303,689 303,689 302,689 302,689 301,689 301,689 300,689 300,689 300,689 299,689 299,689 298,689 298,689 297,689 297,689 297,689 296,689 296,689 295,689 295,689 294,689 294,689 294,689 293,689 293,689 292,689 292,689 291,689 291,689 291,689 290,689 290,689 289,689 289,689 288,689 288,689 288,689 287,689 287,689 286,689 286,689 285,689 285,689 285,689 284,689 284,689 283,689 283,689 282,689 282,689 282,689 281,689 281,689 280,689 280,689 279,689 279,689 279,689 278,689 278,689 277,689 277,689 276,689 276,689 276,689 275,689 275,689 274,689 274,689 273,689 273,689 273,689 272,689 272,689 271,689 271,689 270,689 270,689 270,689 269,689 269,689 268,689 268,689 267,689 267,689 267,689 266,689 266,689 265,689 265,689 264,689 264,689 264,689 263,689 263,689 262,689 262,689 261,689 261,689 261,689 260,689 260,689 259,689 259,689 258,689 258,689 258,689 257,689 257,689 256,689 256,689 255,689 255,689 255,689 254,689 254,689 253,689 253,689 252,689 252,689 252,689 251,689 251,689 250,689 250,689 249,689 249,689 249,689 248,689 248,689 247,689 247,689 246,689 246,689 246,689 245,689 245,689 244,689 244,689 243,689 243,689 243,689 242,689 242,689 241,689 241,689 240,689 240,689 240,689 239,689 239,689 238,689 238,689 237,689 237,689 237,689 236,689 236,689 235,689 235,689 234,689 234,689 234,689 233,689 233,689 232,689 232,689 231,689 231,689 231,689 230,689 230,689 229,689 229,689 229,689 228,689 228,689 227,689 227,689 226,689 226,689 226,689 225,689 225,689 224,689 224,689 223,689 223,689 223,689 222,689 222,689 221,689 221,689 220,689 220,689 220,689 219,689 219,689 218,689 218,689 217,689 217,689 217,689 216,689 216,689 215,689 215,689 214,689 214,689 214,689 213,689 213,689 212,689 212,689 211,689 211,689 211,689 210,689 210,689 209,689 209,689 208,689 208,689 208,689 207,689 207,689 206,689 206,689 205,689 205,689 205,689 204,689 204,689 203,689 203,689 202,689 202,689 202,689 201,689 201,689 200,689 200,689 199,689 199,689 199,689 198,689 198,689 197,689 197,689 196,689 196,689 196,689 195,689 195,689 194,689 194,689 193,689 193,689 193,689 192,689 192,689 191,689 191,689 190,689 190,689 190,689 189,689 189,689 188,689 188,689 187,689 187,689 187,689 186,689 186,689 185,689 185,689 184,689 184,689 184,689 183,689 183,689 182,689 182,689 181,689 181,689 181,689 180,689 180,689 179,689 179,689 178,689 178,689 178,689 177,689 177,689 176,689 176,689 175,689 175,689 175,689 174,689 174,689 173,689 173,689 172,689 172,689 172,689 171,689 171,689 170,689 170,689 169,689 169,689 169,689 168,689 168,689 167,689 167,689 166,689 166,689 166,689 165,689 165,689 164,689 164,689 163,689 163,689 163,689 162,689 162,689 161,689 161,689 160,689 160,689 160,689 159,689 159,689 158,689 158,689 157,689 157,689 157,689 156,689 156,689 155,689 155,689 154,689 154,689 154,689 153,689 153,689 152,689 152,689 151,689 151,689 151,689 150,689 150,689 149,689 149,689 148,689 148,689 148,689 147,689 147,689 146,689 146,689 145,689 145,689 145,689 144,689 144,689 143,689 143,689 142,689 142,689 142,689 141,689 141,689 140,689 140,689 139,689 139,689 139,689 138,689 138,689 137,689 137,689 136,689 136,689 136,689 135,689 135,689 134,689 134,689 133,689 133,689 133,689 132,689 132,689 131,689 131,689 130,689 130,689 130,689 129,689 129,689 128,689 128,689 127,689 127,689 127,689 126,689 126,689 125,689 125,689 124,689 124,689 124,689 123,689 123,689 122,689 122,689 121,689 121,689 121,689 120,689 120,689 119,689 119,689 118,689 118,689 118,689 117,689 117,689 116,689 116,689 115,689 115,689 115,689 114,689 114,689 113,689 "/>
</svg>
