<svg width="1024" height="768" viewBox="0 0 1024 768" xmlns="http://www.w3.org/2000/svg">
<rect x="0" y="0" width="1024" height="768" opacity="1" fill="#FFFFFF" stroke="none"/>
<rect x="71" y="46" width="942" height="675" opacity="1" fill="#EEEEEE" stroke="none"/>
<text x="512" y="5" dy="0.76em" text-anchor="middle" font-family="sans-serif" font-size="35.75846828529295" opacity="1" fill="#000000">
Beta a=inf, b=2
</text>
<line opacity="1" stroke="#FFFFFF" stroke-width="1" x1="113" y1="721" x2="113" y2="46"/>
<line opacity="1" stroke="#FFFFFF" stroke-width="1" x1="199" y1="721" x2="199" y2="46"/>
<line opacity="1" stroke="#FFFFFF" stroke-width="1" x1="285" y1="721" x2="285" y2="46"/>
<line opacity="1" stroke="#FFFFFF" stroke-width="1" x1="370" y1="721" x2="370" y2="46"/>
<line opacity="1" stroke="#FFFFFF" stroke-width="1" x1="456" y1="721" x2="456" y2="46"/>
<line opacity="1" stroke="#FFFFFF" stroke-width="1" x1="542" y1="721" x2="542" y2="46"/>
<line opacity="1" stroke="#FFFFFF" stroke-width="1" x1="627" y1="721" x2="627" y2="46"/>
<line opacity="1" stroke="#FFFFFF" stroke-width="1" x1="713" y1="721" x2="713" y2="46"/>
<line opacity="1" stroke="#FFFFFF" stroke-width="1" x1="798" y1="721" x2="798" y2="46"/>
<line opacity="1" stroke="#FFFFFF" stroke-width="1" x1="884" y1="721" x2="884" y2="46"/>
<line opacity="1" stroke="#FFFFFF" stroke-width="1" x1="970" y1="721" x2="970" y2="46"/>
<line opacity="1" stroke="#FFFFFF" stroke-width="1" x1="71" y1="691" x2="1013" y2="691"/>
<line opacity="1" stroke="#FFFFFF" stroke-width="1" x1="71" y1="635" x2="1013" y2="635"/>
<line opacity="1" stroke="#FFFFFF" stroke-width="1" x1="71" y1="579" x2="1013" y2="579"/>
<line opacity="1" stroke="#FFFFFF" stroke-width="1" x1="71" y1="523" x2="1013" y2="523"/>
<line opacity="1" stroke="#FFFFFF" stroke-width="1" x1="71" y1="468" x2="1013" y2="468"/>
<line opacity="1" stroke="#FFFFFF" stroke-width="1" x1="71" y1="412" x2="1013" y2="412"/>
<line opacity="1" stroke="#FFFFFF" stroke-width="1" x1="71" y1="356" x2="1013" y2="356"/>
<line opacity="1" stroke="#FFFFFF" stroke-width="1" x1="71" y1="300" x2="1013" y2="300"/>
<line opacity="1" stroke="#FFFFFF" stroke-width="1" x1="71" y1="245" x2="1013" y2="245"/>
<line opacity="1" stroke="#FFFFFF" stroke-width="1" x1="71" y1="189" x2="1013" y2="189"/>
<line opacity="1" stroke="#FFFFFF" stroke-width="1" x1="71" y1="133" x2="1013" y2="133"/>
<line opacity="1" stroke="#FFFFFF" stroke-width="1" x1="71" y1="77" x2="1013" y2="77"/>
<text x="0" y="384" dy="0.76em" text-anchor="middle" font-family="sans-serif" font-size="17.741935483870968" opacity="1" fill="#000000" transform="rotate(270, 0, 384)">

</text>
<text x="542" y="768" dy="-0.5ex" text-anchor="middle" font-family="sans-serif" font-size="17.741935483870968" opacity="1" fill="#000000">
x
</text>
<line opacity="1" stroke="#FFFFFF" stroke-width="1" x1="113" y1="721" x2="113" y2="46"/>
<line opacity="1" stroke="#FFFFFF" stroke-width="1" x1="199" y1="721" x2="199" y2="46"/>
<line opacity="1" stroke="#FFFFFF" stroke-width="1" x1="285" y1="721" x2="285" y2="46"/>
<line opacity="1" stroke="#FFFFFF" stroke-width="1" x1="370" y1="721" x2="370" y2="46"/>
<line opacity="1" stroke="#FFFFFF" stroke-width="1" x1="456" y1="721" x2="456" y2="46"/>
<line opacity="1" stroke="#FFFFFF" stroke-width="1" x1="542" y1="721" x2="542" y2="46"/>
<line opacity="1" stroke="#FFFFFF" stroke-width="1" x1="627" y1="721" x2="627" y2="46"/>
<line opacity="1" stroke="#FFFFFF" stroke-width="1" x1="713" y1="721" x2="713" y2="46"/>
<line opacity="1" stroke="#FFFFFF" stroke-width="1" x1="798" y1="721" x2="798" y2="46"/>
<line opacity="1" stroke="#FFFFFF" stroke-width="1" x1="884" y1="721" x2="884" y2="46"/>
<line opacity="1" stroke="#FFFFFF" stroke-width="1" x1="970" y1="721" x2="970" y2="46"/>
<line opacity="1" stroke="#FFFFFF" stroke-width="1" x1="71" y1="691" x2="1013" y2="691"/>
<line opacity="1" stroke="#FFFFFF" stroke-width="1" x1="71" y1="579" x2="1013" y2="579"/>
<line opacity="1" stroke="#FFFFFF" stroke-width="1" x1="71" y1="468" x2="1013" y2="468"/>
<line opacity="1" stroke="#FFFFFF" stroke-width="1" x1="71" y1="356" x2="1013" y2="356"/>
<line opacity="1" stroke="#FFFFFF" stroke-width="1" x1="71" y1="245" x2="1013" y2="245"/>
<line opacity="1" stroke="#FFFFFF" stroke-width="1" x1="71" y1="133" x2="1013" y2="133"/>
<polyline fill="none" opacity="1" stroke="#FFFFFF" stroke-width="1" points="70,46 70,721 "/>
<text x="61" y="691" dy="0.5ex" text-anchor="end" font-family="sans-serif" font-size="10.483870967741936" opacity="1" fill="#000000">
0.0
</text>
<polyline fill="none" opacity="1" stroke="#FFFFFF" stroke-width="1" points="65,691 70,691 "/>
<text x="61" y="579" dy="0.5ex" text-anchor="end" font-family="sans-serif" font-size="10.483870967741936" opacity="1" fill="#000000">
0.2
</text>
<polyline fill="none" opacity="1" stroke="#FFFFFF" stroke-width="1" points="65,579 70,579 "/>
<text x="61" y="468" dy="0.5ex" text-anchor="end" font-family="sans-serif" font-size="10.483870967741936" opacity="1" fill="#000000">
0.4
</text>
<polyline fill="none" opacity="1" stroke="#FFFFFF" stroke-width="1" points="65,468 70,468 "/>
<text x="61" y="356" dy="0.5ex" text-anchor="end" font-family="sans-serif" font-size="10.483870967741936" opacity="1" fill="#000000">
0.60
</text>
<polyline fill="none" opacity="1" stroke="#FFFFFF" stroke-width="1" points="65,356 70,356 "/>
<text x="61" y="245" dy="0.5ex" text-anchor="end" font-family="sans-serif" font-size="10.483870967741936" opacity="1" fill="#000000">
0.8
</text>
<polyline fill="none" opacity="1" stroke="#FFFFFF" stroke-width="1" points="65,245 70,245 "/>
<text x="61" y="133" dy="0.5ex" text-anchor="end" font-family="sans-serif" font-size="10.483870967741936" opacity="1" fill="#000000">
1.0
</text>
<polyline fill="none" opacity="1" stroke="#FFFFFF" stroke-width="1" points="65,133 70,133 "/>
<polyline fill="none" opacity="1" stroke="#FFFFFF" stroke-width="1" points="71,722 1013,722 "/>
<text x="113" y="732" dy="0.76em" text-anchor="middle" font-family="sans-serif" font-size="10.483870967741936" opacity="1" fill="#000000">
0.0
</text>
<polyline fill="none" opacity="1" stroke="#FFFFFF" stroke-width="1" points="113,722 113,727 "/>
<text x="199" y="732" dy="0.76em" text-anchor="middle" font-family="sans-serif" font-size="10.483870967741936" opacity="1" fill="#000000">
0.1
</text>
<polyline fill="none" opacity="1" stroke="#FFFFFF" stroke-width="1" points="199,722 199,727 "/>
<text x="285" y="732" dy="0.76em" text-anchor="middle" font-family="sans-serif" font-size="10.483870967741936" opacity="1" fill="#000000">
0.2
</text>
<polyline fill="none" opacity="1" stroke="#FFFFFF" stroke-width="1" points="285,722 285,727 "/>
<text x="370" y="732" dy="0.76em" text-anchor="middle" font-family="sans-serif" font-size="10.483870967741936" opacity="1" fill="#000000">
0.30
</text>
<polyline fill="none" opacity="1" stroke="#FFFFFF" stroke-width="1" points="370,722 370,727 "/>
<text x="456" y="732" dy="0.76em" text-anchor="middle" font-family="sans-serif" font-size="10.483870967741936" opacity="1" fill="#000000">
0.4
</text>
<polyline fill="none" opacity="1" stroke="#FFFFFF" stroke-width="1" points="456,722 456,727 "/>
<text x="542" y="732" dy="0.76em" text-anchor="middle" font-family="sans-serif" font-size="10.483870967741936" opacity="1" fill="#000000">
0.5
</text>
<polyline fill="none" opacity="1" stroke="#FFFFFF" stroke-width="1" points="542,722 542,727 "/>
<text x="627" y="732" dy="0.76em" text-anchor="middle" font-family="sans-serif" font-size="10.483870967741936" opacity="1" fill="#000000">
0.6
</text>
<polyline fill="none" opacity="1" stroke="#FFFFFF" stroke-width="1" points="627,722 627,727 "/>
<text x="713" y="732" dy="0.76em" text-anchor="middle" font-family="sans-serif" font-size="10.483870967741936" opacity="1" fill="#000000">
0.7
</text>
<polyline fill="none" opacity="1" stroke="#FFFFFF" stroke-width="1" points="713,722 713,727 "/>
<text x="798" y="732" dy="0.76em" text-anchor="middle" font-family="sans-serif" font-size="10.483870967741936" opacity="1" fill="#000000">
0.79
</text>
<polyline fill="none" opacity="1" stroke="#FFFFFF" stroke-width="1" points="798,722 798,727 "/>
<text x="884" y="732" dy="0.76em" text-anchor="middle" font-family="sans-serif" font-size="10.483870967741936" opacity="1" fill="#000000">
0.89
</text>
<polyline fill="none" opacity="1" stroke="#FFFFFF" stroke-width="1" points="884,722 884,727 "/>
<text x="970" y="732" dy="0.76em" text-anchor="middle" font-family="sans-serif" font-size="10.483870967741936" opacity="1" fill="#000000">
0.99
</text>
<polyline fill="none" opacity="1" stroke="#FFFFFF" stroke-width="1" points="970,722 970,727 "/>
<polyline fill="none" opacity="1" stroke="#000000" stroke-width="2" points="970,691 916,691 863,691 809,691 756,691 702,691 649,691 595,691 542,691 542,691 542,691 488,691 434,691 381,691 327,691 274,691 220,691 167,691 113,691 113,691 "/>
<polyline fill="none" opacity="1" stroke="#FF0000" stroke-width="2" points="113,691 117,691 "/>
<polyline fill="none" opacity="1" stroke="#FF0000" stroke-width="2" points="120,691 123,691 "/>
<polyline fill="none" opacity="1" stroke="#FF0000" stroke-width="2" points="127,691 130,691 "/>
<polyline fill="none" opacity="1" stroke="#FF0000" stroke-width="2" points="133,691 137,691 "/>
<polyline fill="none" opacity="1" stroke="#FF0000" stroke-width="2" points="140,691 143,691 "/>
<polyline fill="none" opacity="1" stroke="#FF0000" stroke-width="2" points="147,691 150,691 "/>
<polyline fill="none" opacity="1" stroke="#FF0000" stroke-width="2" points="153,691 157,691 "/>
<polyline fill="none" opacity="1" stroke="#FF0000" stroke-width="2" points="160,691 163,691 "/>
<polyline fill="none" opacity="1" stroke="#FF0000" stroke-width="2" points="167,691 170,691 "/>
<polyline fill="none" opacity="1" stroke="#FF0000" stroke-width="2" points="174,691 177,691 "/>
<polyline fill="none" opacity="1" stroke="#FF0000" stroke-width="2" points="180,691 184,691 "/>
<polyline fill="none" opacity="1" stroke="#FF0000" stroke-width="2" points="187,691 190,691 "/>
<polyline fill="none" opacity="1" stroke="#FF0000" stroke-width="2" points="194,691 197,691 "/>
<polyline fill="none" opacity="1" stroke="#FF0000" stroke-width="2" points="200,691 204,691 "/>
<polyline fill="none" opacity="1" stroke="#FF0000" stroke-width="2" points="207,691 210,691 "/>
<polyline fill="none" opacity="1" stroke="#FF0000" stroke-width="2" points="214,691 217,691 "/>
<polyline fill="none" opacity="1" stroke="#FF0000" stroke-width="2" points="220,691 224,691 "/>
<polyline fill="none" opacity="1" stroke="#FF0000" stroke-width="2" points="227,691 230,691 "/>
<polyline fill="none" opacity="1" stroke="#FF0000" stroke-width="2" points="234,691 237,691 "/>
<polyline fill="none" opacity="1" stroke="#FF0000" stroke-width="2" points="240,691 244,691 "/>
<polyline fill="none" opacity="1" stroke="#FF0000" stroke-width="2" points="247,691 250,691 "/>
<polyline fill="none" opacity="1" stroke="#FF0000" stroke-width="2" points="254,691 257,691 "/>
<polyline fill="none" opacity="1" stroke="#FF0000" stroke-width="2" points="261,691 264,691 "/>
<polyline fill="none" opacity="1" stroke="#FF0000" stroke-width="2" points="267,691 271,691 "/>
<polyline fill="none" opacity="1" stroke="#FF0000" stroke-width="2" points="274,691 277,691 "/>
<polyline fill="none" opacity="1" stroke="#FF0000" stroke-width="2" points="281,691 284,691 "/>
<polyline fill="none" opacity="1" stroke="#FF0000" stroke-width="2" points="287,691 291,691 "/>
<polyline fill="none" opacity="1" stroke="#FF0000" stroke-width="2" points="294,691 297,691 "/>
<polyline fill="none" opacity="1" stroke="#FF0000" stroke-width="2" points="301,691 304,691 "/>
<polyline fill="none" opacity="1" stroke="#FF0000" stroke-width="2" points="307,691 311,691 "/>
<polyline fill="none" opacity="1" stroke="#FF0000" stroke-width="2" points="314,691 317,691 "/>
<polyline fill="none" opacity="1" stroke="#FF0000" stroke-width="2" points="321,691 324,691 "/>
<polyline fill="none" opacity="1" stroke="#FF0000" stroke-width="2" points="327,691 331,691 "/>
<polyline fill="none" opacity="1" stroke="#FF0000" stroke-width="2" points="334,691 337,691 "/>
<polyline fill="none" opacity="1" stroke="#FF0000" stroke-width="2" points="341,691 344,691 "/>
<polyline fill="none" opacity="1" stroke="#FF0000" stroke-width="2" points="347,691 351,691 "/>
<polyline fill="none" opacity="1" stroke="#FF0000" stroke-width="2" points="354,691 358,691 "/>
<polyline fill="none" opacity="1" stroke="#FF0000" stroke-width="2" points="361,691 364,691 "/>
<polyline fill="none" opacity="1" stroke="#FF0000" stroke-width="2" points="368,691 371,691 "/>
<polyline fill="none" opacity="1" stroke="#FF0000" stroke-width="2" points="374,691 378,691 "/>
<polyline fill="none" opacity="1" stroke="#FF0000" stroke-width="2" points="381,691 384,691 "/>
<polyline fill="none" opacity="1" stroke="#FF0000" stroke-width="2" points="388,691 391,691 "/>
<polyline fill="none" opacity="1" stroke="#FF0000" stroke-width="2" points="394,691 398,691 "/>
<polyline fill="none" opacity="1" stroke="#FF0000" stroke-width="2" points="401,691 404,691 "/>
<polyline fill="none" opacity="1" stroke="#FF0000" stroke-width="2" points="408,691 411,691 "/>
<polyline fill="none" opacity="1" stroke="#FF0000" stroke-width="2" points="414,691 418,691 "/>
<polyline fill="none" opacity="1" stroke="#FF0000" stroke-width="2" points="421,691 424,691 "/>
<polyline fill="none" opacity="1" stroke="#FF0000" stroke-width="2" points="428,691 431,691 "/>
<polyline fill="none" opacity="1" stroke="#FF0000" stroke-width="2" points="434,691 438,691 "/>
<polyline fill="none" opacity="1" stroke="#FF0000" stroke-width="2" points="441,691 444,691 "/>
<polyline fill="none" opacity="1" stroke="#FF0000" stroke-width="2" points="448,691 451,691 "/>
<polyline fill="none" opacity="1" stroke="#FF0000" stroke-width="2" points="455,691 458,691 "/>
<polyline fill="none" opacity="1" stroke="#FF0000" stroke-width="2" points="461,691 465,691 "/>
<polyline fill="none" opacity="1" stroke="#FF0000" stroke-width="2" points="468,691 471,691 "/>
<polyline fill="none" opacity="1" stroke="#FF0000" stroke-width="2" points="475,691 478,691 "/>
<polyline fill="none" opacity="1" stroke="#FF0000" stroke-width="2" points="481,691 485,691 "/>
<polyline fill="none" opacity="1" stroke="#FF0000" stroke-width="2" points="488,691 491,691 "/>
<polyline fill="none" opacity="1" stroke="#FF0000" stroke-width="2" points="495,691 498,691 "/>
<polyline fill="none" opacity="1" stroke="#FF0000" stroke-width="2" points="501,691 505,691 "/>
<polyline fill="none" opacity="1" stroke="#FF0000" stroke-width="2" points="508,691 511,691 "/>
<polyline fill="none" opacity="1" stroke="#FF0000" stroke-width="2" points="515,691 518,691 "/>
<polyline fill="none" opacity="1" stroke="#FF0000" stroke-width="2" points="521,691 525,691 "/>
<polyline fill="none" opacity="1" stroke="#FF0000" stroke-width="2" points="528,691 531,691 "/>
<polyline fill="none" opacity="1" stroke="#FF0000" stroke-width="2" points="535,691 538,691 "/>
<polyline fill="none" opacity="1" stroke="#FF0000" stroke-width="2" points="542,691 545,691 "/>
<polyline fill="none" opacity="1" stroke="#FF0000" stroke-width="2" points="548,691 552,691 "/>
<polyline fill="none" opacity="1" stroke="#FF0000" stroke-width="2" points="555,691 558,691 "/>
<polyline fill="none" opacity="1" stroke="#FF0000" stroke-width="2" points="562,691 565,691 "/>
<polyline fill="none" opacity="1" stroke="#FF0000" stroke-width="2" points="568,691 572,691 "/>
<polyline fill="none" opacity="1" stroke="#FF0000" stroke-width="2" points="575,691 578,691 "/>
<polyline fill="none" opacity="1" stroke="#FF0000" stroke-width="2" points="582,691 585,691 "/>
<polyline fill="none" opacity="1" stroke="#FF0000" stroke-width="2" points="588,691 592,691 "/>
<polyline fill="none" opacity="1" stroke="#FF0000" stroke-width="2" points="595,691 598,691 "/>
<polyline fill="none" opacity="1" stroke="#FF0000" stroke-width="2" points="602,691 605,691 "/>
<polyline fill="none" opacity="1" stroke="#FF0000" stroke-width="2" points="608,691 612,691 "/>
<polyline fill="none" opacity="1" stroke="#FF0000" stroke-width="2" points="615,691 618,691 "/>
<polyline fill="none" opacity="1" stroke="#FF0000" stroke-width="2" points="622,691 625,691 "/>
<polyline fill="none" opacity="1" stroke="#FF0000" stroke-width="2" points="628,691 632,691 "/>
<polyline fill="none" opacity="1" stroke="#FF0000" stroke-width="2" points="635,691 639,691 "/>
<polyline fill="none" opacity="1" stroke="#FF0000" stroke-width="2" points="642,691 645,691 "/>
<polyline fill="none" opacity="1" stroke="#FF0000" stroke-width="2" points="649,691 652,691 "/>
<polyline fill="none" opacity="1" stroke="#FF0000" stroke-width="2" points="655,691 659,691 "/>
<polyline fill="none" opacity="1" stroke="#FF0000" stroke-width="2" points="662,691 665,691 "/>
<polyline fill="none" opacity="1" stroke="#FF0000" stroke-width="2" points="669,691 672,691 "/>
<polyline fill="none" opacity="1" stroke="#FF0000" stroke-width="2" points="675,691 679,691 "/>
<polyline fill="none" opacity="1" stroke="#FF0000" stroke-width="2" points="682,691 685,691 "/>
<polyline fill="none" opacity="1" stroke="#FF0000" stroke-width="2" points="689,691 692,691 "/>
<polyline fill="none" opacity="1" stroke="#FF0000" stroke-width="2" points="695,691 699,691 "/>
<polyline fill="none" opacity="1" stroke="#FF0000" stroke-width="2" points="702,691 705,691 "/>
<polyline fill="none" opacity="1" stroke="#FF0000" stroke-width="2" points="709,691 712,691 "/>
<polyline fill="none" opacity="1" stroke="#FF0000" stroke-width="2" points="715,691 719,691 "/>
<polyline fill="none" opacity="1" stroke="#FF0000" stroke-width="2" points="722,691 725,691 "/>
<polyline fill="none" opacity="1" stroke="#FF0000" stroke-width="2" points="729,691 732,691 "/>
<polyline fill="none" opacity="1" stroke="#FF0000" stroke-width="2" points="736,691 739,691 "/>
<polyline fill="none" opacity="1" stroke="#FF0000" stroke-width="2" points="742,691 746,691 "/>
<polyline fill="none" opacity="1" stroke="#FF0000" stroke-width="2" points="749,691 752,691 "/>
<polyline fill="none" opacity="1" stroke="#FF0000" stroke-width="2" points="756,691 759,691 "/>
<polyline fill="none" opacity="1" stroke="#FF0000" stroke-width="2" points="762,691 766,691 "/>
<polyline fill="none" opacity="1" stroke="#FF0000" stroke-width="2" points="769,691 772,691 "/>
<polyline fill="none" opacity="1" stroke="#FF0000" stroke-width="2" points="776,691 779,691 "/>
<polyline fill="none" opacity="1" stroke="#FF0000" stroke-width="2" points="782,691 786,691 "/>
<polyline fill="none" opacity="1" stroke="#FF0000" stroke-width="2" points="789,691 792,691 "/>
<polyline fill="none" opacity="1" stroke="#FF0000" stroke-width="2" points="796,691 799,691 "/>
<polyline fill="none" opacity="1" stroke="#FF0000" stroke-width="2" points="802,691 806,691 "/>
<polyline fill="none" opacity="1" stroke="#FF0000" stroke-width="2" points="809,691 812,691 "/>
<polyline fill="none" opacity="1" stroke="#FF0000" stroke-width="2" points="816,691 819,691 "/>
<polyline fill="none" opacity="1" stroke="#FF0000" stroke-width="2" points="822,691 826,691 "/>
<polyline fill="none" opacity="1" stroke="#FF0000" stroke-width="2" points="829,691 833,691 "/>
<polyline fill="none" opacity="1" stroke="#FF0000" stroke-width="2" points="836,691 839,691 "/>
<polyline fill="none" opacity="1" stroke="#FF0000" stroke-width="2" points="843,691 846,691 "/>
<polyline fill="none" opacity="1" stroke="#FF0000" stroke-width="2" points="849,691 853,691 "/>
<polyline fill="none" opacity="1" stroke="#FF0000" stroke-width="2" points="856,691 859,691 "/>
<polyline fill="none" opacity="1" stroke="#FF0000" stroke-width="2" points="863,691 866,691 "/>
<polyline fill="none" opacity="1" stroke="#FF0000" stroke-width="2" points="869,691 873,691 "/>
<polyline fill="none" opacity="1" stroke="#FF0000" stroke-width="2" points="876,691 879,691 "/>
<polyline fill="none" opacity="1" stroke="#FF0000" stroke-width="2" points="883,691 886,691 "/>
<polyline fill="none" opacity="1" stroke="#FF0000" stroke-width="2" points="889,691 893,691 "/>
<polyline fill="none" opacity="1" stroke="#FF0000" stroke-width="2" points="896,691 899,691 "/>
<polyline fill="none" opacity="1" stroke="#FF0000" stroke-width="2" points="903,691 906,691 "/>
<polyline fill="none" opacity="1" stroke="#FF0000" stroke-width="2" points="909,691 913,691 "/>
<polyline fill="none" opacity="1" stroke="#FF0000" stroke-width="2" points="916,691 920,691 "/>
<polyline fill="none" opacity="1" stroke="#FF0000" stroke-width="2" points="923,691 926,691 "/>
<polyline fill="none" opacity="1" stroke="#FF0000" stroke-width="2" points="930,691 933,691 "/>
<polyline fill="none" opacity="1" stroke="#FF0000" stroke-width="2" points="936,691 940,691 "/>
<polyline fill="none" opacity="1" stroke="#FF0000" stroke-width="2" points="943,691 946,691 "/>
<polyline fill="none" opacity="1" stroke="#FF0000" stroke-width="2" points="950,691 953,691 "/>
<polyline fill="none" opacity="1" stroke="#FF0000" stroke-width="2" points="956,691 960,691 "/>
<polyline fill="none" opacity="1" stroke="#FF0000" stroke-width="2" points="963,691 966,691 "/>
<polyline fill="none" opacity="1" stroke="#FF0000" stroke-width="2" points="970,691 970,686 "/>
<polyline fill="none" opacity="1" stroke="#FF0000" stroke-width="2" points="970,682 970,678 "/>
<polyline fill="none" opacity="1" stroke="#FF0000" stroke-width="2" points="970,673 970,669 "/>
<polyline fill="none" opacity="1" stroke="#FF0000" stroke-width="2" points="970,665 970,660 "/>
<polyline fill="none" opacity="1" stroke="#FF0000" stroke-width="2" points="970,656 970,652 "/>
<polyline fill="none" opacity="1" stroke="#FF0000" stroke-width="2" points="970,647 970,643 "/>
<polyline fill="none" opacity="1" stroke="#FF0000" stroke-width="2" points="970,639 970,634 "/>
<polyline fill="none" opacity="1" stroke="#FF0000" stroke-width="2" points="970,630 970,625 "/>
<polyline fill="none" opacity="1" stroke="#FF0000" stroke-width="2" points="970,621 970,617 "/>
<polyline fill="none" opacity="1" stroke="#FF0000" stroke-width="2" points="970,612 970,608 "/>
<polyline fill="none" opacity="1" stroke="#FF0000" stroke-width="2" points="970,604 970,599 "/>
<polyline fill="none" opacity="1" stroke="#FF0000" stroke-width="2" points="970,595 970,591 "/>
<polyline fill="none" opacity="1" stroke="#FF0000" stroke-width="2" points="970,586 970,582 "/>
<polyline fill="none" opacity="1" stroke="#FF0000" stroke-width="2" points="970,578 970,573 "/>
<polyline fill="none" opacity="1" stroke="#FF0000" stroke-width="2" points="970,569 970,564 "/>
<polyline fill="none" opacity="1" stroke="#FF0000" stroke-width="2" points="970,560 970,556 "/>
<polyline fill="none" opacity="1" stroke="#FF0000" stroke-width="2" points="970,551 970,547 "/>
<polyline fill="none" opacity="1" stroke="#FF0000" stroke-width="2" points="970,543 970,538 "/>
<polyline fill="none" opacity="1" stroke="#FF0000" stroke-width="2" points="970,534 970,530 "/>
<polyline fill="none" opacity="1" stroke="#FF0000" stroke-width="2" points="970,525 970,521 "/>
<polyline fill="none" opacity="1" stroke="#FF0000" stroke-width="2" points="970,516 970,512 "/>
<polyline fill="none" opacity="1" stroke="#FF0000" stroke-width="2" points="970,508 970,503 "/>
<polyline fill="none" opacity="1" stroke="#FF0000" stroke-width="2" points="970,499 970,495 "/>
<polyline fill="none" opacity="1" stroke="#FF0000" stroke-width="2" points="970,490 970,486 "/>
<polyline fill="none" opacity="1" stroke="#FF0000" stroke-width="2" points="970,482 970,477 "/>
<polyline fill="none" opacity="1" stroke="#FF0000" stroke-width="2" points="970,473 970,469 "/>
<polyline fill="none" opacity="1" stroke="#FF0000" stroke-width="2" points="970,464 970,460 "/>
<polyline fill="none" opacity="1" stroke="#FF0000" stroke-width="2" points="970,455 970,451 "/>
<polyline fill="none" opacity="1" stroke="#FF0000" stroke-width="2" points="970,447 970,442 "/>
<polyline fill="none" opacity="1" stroke="#FF0000" stroke-width="2" points="970,438 970,434 "/>
<polyline fill="none" opacity="1" stroke="#FF0000" stroke-width="2" points="970,429 970,425 "/>
<polyline fill="none" opacity="1" stroke="#FF0000" stroke-width="2" points="970,421 970,416 "/>
<polyline fill="none" opacity="1" stroke="#FF0000" stroke-width="2" points="970,412 970,408 "/>
<polyline fill="none" opacity="1" stroke="#FF0000" stroke-width="2" points="970,403 970,399 "/>
<polyline fill="none" opacity="1" stroke="#FF0000" stroke-width="2" points="970,394 970,390 "/>
<polyline fill="none" opacity="1" stroke="#FF0000" stroke-width="2" points="970,386 970,381 "/>
<polyline fill="none" opacity="1" stroke="#FF0000" stroke-width="2" points="970,377 970,373 "/>
<polyline fill="none" opacity="1" stroke="#FF0000" stroke-width="2" points="970,368 970,364 "/>
<polyline fill="none" opacity="1" stroke="#FF0000" stroke-width="2" points="970,360 970,355 "/>
<polyline fill="none" opacity="1" stroke="#FF0000" stroke-width="2" points="970,351 970,347 "/>
<polyline fill="none" opacity="1" stroke="#FF0000" stroke-width="2" points="970,342 970,338 "/>
<polyline fill="none" opacity="1" stroke="#FF0000" stroke-width="2" points="970,333 970,329 "/>
<polyline fill="none" opacity="1" stroke="#FF0000" stroke-width="2" points="970,325 970,320 "/>
<polyline fill="none" opacity="1" stroke="#FF0000" stroke-width="2" points="970,316 970,312 "/>
<polyline fill="none" opacity="1" stroke="#FF0000" stroke-width="2" points="970,307 970,303 "/>
<polyline fill="none" opacity="1" stroke="#FF0000" stroke-width="2" points="970,299 970,294 "/>
<polyline fill="none" opacity="1" stroke="#FF0000" stroke-width="2" points="970,290 970,286 "/>
<polyline fill="none" opacity="1" stroke="#FF0000" stroke-width="2" points="970,281 970,277 "/>
<polyline fill="none" opacity="1" stroke="#FF0000" stroke-width="2" points="970,272 970,268 "/>
<polyline fill="none" opacity="1" stroke="#FF0000" stroke-width="2" points="970,264 970,259 "/>
<polyline fill="none" opacity="1" stroke="#FF0000" stroke-width="2" points="970,255 970,251 "/>
<polyline fill="none" opacity="1" stroke="#FF0000" stroke-width="2" points="970,246 970,242 "/>
<polyline fill="none" opacity="1" stroke="#FF0000" stroke-width="2" points="970,238 970,233 "/>
<polyline fill="none" opacity="1" stroke="#FF0000" stroke-width="2" points="970,229 970,224 "/>
<polyline fill="none" opacity="1" stroke="#FF0000" stroke-width="2" points="970,220 970,216 "/>
<polyline fill="none" opacity="1" stroke="#FF0000" stroke-width="2" points="970,211 970,207 "/>
<polyline fill="none" opacity="1" stroke="#FF0000" stroke-width="2" points="970,203 970,198 "/>
<polyline fill="none" opacity="1" stroke="#FF0000" stroke-width="2" points="970,194 970,190 "/>
<polyline fill="none" opacity="1" stroke="#FF0000" stroke-width="2" points="970,185 970,181 "/>
<polyline fill="none" opacity="1" stroke="#FF0000" stroke-width="2" points="970,177 970,172 "/>
<polyline fill="none" opacity="1" stroke="#FF0000" stroke-width="2" points="970,168 970,163 "/>
<polyline fill="none" opacity="1" stroke="#FF0000" stroke-width="2" points="970,159 970,155 "/>
<polyline fill="none" opacity="1" stroke="#FF0000" stroke-width="2" points="970,150 970,146 "/>
<polyline fill="none" opacity="1" stroke="#FF0000" stroke-width="2" points="970,142 970,137 "/>
<polyline fill="none" opacity="1" stroke="#00FF00" stroke-width="2" points="113,691 113,686 "/>
<polyline fill="none" opacity="1" stroke="#00FF00" stroke-width="2" points="113,682 113,678 "/>
<polyline fill="none" opacity="1" stroke="#00FF00" stroke-width="2" points="113,673 113,669 "/>
<polyline fill="none" opacity="1" stroke="#00FF00" stroke-width="2" points="113,665 113,660 "/>
<polyline fill="none" opacity="1" stroke="#00FF00" stroke-width="2" points="113,656 113,652 "/>
<polyline fill="none" opacity="1" stroke="#00FF00" stroke-width="2" points="113,647 113,643 "/>
<polyline fill="none" opacity="1" stroke="#00FF00" stroke-width="2" points="113,639 113,634 "/>
<polyline fill="none" opacity="1" stroke="#00FF00" stroke-width="2" points="113,630 113,625 "/>
<polyline fill="none" opacity="1" stroke="#00FF00" stroke-width="2" points="113,621 113,617 "/>
<polyline fill="none" opacity="1" stroke="#00FF00" stroke-width="2" points="113,612 113,608 "/>
<polyline fill="none" opacity="1" stroke="#00FF00" stroke-width="2" points="113,604 113,599 "/>
<polyline fill="none" opacity="1" stroke="#00FF00" stroke-width="2" points="113,595 113,591 "/>
<polyline fill="none" opacity="1" stroke="#00FF00" stroke-width="2" points="113,586 113,582 "/>
<polyline fill="none" opacity="1" stroke="#00FF00" stroke-width="2" points="113,578 113,573 "/>
<polyline fill="none" opacity="1" stroke="#00FF00" stroke-width="2" points="113,569 113,564 "/>
<polyline fill="none" opacity="1" stroke="#00FF00" stroke-width="2" points="113,560 113,556 "/>
<polyline fill="none" opacity="1" stroke="#00FF00" stroke-width="2" points="113,551 113,547 "/>
<polyline fill="none" opacity="1" stroke="#00FF00" stroke-width="2" points="113,543 113,538 "/>
<polyline fill="none" opacity="1" stroke="#00FF00" stroke-width="2" points="113,534 113,530 "/>
<polyline fill="none" opacity="1" stroke="#00FF00" stroke-width="2" points="113,525 113,521 "/>
<polyline fill="none" opacity="1" stroke="#00FF00" stroke-width="2" points="113,516 113,512 "/>
<polyline fill="none" opacity="1" stroke="#00FF00" stroke-width="2" points="113,508 113,503 "/>
<polyline fill="none" opacity="1" stroke="#00FF00" stroke-width="2" points="113,499 113,495 "/>
<polyline fill="none" opacity="1" stroke="#00FF00" stroke-width="2" points="113,490 113,486 "/>
<polyline fill="none" opacity="1" stroke="#00FF00" stroke-width="2" points="113,482 113,477 "/>
<polyline fill="none" opacity="1" stroke="#00FF00" stroke-width="2" points="113,473 113,469 "/>
<polyline fill="none" opacity="1" stroke="#00FF00" stroke-width="2" points="113,464 113,460 "/>
<polyline fill="none" opacity="1" stroke="#00FF00" stroke-width="2" points="113,455 113,451 "/>
<polyline fill="none" opacity="1" stroke="#00FF00" stroke-width="2" points="113,447 113,442 "/>
<polyline fill="none" opacity="1" stroke="#00FF00" stroke-width="2" points="113,438 113,434 "/>
<polyline fill="none" opacity="1" stroke="#00FF00" stroke-width="2" points="113,429 113,425 "/>
<polyline fill="none" opacity="1" stroke="#00FF00" stroke-width="2" points="113,421 113,416 "/>
<polyline fill="none" opacity="1" stroke="#00FF00" stroke-width="2" points="113,412 113,408 "/>
<polyline fill="none" opacity="1" stroke="#00FF00" stroke-width="2" points="113,403 113,399 "/>
<polyline fill="none" opacity="1" stroke="#00FF00" stroke-width="2" points="113,394 113,390 "/>
<polyline fill="none" opacity="1" stroke="#00FF00" stroke-width="2" points="113,386 113,381 "/>
<polyline fill="none" opacity="1" stroke="#00FF00" stroke-width="2" points="113,377 113,373 "/>
<polyline fill="none" opacity="1" stroke="#00FF00" stroke-width="2" points="113,368 113,364 "/>
<polyline fill="none" opacity="1" stroke="#00FF00" stroke-width="2" points="113,360 113,355 "/>
<polyline fill="none" opacity="1" stroke="#00FF00" stroke-width="2" points="113,351 113,347 "/>
<polyline fill="none" opacity="1" stroke="#00FF00" stroke-width="2" points="113,342 113,338 "/>
<polyline fill="none" opacity="1" stroke="#00FF00" stroke-width="2" points="113,333 113,329 "/>
<polyline fill="none" opacity="1" stroke="#00FF00" stroke-width="2" points="113,325 113,320 "/>
<polyline fill="none" opacity="1" stroke="#00FF00" stroke-width="2" points="113,316 113,312 "/>
<polyline fill="none" opacity="1" stroke="#00FF00" stroke-width="2" points="113,307 113,303 "/>
<polyline fill="none" opacity="1" stroke="#00FF00" stroke-width="2" points="113,299 113,294 "/>
<polyline fill="none" opacity="1" stroke="#00FF00" stroke-width="2" points="113,290 113,286 "/>
<polyline fill="none" opacity="1" stroke="#00FF00" stroke-width="2" points="113,281 113,277 "/>
<polyline fill="none" opacity="1" stroke="#00FF00" stroke-width="2" points="113,272 113,268 "/>
<polyline fill="none" opacity="1" stroke="#00FF00" stroke-width="2" points="113,264 113,259 "/>
<polyline fill="none" opacity="1" stroke="#00FF00" stroke-width="2" points="113,255 113,251 "/>
<polyline fill="none" opacity="1" stroke="#00FF00" stroke-width="2" points="113,246 113,242 "/>
<polyline fill="none" opacity="1" stroke="#00FF00" stroke-width="2" points="113,238 113,233 "/>
<polyline fill="none" opacity="1" stroke="#00FF00" stroke-width="2" points="113,229 113,224 "/>
<polyline fill="none" opacity="1" stroke="#00FF00" stroke-width="2" points="113,220 113,216 "/>
<polyline fill="none" opacity="1" stroke="#00FF00" stroke-width="2" points="113,211 113,207 "/>
<polyline fill="none" opacity="1" stroke="#00FF00" stroke-width="2" points="113,203 113,198 "/>
<polyline fill="none" opacity="1" stroke="#00FF00" stroke-width="2" points="113,194 113,190 "/>
<polyline fill="none" opacity="1" stroke="#00FF00" stroke-width="2" points="113,185 113,181 "/>
<polyline fill="none" opacity="1" stroke="#00FF00" stroke-width="2" points="113,177 113,172 "/>
<polyline fill="none" opacity="1" stroke="#00FF00" stroke-width="2" points="113,168 113,163 "/>
<polyline fill="none" opacity="1" stroke="#00FF00" stroke-width="2" points="113,159 113,155 "/>
<polyline fill="none" opacity="1" stroke="#00FF00" stroke-width="2" points="113,150 113,146 "/>
<polyline fill="none" opacity="1" stroke="#00FF00" stroke-width="2" points="113,142 113,137 "/>
<polyline fill="none" opacity="1" stroke="#00FF00" stroke-width="2" points="113,133 117,133 "/>
<polyline fill="none" opacity="1" stroke="#00FF00" stroke-width="2" points="120,133 123,133 "/>
<polyline fill="none" opacity="1" stroke="#00FF00" stroke-width="2" points="127,133 130,133 "/>
<polyline fill="none" opacity="1" stroke="#00FF00" stroke-width="2" points="133,133 137,133 "/>
<polyline fill="none" opacity="1" stroke="#00FF00" stroke-width="2" points="140,133 143,133 "/>
<polyline fill="none" opacity="1" stroke="#00FF00" stroke-width="2" points="147,133 150,133 "/>
<polyline fill="none" opacity="1" stroke="#00FF00" stroke-width="2" points="153,133 157,133 "/>
<polyline fill="none" opacity="1" stroke="#00FF00" stroke-width="2" points="160,133 163,133 "/>
<polyline fill="none" opacity="1" stroke="#00FF00" stroke-width="2" points="167,133 170,133 "/>
<polyline fill="none" opacity="1" stroke="#00FF00" stroke-width="2" points="174,133 177,133 "/>
<polyline fill="none" opacity="1" stroke="#00FF00" stroke-width="2" points="180,133 184,133 "/>
<polyline fill="none" opacity="1" stroke="#00FF00" stroke-width="2" points="187,133 190,133 "/>
<polyline fill="none" opacity="1" stroke="#00FF00" stroke-width="2" points="194,133 197,133 "/>
<polyline fill="none" opacity="1" stroke="#00FF00" stroke-width="2" points="200,133 204,133 "/>
<polyline fill="none" opacity="1" stroke="#00FF00" stroke-width="2" points="207,133 210,133 "/>
<polyline fill="none" opacity="1" stroke="#00FF00" stroke-width="2" points="214,133 217,133 "/>
<polyline fill="none" opacity="1" stroke="#00FF00" stroke-width="2" points="220,133 224,133 "/>
<polyline fill="none" opacity="1" stroke="#00FF00" stroke-width="2" points="227,133 230,133 "/>
<polyline fill="none" opacity="1" stroke="#00FF00" stroke-width="2" points="234,133 237,133 "/>
<polyline fill="none" opacity="1" stroke="#00FF00" stroke-width="2" points="240,133 244,133 "/>
<polyline fill="none" opacity="1" stroke="#00FF00" stroke-width="2" points="247,133 250,133 "/>
<polyline fill="none" opacity="1" stroke="#00FF00" stroke-width="2" points="254,133 257,133 "/>
<polyline fill="none" opacity="1" stroke="#00FF00" stroke-width="2" points="261,133 264,133 "/>
<polyline fill="none" opacity="1" stroke="#00FF00" stroke-width="2" points="267,133 271,133 "/>
<polyline fill="none" opacity="1" stroke="#00FF00" stroke-width="2" points="274,133 277,133 "/>
<polyline fill="none" opacity="1" stroke="#00FF00" stroke-width="2" points="281,133 284,133 "/>
<polyline fill="none" opacity="1" stroke="#00FF00" stroke-width="2" points="287,133 291,133 "/>
<polyline fill="none" opacity="1" stroke="#00FF00" stroke-width="2" points="294,133 297,133 "/>
<polyline fill="none" opacity="1" stroke="#00FF00" stroke-width="2" points="301,133 304,133 "/>
<polyline fill="none" opacity="1" stroke="#00FF00" stroke-width="2" points="307,133 311,133 "/>
<polyline fill="none" opacity="1" stroke="#00FF00" stroke-width="2" points="314,133 317,133 "/>
<polyline fill="none" opacity="1" stroke="#00FF00" stroke-width="2" points="321,133 324,133 "/>
<polyline fill="none" opacity="1" stroke="#00FF00" stroke-width="2" points="327,133 331,133 "/>
<polyline fill="none" opacity="1" stroke="#00FF00" stroke-width="2" points="334,133 337,133 "/>
<polyline fill="none" opacity="1" stroke="#00FF00" stroke-width="2" points="341,133 344,133 "/>
<polyline fill="none" opacity="1" stroke="#00FF00" stroke-width="2" points="347,133 351,133 "/>
<polyline fill="none" opacity="1" stroke="#00FF00" stroke-width="2" points="354,133 358,133 "/>
<polyline fill="none" opacity="1" stroke="#00FF00" stroke-width="2" points="361,133 364,133 "/>
<polyline fill="none" opacity="1" stroke="#00FF00" stroke-width="2" points="368,133 371,133 "/>
<polyline fill="none" opacity="1" stroke="#00FF00" stroke-width="2" points="374,133 378,133 "/>
<polyline fill="none" opacity="1" stroke="#00FF00" stroke-width="2" points="381,133 384,133 "/>
<polyline fill="none" opacity="1" stroke="#00FF00" stroke-width="2" points="388,133 391,133 "/>
<polyline fill="none" opacity="1" stroke="#00FF00" stroke-width="2" points="394,133 398,133 "/>
<polyline fill="none" opacity="1" stroke="#00FF00" stroke-width="2" points="401,133 404,133 "/>
<polyline fill="none" opacity="1" stroke="#00FF00" stroke-width="2" points="408,133 411,133 "/>
<polyline fill="none" opacity="1" stroke="#00FF00" stroke-width="2" points="414,133 418,133 "/>
<polyline fill="none" opacity="1" stroke="#00FF00" stroke-width="2" points="421,133 424,133 "/>
<polyline fill="none" opacity="1" stroke="#00FF00" stroke-width="2" points="428,133 431,133 "/>
<polyline fill="none" opacity="1" stroke="#00FF00" stroke-width="2" points="434,133 438,133 "/>
<polyline fill="none" opacity="1" stroke="#00FF00" stroke-width="2" points="441,133 444,133 "/>
<polyline fill="none" opacity="1" stroke="#00FF00" stroke-width="2" points="448,133 451,133 "/>
<polyline fill="none" opacity="1" stroke="#00FF00" stroke-width="2" points="455,133 458,133 "/>
<polyline fill="none" opacity="1" stroke="#00FF00" stroke-width="2" points="461,133 465,133 "/>
<polyline fill="none" opacity="1" stroke="#00FF00" stroke-width="2" points="468,133 471,133 "/>
<polyline fill="none" opacity="1" stroke="#00FF00" stroke-width="2" points="475,133 478,133 "/>
<polyline fill="none" opacity="1" stroke="#00FF00" stroke-width="2" points="481,133 485,133 "/>
<polyline fill="none" opacity="1" stroke="#00FF00" stroke-width="2" points="488,133 491,133 "/>
<polyline fill="none" opacity="1" stroke="#00FF00" stroke-width="2" points="495,133 498,133 "/>
<polyline fill="none" opacity="1" stroke="#00FF00" stroke-width="2" points="501,133 505,133 "/>
<polyline fill="none" opacity="1" stroke="#00FF00" stroke-width="2" points="508,133 511,133 "/>
<polyline fill="none" opacity="1" stroke="#00FF00" stroke-width="2" points="515,133 518,133 "/>
<polyline fill="none" opacity="1" stroke="#00FF00" stroke-width="2" points="521,133 525,133 "/>
<polyline fill="none" opacity="1" stroke="#00FF00" stroke-width="2" points="528,133 531,133 "/>
<polyline fill="none" opacity="1" stroke="#00FF00" stroke-width="2" points="535,133 538,133 "/>
<polyline fill="none" opacity="1" stroke="#00FF00" stroke-width="2" points="542,133 545,133 "/>
<polyline fill="none" opacity="1" stroke="#00FF00" stroke-width="2" points="548,133 552,133 "/>
<polyline fill="none" opacity="1" stroke="#00FF00" stroke-width="2" points="555,133 558,133 "/>
<polyline fill="none" opacity="1" stroke="#00FF00" stroke-width="2" points="562,133 565,133 "/>
<polyline fill="none" opacity="1" stroke="#00FF00" stroke-width="2" points="568,133 572,133 "/>
<polyline fill="none" opacity="1" stroke="#00FF00" stroke-width="2" points="575,133 578,133 "/>
<polyline fill="none" opacity="1" stroke="#00FF00" stroke-width="2" points="582,133 585,133 "/>
<polyline fill="none" opacity="1" stroke="#00FF00" stroke-width="2" points="588,133 592,133 "/>
<polyline fill="none" opacity="1" stroke="#00FF00" stroke-width="2" points="595,133 598,133 "/>
<polyline fill="none" opacity="1" stroke="#00FF00" stroke-width="2" points="602,133 605,133 "/>
<polyline fill="none" opacity="1" stroke="#00FF00" stroke-width="2" points="608,133 612,133 "/>
<polyline fill="none" opacity="1" stroke="#00FF00" stroke-width="2" points="615,133 618,133 "/>
<polyline fill="none" opacity="1" stroke="#00FF00" stroke-width="2" points="622,133 625,133 "/>
<polyline fill="none" opacity="1" stroke="#00FF00" stroke-width="2" points="628,133 632,133 "/>
<polyline fill="none" opacity="1" stroke="#00FF00" stroke-width="2" points="635,133 639,133 "/>
<polyline fill="none" opacity="1" stroke="#00FF00" stroke-width="2" points="642,133 645,133 "/>
<polyline fill="none" opacity="1" stroke="#00FF00" stroke-width="2" points="649,133 652,133 "/>
<polyline fill="none" opacity="1" stroke="#00FF00" stroke-width="2" points="655,133 659,133 "/>
<polyline fill="none" opacity="1" stroke="#00FF00" stroke-width="2" points="662,133 665,133 "/>
<polyline fill="none" opacity="1" stroke="#00FF00" stroke-width="2" points="669,133 672,133 "/>
<polyline fill="none" opacity="1" stroke="#00FF00" stroke-width="2" points="675,133 679,133 "/>
<polyline fill="none" opacity="1" stroke="#00FF00" stroke-width="2" points="682,133 685,133 "/>
<polyline fill="none" opacity="1" stroke="#00FF00" stroke-width="2" points="689,133 692,133 "/>
<polyline fill="none" opacity="1" stroke="#00FF00" stroke-width="2" points="695,133 699,133 "/>
<polyline fill="none" opacity="1" stroke="#00FF00" stroke-width="2" points="702,133 705,133 "/>
<polyline fill="none" opacity="1" stroke="#00FF00" stroke-width="2" points="709,133 712,133 "/>
<polyline fill="none" opacity="1" stroke="#00FF00" stroke-width="2" points="715,133 719,133 "/>
<polyline fill="none" opacity="1" stroke="#00FF00" stroke-width="2" points="722,133 725,133 "/>
<polyline fill="none" opacity="1" stroke="#00FF00" stroke-width="2" points="729,133 732,133 "/>
<polyline fill="none" opacity="1" stroke="#00FF00" stroke-width="2" points="736,133 739,133 "/>
<polyline fill="none" opacity="1" stroke="#00FF00" stroke-width="2" points="742,133 746,133 "/>
<polyline fill="none" opacity="1" stroke="#00FF00" stroke-width="2" points="749,133 752,133 "/>
<polyline fill="none" opacity="1" stroke="#00FF00" stroke-width="2" points="756,133 759,133 "/>
<polyline fill="none" opacity="1" stroke="#00FF00" stroke-width="2" points="762,133 766,133 "/>
<polyline fill="none" opacity="1" stroke="#00FF00" stroke-width="2" points="769,133 772,133 "/>
<polyline fill="none" opacity="1" stroke="#00FF00" stroke-width="2" points="776,133 779,133 "/>
<polyline fill="none" opacity="1" stroke="#00FF00" stroke-width="2" points="782,133 786,133 "/>
<polyline fill="none" opacity="1" stroke="#00FF00" stroke-width="2" points="789,133 792,133 "/>
<polyline fill="none" opacity="1" stroke="#00FF00" stroke-width="2" points="796,133 799,133 "/>
<polyline fill="none" opacity="1" stroke="#00FF00" stroke-width="2" points="802,133 806,133 "/>
<polyline fill="none" opacity="1" stroke="#00FF00" stroke-width="2" points="809,133 812,133 "/>
<polyline fill="none" opacity="1" stroke="#00FF00" stroke-width="2" points="816,133 819,133 "/>
<polyline fill="none" opacity="1" stroke="#00FF00" stroke-width="2" points="822,133 826,133 "/>
<polyline fill="none" opacity="1" stroke="#00FF00" stroke-width="2" points="829,133 833,133 "/>
<polyline fill="none" opacity="1" stroke="#00FF00" stroke-width="2" points="836,133 839,133 "/>
<polyline fill="none" opacity="1" stroke="#00FF00" stroke-width="2" points="843,133 846,133 "/>
<polyline fill="none" opacity="1" stroke="#00FF00" stroke-width="2" points="849,133 853,133 "/>
<polyline fill="none" opacity="1" stroke="#00FF00" stroke-width="2" points="856,133 859,133 "/>
<polyline fill="none" opacity="1" stroke="#00FF00" stroke-width="2" points="863,133 866,133 "/>
<polyline fill="none" opacity="1" stroke="#00FF00" stroke-width="2" points="869,133 873,133 "/>
<polyline fill="none" opacity="1" stroke="#00FF00" stroke-width="2" points="876,133 879,133 "/>
<polyline fill="none" opacity="1" stroke="#00FF00" stroke-width="2" points="883,133 886,133 "/>
<polyline fill="none" opacity="1" stroke="#00FF00" stroke-width="2" points="889,133 893,133 "/>
<polyline fill="none" opacity="1" stroke="#00FF00" stroke-width="2" points="896,133 899,133 "/>
<polyline fill="none" opacity="1" stroke="#00FF00" stroke-width="2" points="903,133 906,133 "/>
<polyline fill="none" opacity="1" stroke="#00FF00" stroke-width="2" points="909,133 913,133 "/>
<polyline fill="none" opacity="1" stroke="#00FF00" stroke-width="2" points="916,133 920,133 "/>
<polyline fill="none" opacity="1" stroke="#00FF00" stroke-width="2" points="923,133 926,133 "/>
<polyline fill="none" opacity="1" stroke="#00FF00" stroke-width="2" points="930,133 933,133 "/>
<polyline fill="none" opacity="1" stroke="#00FF00" stroke-width="2" points="936,133 940,133 "/>
<polyline fill="none" opacity="1" stroke="#00FF00" stroke-width="2" points="943,133 946,133 "/>
<polyline fill="none" opacity="1" stroke="#00FF00" stroke-width="2" points="950,133 953,133 "/>
<polyline fill="none" opacity="1" stroke="#00FF00" stroke-width="2" points="956,133 960,133 "/>
<polyline fill="none" opacity="1" stroke="#00FF00" stroke-width="2" points="963,133 966,133 "/>
<polyline fill="none" opacity="1" stroke="#9E9E9E" stroke-width="2" points="1013,105 71,719 "/>
<polyline fill="none" opacity="1" stroke="#9E9E9E" stroke-width="2" points="1013,133 71,133 "/>
<rect x="495" y="46" width="114" height="76" opacity="1" fill="none" stroke="#000000"/>
<text x="535" y="56" dy="0.76em" text-anchor="start" font-family="sans-serif" font-size="13.709677419354838" opacity="1" fill="#000000">
Density
</text>
<text x="535" y="77" dy="0.76em" text-anchor="start" font-family="sans-serif" font-size="13.709677419354838" opacity="1" fill="#000000">
Probability
</text>
<text x="535" y="99" dy="0.76em" text-anchor="start" font-family="sans-serif" font-size="13.709677419354838" opacity="1" fill="#000000">
Quantile
</text>
<circle cx="510" cy="62" r="2" opacity="1" fill="#000000" stroke="none" stroke-width="1"/>
<circle cx="510" cy="83" r="2" opacity="1" fill="#FF0000" stroke="none" stroke-width="1"/>
<circle cx="510" cy="105" r="2" opacity="1" fill="#00FF00" stroke="none" stroke-width="1"/>
</svg>
