"BJsales.lead","time"
10.01,1
10.07,2
10.32,3
9.75,4
10.33,5
10.13,6
10.36,7
10.32,8
10.13,9
10.16,10
10.58,11
10.62,12
10.86,13
11.2,14
10.74,15
10.56,16
10.48,17
10.77,18
11.33,19
10.96,20
11.16,21
11.7,22
11.39,23
11.42,24
11.94,25
11.24,26
11.59,27
10.96,28
11.4,29
11.02,30
11.01,31
11.23,32
11.33,33
10.83,34
10.84,35
11.14,36
10.38,37
10.9,38
11.05,39
11.11,40
11.01,41
11.22,42
11.21,43
11.91,44
11.69,45
10.93,46
10.99,47
11.01,48
10.84,49
10.76,50
10.77,51
10.88,52
10.49,53
10.5,54
11,55
10.98,56
10.61,57
10.48,58
10.53,59
11.07,60
10.61,61
10.86,62
10.34,63
10.78,64
10.8,65
10.33,66
10.44,67
10.5,68
10.75,69
10.4,70
10.4,71
10.34,72
10.55,73
10.46,74
10.82,75
10.91,76
10.87,77
10.67,78
11.11,79
10.88,80
11.28,81
11.27,82
11.44,83
11.52,84
12.1,85
11.83,86
12.62,87
12.41,88
12.43,89
12.73,90
13.01,91
12.74,92
12.73,93
12.76,94
12.92,95
12.64,96
12.79,97
13.05,98
12.69,99
13.01,100
12.9,101
13.12,102
12.47,103
12.47,104
12.94,105
13.1,106
12.91,107
13.39,108
13.13,109
13.34,110
13.34,111
13.14,112
13.49,113
13.87,114
13.39,115
13.59,116
13.27,117
13.7,118
13.2,119
13.32,120
13.15,121
13.3,122
12.94,123
13.29,124
13.26,125
13.08,126
13.24,127
13.31,128
13.52,129
13.02,130
13.25,131
13.12,132
13.26,133
13.11,134
13.3,135
13.06,136
13.32,137
13.1,138
13.27,139
13.64,140
13.58,141
13.87,142
13.53,143
13.41,144
13.25,145
13.5,146
13.58,147
13.51,148
13.77,149
13.4,150
