"JohnsonJohnson","date"
0.71,1960-01-01
0.63,1960-04-01
0.85,1960-07-01
0.44,1960-10-01
0.61,1961-01-01
0.69,1961-04-01
0.92,1961-07-01
0.55,1961-10-01
0.72,1962-01-01
0.77,1962-04-01
0.92,1962-07-01
0.6,1962-10-01
0.83,1963-01-01
0.8,1963-04-01
1,1963-07-01
0.77,1963-10-01
0.92,1964-01-01
1,1964-04-01
1.24,1964-07-01
1,1964-10-01
1.16,1965-01-01
1.3,1965-04-01
1.45,1965-07-01
1.25,1965-10-01
1.26,1966-01-01
1.38,1966-04-01
1.86,1966-07-01
1.56,1966-10-01
1.53,1967-01-01
1.59,1967-04-01
1.83,1967-07-01
1.86,1967-10-01
1.53,1968-01-01
2.07,1968-04-01
2.34,1968-07-01
2.25,1968-10-01
2.16,1969-01-01
2.43,1969-04-01
2.7,1969-07-01
2.25,1969-10-01
2.79,1970-01-01
3.42,1970-04-01
3.69,1970-07-01
3.6,1970-10-01
3.6,1971-01-01
4.32,1971-04-01
4.32,1971-07-01
4.05,1971-10-01
4.86,1972-01-01
5.04,1972-04-01
5.04,1972-07-01
4.41,1972-10-01
5.58,1973-01-01
5.85,1973-04-01
6.57,1973-07-01
5.31,1973-10-01
6.03,1974-01-01
6.39,1974-04-01
6.93,1974-07-01
5.85,1974-10-01
6.93,1975-01-01
7.74,1975-04-01
7.83,1975-07-01
6.12,1975-10-01
7.74,1976-01-01
8.91,1976-04-01
8.28,1976-07-01
6.84,1976-10-01
9.54,1977-01-01
10.26,1977-04-01
9.54,1977-07-01
8.73,1977-10-01
11.88,1978-01-01
12.06,1978-04-01
12.15,1978-07-01
8.91,1978-10-01
14.04,1979-01-01
12.96,1979-04-01
14.85,1979-07-01
9.99,1979-10-01
16.2,1980-01-01
14.67,1980-04-01
16.02,1980-07-01
11.61,1980-10-01
