<svg width="1024" height="768" viewBox="0 0 1024 768" xmlns="http://www.w3.org/2000/svg">
<rect x="0" y="0" width="1024" height="768" opacity="1" fill="#FFFFFF" stroke="none"/>
<rect x="71" y="7" width="942" height="714" opacity="1" fill="#EEEEEE" stroke="none"/>
<text x="512" y="5" dy="0.76em" text-anchor="middle" font-family="sans-serif" font-size="35.75846828529295" opacity="1" fill="#000000">

</text>
<line opacity="1" stroke="#FFFFFF" stroke-width="1" x1="113" y1="721" x2="113" y2="7"/>
<line opacity="1" stroke="#FFFFFF" stroke-width="1" x1="185" y1="721" x2="185" y2="7"/>
<line opacity="1" stroke="#FFFFFF" stroke-width="1" x1="256" y1="721" x2="256" y2="7"/>
<line opacity="1" stroke="#FFFFFF" stroke-width="1" x1="327" y1="721" x2="327" y2="7"/>
<line opacity="1" stroke="#FFFFFF" stroke-width="1" x1="399" y1="721" x2="399" y2="7"/>
<line opacity="1" stroke="#FFFFFF" stroke-width="1" x1="470" y1="721" x2="470" y2="7"/>
<line opacity="1" stroke="#FFFFFF" stroke-width="1" x1="542" y1="721" x2="542" y2="7"/>
<line opacity="1" stroke="#FFFFFF" stroke-width="1" x1="613" y1="721" x2="613" y2="7"/>
<line opacity="1" stroke="#FFFFFF" stroke-width="1" x1="684" y1="721" x2="684" y2="7"/>
<line opacity="1" stroke="#FFFFFF" stroke-width="1" x1="756" y1="721" x2="756" y2="7"/>
<line opacity="1" stroke="#FFFFFF" stroke-width="1" x1="827" y1="721" x2="827" y2="7"/>
<line opacity="1" stroke="#FFFFFF" stroke-width="1" x1="898" y1="721" x2="898" y2="7"/>
<line opacity="1" stroke="#FFFFFF" stroke-width="1" x1="970" y1="721" x2="970" y2="7"/>
<line opacity="1" stroke="#FFFFFF" stroke-width="1" x1="71" y1="696" x2="1013" y2="696"/>
<line opacity="1" stroke="#FFFFFF" stroke-width="1" x1="71" y1="663" x2="1013" y2="663"/>
<line opacity="1" stroke="#FFFFFF" stroke-width="1" x1="71" y1="631" x2="1013" y2="631"/>
<line opacity="1" stroke="#FFFFFF" stroke-width="1" x1="71" y1="598" x2="1013" y2="598"/>
<line opacity="1" stroke="#FFFFFF" stroke-width="1" x1="71" y1="565" x2="1013" y2="565"/>
<line opacity="1" stroke="#FFFFFF" stroke-width="1" x1="71" y1="532" x2="1013" y2="532"/>
<line opacity="1" stroke="#FFFFFF" stroke-width="1" x1="71" y1="499" x2="1013" y2="499"/>
<line opacity="1" stroke="#FFFFFF" stroke-width="1" x1="71" y1="466" x2="1013" y2="466"/>
<line opacity="1" stroke="#FFFFFF" stroke-width="1" x1="71" y1="433" x2="1013" y2="433"/>
<line opacity="1" stroke="#FFFFFF" stroke-width="1" x1="71" y1="400" x2="1013" y2="400"/>
<line opacity="1" stroke="#FFFFFF" stroke-width="1" x1="71" y1="367" x2="1013" y2="367"/>
<line opacity="1" stroke="#FFFFFF" stroke-width="1" x1="71" y1="334" x2="1013" y2="334"/>
<line opacity="1" stroke="#FFFFFF" stroke-width="1" x1="71" y1="301" x2="1013" y2="301"/>
<line opacity="1" stroke="#FFFFFF" stroke-width="1" x1="71" y1="269" x2="1013" y2="269"/>
<line opacity="1" stroke="#FFFFFF" stroke-width="1" x1="71" y1="236" x2="1013" y2="236"/>
<line opacity="1" stroke="#FFFFFF" stroke-width="1" x1="71" y1="203" x2="1013" y2="203"/>
<line opacity="1" stroke="#FFFFFF" stroke-width="1" x1="71" y1="170" x2="1013" y2="170"/>
<line opacity="1" stroke="#FFFFFF" stroke-width="1" x1="71" y1="137" x2="1013" y2="137"/>
<line opacity="1" stroke="#FFFFFF" stroke-width="1" x1="71" y1="104" x2="1013" y2="104"/>
<line opacity="1" stroke="#FFFFFF" stroke-width="1" x1="71" y1="71" x2="1013" y2="71"/>
<line opacity="1" stroke="#FFFFFF" stroke-width="1" x1="71" y1="38" x2="1013" y2="38"/>
<text x="0" y="364" dy="0.76em" text-anchor="middle" font-family="sans-serif" font-size="17.741935483870968" opacity="1" fill="#000000" transform="rotate(270, 0, 364)">
density
</text>
<text x="542" y="768" dy="-0.5ex" text-anchor="middle" font-family="sans-serif" font-size="17.741935483870968" opacity="1" fill="#000000">
x
</text>
<line opacity="1" stroke="#FFFFFF" stroke-width="1" x1="113" y1="721" x2="113" y2="7"/>
<line opacity="1" stroke="#FFFFFF" stroke-width="1" x1="256" y1="721" x2="256" y2="7"/>
<line opacity="1" stroke="#FFFFFF" stroke-width="1" x1="399" y1="721" x2="399" y2="7"/>
<line opacity="1" stroke="#FFFFFF" stroke-width="1" x1="542" y1="721" x2="542" y2="7"/>
<line opacity="1" stroke="#FFFFFF" stroke-width="1" x1="684" y1="721" x2="684" y2="7"/>
<line opacity="1" stroke="#FFFFFF" stroke-width="1" x1="827" y1="721" x2="827" y2="7"/>
<line opacity="1" stroke="#FFFFFF" stroke-width="1" x1="970" y1="721" x2="970" y2="7"/>
<line opacity="1" stroke="#FFFFFF" stroke-width="1" x1="71" y1="696" x2="1013" y2="696"/>
<line opacity="1" stroke="#FFFFFF" stroke-width="1" x1="71" y1="614" x2="1013" y2="614"/>
<line opacity="1" stroke="#FFFFFF" stroke-width="1" x1="71" y1="532" x2="1013" y2="532"/>
<line opacity="1" stroke="#FFFFFF" stroke-width="1" x1="71" y1="450" x2="1013" y2="450"/>
<line opacity="1" stroke="#FFFFFF" stroke-width="1" x1="71" y1="367" x2="1013" y2="367"/>
<line opacity="1" stroke="#FFFFFF" stroke-width="1" x1="71" y1="285" x2="1013" y2="285"/>
<line opacity="1" stroke="#FFFFFF" stroke-width="1" x1="71" y1="203" x2="1013" y2="203"/>
<line opacity="1" stroke="#FFFFFF" stroke-width="1" x1="71" y1="120" x2="1013" y2="120"/>
<line opacity="1" stroke="#FFFFFF" stroke-width="1" x1="71" y1="38" x2="1013" y2="38"/>
<polyline fill="none" opacity="1" stroke="#FFFFFF" stroke-width="1" points="70,7 70,721 "/>
<text x="61" y="696" dy="0.5ex" text-anchor="end" font-family="sans-serif" font-size="10.483870967741936" opacity="1" fill="#000000">
0.0
</text>
<polyline fill="none" opacity="1" stroke="#FFFFFF" stroke-width="1" points="65,696 70,696 "/>
<text x="61" y="614" dy="0.5ex" text-anchor="end" font-family="sans-serif" font-size="10.483870967741936" opacity="1" fill="#000000">
0.05
</text>
<polyline fill="none" opacity="1" stroke="#FFFFFF" stroke-width="1" points="65,614 70,614 "/>
<text x="61" y="532" dy="0.5ex" text-anchor="end" font-family="sans-serif" font-size="10.483870967741936" opacity="1" fill="#000000">
0.1
</text>
<polyline fill="none" opacity="1" stroke="#FFFFFF" stroke-width="1" points="65,532 70,532 "/>
<text x="61" y="450" dy="0.5ex" text-anchor="end" font-family="sans-serif" font-size="10.483870967741936" opacity="1" fill="#000000">
0.15
</text>
<polyline fill="none" opacity="1" stroke="#FFFFFF" stroke-width="1" points="65,450 70,450 "/>
<text x="61" y="367" dy="0.5ex" text-anchor="end" font-family="sans-serif" font-size="10.483870967741936" opacity="1" fill="#000000">
0.2
</text>
<polyline fill="none" opacity="1" stroke="#FFFFFF" stroke-width="1" points="65,367 70,367 "/>
<text x="61" y="285" dy="0.5ex" text-anchor="end" font-family="sans-serif" font-size="10.483870967741936" opacity="1" fill="#000000">
0.25
</text>
<polyline fill="none" opacity="1" stroke="#FFFFFF" stroke-width="1" points="65,285 70,285 "/>
<text x="61" y="203" dy="0.5ex" text-anchor="end" font-family="sans-serif" font-size="10.483870967741936" opacity="1" fill="#000000">
0.3
</text>
<polyline fill="none" opacity="1" stroke="#FFFFFF" stroke-width="1" points="65,203 70,203 "/>
<text x="61" y="120" dy="0.5ex" text-anchor="end" font-family="sans-serif" font-size="10.483870967741936" opacity="1" fill="#000000">
0.35
</text>
<polyline fill="none" opacity="1" stroke="#FFFFFF" stroke-width="1" points="65,120 70,120 "/>
<text x="61" y="38" dy="0.5ex" text-anchor="end" font-family="sans-serif" font-size="10.483870967741936" opacity="1" fill="#000000">
0.39
</text>
<polyline fill="none" opacity="1" stroke="#FFFFFF" stroke-width="1" points="65,38 70,38 "/>
<polyline fill="none" opacity="1" stroke="#FFFFFF" stroke-width="1" points="71,722 1013,722 "/>
<text x="113" y="732" dy="0.76em" text-anchor="middle" font-family="sans-serif" font-size="10.483870967741936" opacity="1" fill="#000000">
-3.0
</text>
<polyline fill="none" opacity="1" stroke="#FFFFFF" stroke-width="1" points="113,722 113,727 "/>
<text x="256" y="732" dy="0.76em" text-anchor="middle" font-family="sans-serif" font-size="10.483870967741936" opacity="1" fill="#000000">
-2.0
</text>
<polyline fill="none" opacity="1" stroke="#FFFFFF" stroke-width="1" points="256,722 256,727 "/>
<text x="399" y="732" dy="0.76em" text-anchor="middle" font-family="sans-serif" font-size="10.483870967741936" opacity="1" fill="#000000">
-1.0
</text>
<polyline fill="none" opacity="1" stroke="#FFFFFF" stroke-width="1" points="399,722 399,727 "/>
<text x="542" y="732" dy="0.76em" text-anchor="middle" font-family="sans-serif" font-size="10.483870967741936" opacity="1" fill="#000000">
0.0
</text>
<polyline fill="none" opacity="1" stroke="#FFFFFF" stroke-width="1" points="542,722 542,727 "/>
<text x="684" y="732" dy="0.76em" text-anchor="middle" font-family="sans-serif" font-size="10.483870967741936" opacity="1" fill="#000000">
1.0
</text>
<polyline fill="none" opacity="1" stroke="#FFFFFF" stroke-width="1" points="684,722 684,727 "/>
<text x="827" y="732" dy="0.76em" text-anchor="middle" font-family="sans-serif" font-size="10.483870967741936" opacity="1" fill="#000000">
2.0
</text>
<polyline fill="none" opacity="1" stroke="#FFFFFF" stroke-width="1" points="827,722 827,727 "/>
<text x="970" y="732" dy="0.76em" text-anchor="middle" font-family="sans-serif" font-size="10.483870967741936" opacity="1" fill="#000000">
3.0
</text>
<polyline fill="none" opacity="1" stroke="#FFFFFF" stroke-width="1" points="970,722 970,727 "/>
<polyline fill="none" opacity="1" stroke="#000000" stroke-width="2" points="970,689 969,689 968,689 967,689 966,689 965,688 965,688 964,688 963,688 962,688 961,688 960,687 959,687 959,687 958,687 957,687 956,687 955,686 954,686 953,686 953,686 952,686 951,686 950,685 949,685 948,685 947,685 947,685 946,684 945,684 944,684 943,684 942,684 941,683 941,683 940,683 939,683 938,682 937,682 936,682 935,682 935,682 934,681 933,681 932,681 931,681 930,680 929,680 929,680 928,679 927,679 926,679 925,679 924,678 923,678 923,678 922,677 921,677 920,677 919,677 918,676 917,676 917,676 916,675 915,675 914,675 913,674 912,674 911,674 911,673 910,673 909,672 908,672 907,672 906,671 905,671 905,671 904,670 903,670 902,669 901,669 900,668 899,668 899,668 898,667 897,667 896,666 895,666 894,665 893,665 893,664 892,664 891,664 890,663 889,663 888,662 887,662 887,661 886,661 885,660 884,659 883,659 882,658 881,658 881,657 880,657 879,656 878,656 877,655 876,654 875,654 875,653 874,653 873,652 872,651 871,651 870,650 869,650 869,649 868,648 867,648 866,647 865,646 864,646 863,645 863,644 862,643 861,643 860,642 859,641 858,640 857,640 857,639 856,638 855,637 854,637 853,636 852,635 852,634 851,633 850,633 849,632 848,631 847,630 846,629 846,628 845,628 844,627 843,626 842,625 841,624 840,623 840,622 839,621 838,620 837,619 836,618 835,617 834,616 834,615 833,614 832,613 831,612 830,611 829,610 828,609 828,608 827,607 826,606 825,605 824,604 823,603 822,602 822,601 821,599 820,598 819,597 818,596 817,595 816,594 816,592 815,591 814,590 813,589 812,588 811,586 810,585 810,584 809,583 808,581 807,580 806,579 805,577 804,576 804,575 803,573 802,572 801,571 800,569 799,568 798,566 798,565 797,564 796,562 795,561 794,559 793,558 792,556 792,555 791,553 790,552 789,550 788,549 787,547 786,546 786,544 785,543 784,541 783,539 782,538 781,536 780,535 780,533 779,531 778,530 777,528 776,526 775,525 774,523 774,521 773,520 772,518 771,516 770,514 769,513 768,511 768,509 767,507 766,506 765,504 764,502 763,500 762,498 762,496 761,495 760,493 759,491 758,489 757,487 756,485 756,483 755,481 754,479 753,477 752,475 751,474 750,472 750,470 749,468 748,466 747,464 746,462 745,460 744,458 744,455 743,453 742,451 741,449 740,447 739,445 738,443 738,441 737,439 736,437 735,435 734,432 733,430 732,428 732,426 731,424 730,422 729,419 728,417 727,415 726,413 726,411 725,408 724,406 723,404 722,402 721,400 720,397 720,395 719,393 718,391 717,388 716,386 715,384 714,381 714,379 713,377 712,375 711,372 710,370 709,368 708,365 708,363 707,361 706,358 705,356 704,354 703,351 702,349 702,347 701,344 700,342 699,339 698,337 697,335 697,332 696,330 695,328 694,325 693,323 692,320 691,318 691,316 690,313 689,311 688,309 687,306 686,304 685,301 685,299 684,297 683,294 682,292 681,289 680,287 679,285 679,282 678,280 677,278 676,275 675,273 674,270 673,268 673,266 672,263 671,261 670,259 669,256 668,254 667,251 667,249 666,247 665,244 664,242 663,240 662,237 661,235 661,233 660,230 659,228 658,226 657,224 656,221 655,219 655,217 654,214 653,212 652,210 651,208 650,205 649,203 649,201 648,199 647,196 646,194 645,192 644,190 643,188 643,185 642,183 641,181 640,179 639,177 638,175 637,173 637,171 636,168 635,166 634,164 633,162 632,160 631,158 631,156 630,154 629,152 628,150 627,148 626,146 625,144 625,142 624,140 623,138 622,136 621,135 620,133 619,131 619,129 618,127 617,125 616,124 615,122 614,120 613,118 613,117 612,115 611,113 610,111 609,110 608,108 607,106 607,105 606,103 605,102 604,100 603,98 602,97 601,95 601,94 600,92 599,91 598,89 597,88 596,87 595,85 595,84 594,82 593,81 592,80 591,79 590,77 589,76 589,75 588,74 587,72 586,71 585,70 584,69 583,68 583,67 582,66 581,64 580,63 579,62 578,61 577,60 577,60 576,59 575,58 574,57 573,56 572,55 571,54 571,53 570,53 569,52 568,51 567,51 566,50 565,49 565,49 564,48 563,47 562,47 561,46 560,46 559,45 559,45 558,44 557,44 556,43 555,43 554,43 553,42 553,42 552,42 551,41 550,41 549,41 548,41 547,41 547,40 546,40 545,40 544,40 543,40 542,40 542,40 541,40 540,40 539,40 538,40 537,40 536,40 536,41 535,41 534,41 533,41 532,41 531,42 530,42 530,42 529,43 528,43 527,43 526,44 525,44 524,45 524,45 523,46 522,46 521,47 520,47 519,48 518,49 518,49 517,50 516,51 515,51 514,52 513,53 512,53 512,54 511,55 510,56 509,57 508,58 507,59 506,60 506,60 505,61 504,62 503,63 502,64 501,66 500,67 500,68 499,69 498,70 497,71 496,72 495,74 494,75 494,76 493,77 492,79 491,80 490,81 489,82 488,84 488,85 487,87 486,88 485,89 484,91 483,92 482,94 482,95 481,97 480,98 479,100 478,102 477,103 476,105 476,106 475,108 474,110 473,111 472,113 471,115 470,117 470,118 469,120 468,122 467,124 466,125 465,127 464,129 464,131 463,133 462,135 461,136 460,138 459,140 458,142 458,144 457,146 456,148 455,150 454,152 453,154 452,156 452,158 451,160 450,162 449,164 448,166 447,168 446,171 446,173 445,175 444,177 443,179 442,181 441,183 440,185 440,188 439,190 438,192 437,194 436,196 435,199 434,201 434,203 433,205 432,208 431,210 430,212 429,214 428,217 428,219 427,221 426,224 425,226 424,228 423,230 422,233 422,235 421,237 420,240 419,242 418,244 417,247 416,249 416,251 415,254 414,256 413,259 412,261 411,263 410,266 410,268 409,270 408,273 407,275 406,278 405,280 404,282 404,285 403,287 402,289 401,292 400,294 399,297 398,299 398,301 397,304 396,306 395,309 394,311 393,313 392,316 392,318 391,320 390,323 389,325 388,328 387,330 386,332 386,335 385,337 384,339 383,342 382,344 381,347 381,349 380,351 379,354 378,356 377,358 376,361 375,363 375,365 374,368 373,370 372,372 371,375 370,377 369,379 369,381 368,384 367,386 366,388 365,391 364,393 363,395 363,397 362,400 361,402 360,404 359,406 358,408 357,411 357,413 356,415 355,417 354,419 353,422 352,424 351,426 351,428 350,430 349,432 348,435 347,437 346,439 345,441 345,443 344,445 343,447 342,449 341,451 340,453 339,455 339,458 338,460 337,462 336,464 335,466 334,468 333,470 333,472 332,474 331,475 330,477 329,479 328,481 327,483 327,485 326,487 325,489 324,491 323,493 322,495 321,496 321,498 320,500 319,502 318,504 317,506 316,507 315,509 315,511 314,513 313,514 312,516 311,518 310,520 309,521 309,523 308,525 307,526 306,528 305,530 304,531 303,533 303,535 302,536 301,538 300,539 299,541 298,543 297,544 297,546 296,547 295,549 294,550 293,552 292,553 291,555 291,556 290,558 289,559 288,561 287,562 286,564 285,565 285,566 284,568 283,569 282,571 281,572 280,573 279,575 279,576 278,577 277,579 276,580 275,581 274,583 273,584 273,585 272,586 271,588 270,589 269,590 268,591 267,592 267,594 266,595 265,596 264,597 263,598 262,599 261,601 261,602 260,603 259,604 258,605 257,606 256,607 255,608 255,609 254,610 253,611 252,612 251,613 250,614 249,615 249,616 248,617 247,618 246,619 245,620 244,621 243,622 243,623 242,624 241,625 240,626 239,627 238,628 237,628 237,629 236,630 235,631 234,632 233,633 232,633 231,634 231,635 230,636 229,637 228,637 227,638 226,639 226,640 225,640 224,641 223,642 222,643 221,643 220,644 220,645 219,646 218,646 217,647 216,648 215,648 214,649 214,650 213,650 212,651 211,651 210,652 209,653 208,653 208,654 207,654 206,655 205,656 204,656 203,657 202,657 202,658 201,658 200,659 199,659 198,660 197,661 196,661 196,662 195,662 194,663 193,663 192,664 191,664 190,664 190,665 189,665 188,666 187,666 186,667 185,667 184,668 184,668 183,668 182,669 181,669 180,670 179,670 178,671 178,671 177,671 176,672 175,672 174,672 173,673 172,673 172,674 171,674 170,674 169,675 168,675 167,675 166,676 166,676 165,676 164,677 163,677 162,677 161,677 160,678 160,678 159,678 158,679 157,679 156,679 155,679 154,680 154,680 153,680 152,681 151,681 150,681 149,681 148,682 148,682 147,682 146,682 145,682 144,683 143,683 142,683 142,683 141,684 140,684 139,684 138,684 137,684 136,685 136,685 135,685 134,685 133,685 132,686 131,686 130,686 130,686 129,686 128,686 127,687 126,687 125,687 124,687 124,687 123,687 122,688 121,688 120,688 119,688 118,688 118,688 117,689 116,689 115,689 114,689 113,689 "/>
</svg>
