<svg width="1024" height="768" viewBox="0 0 1024 768" xmlns="http://www.w3.org/2000/svg">
<rect x="0" y="0" width="512" height="384" opacity="1" fill="#FFFFFF" stroke="none"/>
<rect x="35" y="23" width="471" height="337" opacity="1" fill="#EEEEEE" stroke="none"/>
<text x="256" y="5" dy="0.76em" text-anchor="middle" font-family="sans-serif" font-size="17.879234142646474" opacity="1" fill="#000000">
n=4
</text>
<line opacity="1" stroke="#FFFFFF" stroke-width="1" x1="56" y1="360" x2="56" y2="23"/>
<line opacity="1" stroke="#FFFFFF" stroke-width="1" x1="99" y1="360" x2="99" y2="23"/>
<line opacity="1" stroke="#FFFFFF" stroke-width="1" x1="142" y1="360" x2="142" y2="23"/>
<line opacity="1" stroke="#FFFFFF" stroke-width="1" x1="184" y1="360" x2="184" y2="23"/>
<line opacity="1" stroke="#FFFFFF" stroke-width="1" x1="227" y1="360" x2="227" y2="23"/>
<line opacity="1" stroke="#FFFFFF" stroke-width="1" x1="270" y1="360" x2="270" y2="23"/>
<line opacity="1" stroke="#FFFFFF" stroke-width="1" x1="313" y1="360" x2="313" y2="23"/>
<line opacity="1" stroke="#FFFFFF" stroke-width="1" x1="356" y1="360" x2="356" y2="23"/>
<line opacity="1" stroke="#FFFFFF" stroke-width="1" x1="398" y1="360" x2="398" y2="23"/>
<line opacity="1" stroke="#FFFFFF" stroke-width="1" x1="441" y1="360" x2="441" y2="23"/>
<line opacity="1" stroke="#FFFFFF" stroke-width="1" x1="484" y1="360" x2="484" y2="23"/>
<line opacity="1" stroke="#FFFFFF" stroke-width="1" x1="35" y1="345" x2="506" y2="345"/>
<line opacity="1" stroke="#FFFFFF" stroke-width="1" x1="35" y1="321" x2="506" y2="321"/>
<line opacity="1" stroke="#FFFFFF" stroke-width="1" x1="35" y1="296" x2="506" y2="296"/>
<line opacity="1" stroke="#FFFFFF" stroke-width="1" x1="35" y1="272" x2="506" y2="272"/>
<line opacity="1" stroke="#FFFFFF" stroke-width="1" x1="35" y1="247" x2="506" y2="247"/>
<line opacity="1" stroke="#FFFFFF" stroke-width="1" x1="35" y1="223" x2="506" y2="223"/>
<line opacity="1" stroke="#FFFFFF" stroke-width="1" x1="35" y1="198" x2="506" y2="198"/>
<line opacity="1" stroke="#FFFFFF" stroke-width="1" x1="35" y1="174" x2="506" y2="174"/>
<line opacity="1" stroke="#FFFFFF" stroke-width="1" x1="35" y1="149" x2="506" y2="149"/>
<line opacity="1" stroke="#FFFFFF" stroke-width="1" x1="35" y1="125" x2="506" y2="125"/>
<line opacity="1" stroke="#FFFFFF" stroke-width="1" x1="35" y1="100" x2="506" y2="100"/>
<line opacity="1" stroke="#FFFFFF" stroke-width="1" x1="35" y1="76" x2="506" y2="76"/>
<line opacity="1" stroke="#FFFFFF" stroke-width="1" x1="35" y1="51" x2="506" y2="51"/>
<line opacity="1" stroke="#FFFFFF" stroke-width="1" x1="35" y1="27" x2="506" y2="27"/>
<text x="0" y="192" dy="0.76em" text-anchor="middle" font-family="sans-serif" font-size="8.870967741935484" opacity="1" fill="#000000" transform="rotate(270, 0, 192)">
density
</text>
<text x="271" y="384" dy="-0.5ex" text-anchor="middle" font-family="sans-serif" font-size="8.870967741935484" opacity="1" fill="#000000">
x
</text>
<line opacity="1" stroke="#FFFFFF" stroke-width="1" x1="56" y1="360" x2="56" y2="23"/>
<line opacity="1" stroke="#FFFFFF" stroke-width="1" x1="99" y1="360" x2="99" y2="23"/>
<line opacity="1" stroke="#FFFFFF" stroke-width="1" x1="142" y1="360" x2="142" y2="23"/>
<line opacity="1" stroke="#FFFFFF" stroke-width="1" x1="184" y1="360" x2="184" y2="23"/>
<line opacity="1" stroke="#FFFFFF" stroke-width="1" x1="227" y1="360" x2="227" y2="23"/>
<line opacity="1" stroke="#FFFFFF" stroke-width="1" x1="270" y1="360" x2="270" y2="23"/>
<line opacity="1" stroke="#FFFFFF" stroke-width="1" x1="313" y1="360" x2="313" y2="23"/>
<line opacity="1" stroke="#FFFFFF" stroke-width="1" x1="356" y1="360" x2="356" y2="23"/>
<line opacity="1" stroke="#FFFFFF" stroke-width="1" x1="398" y1="360" x2="398" y2="23"/>
<line opacity="1" stroke="#FFFFFF" stroke-width="1" x1="441" y1="360" x2="441" y2="23"/>
<line opacity="1" stroke="#FFFFFF" stroke-width="1" x1="484" y1="360" x2="484" y2="23"/>
<line opacity="1" stroke="#FFFFFF" stroke-width="1" x1="35" y1="345" x2="506" y2="345"/>
<line opacity="1" stroke="#FFFFFF" stroke-width="1" x1="35" y1="296" x2="506" y2="296"/>
<line opacity="1" stroke="#FFFFFF" stroke-width="1" x1="35" y1="247" x2="506" y2="247"/>
<line opacity="1" stroke="#FFFFFF" stroke-width="1" x1="35" y1="198" x2="506" y2="198"/>
<line opacity="1" stroke="#FFFFFF" stroke-width="1" x1="35" y1="149" x2="506" y2="149"/>
<line opacity="1" stroke="#FFFFFF" stroke-width="1" x1="35" y1="100" x2="506" y2="100"/>
<line opacity="1" stroke="#FFFFFF" stroke-width="1" x1="35" y1="51" x2="506" y2="51"/>
<polyline fill="none" opacity="1" stroke="#FFFFFF" stroke-width="1" points="34,23 34,360 "/>
<text x="25" y="345" dy="0.5ex" text-anchor="end" font-family="sans-serif" font-size="4.838709677419355" opacity="1" fill="#000000">
0.0
</text>
<polyline fill="none" opacity="1" stroke="#FFFFFF" stroke-width="1" points="29,345 34,345 "/>
<text x="25" y="296" dy="0.5ex" text-anchor="end" font-family="sans-serif" font-size="4.838709677419355" opacity="1" fill="#000000">
0.02
</text>
<polyline fill="none" opacity="1" stroke="#FFFFFF" stroke-width="1" points="29,296 34,296 "/>
<text x="25" y="247" dy="0.5ex" text-anchor="end" font-family="sans-serif" font-size="4.838709677419355" opacity="1" fill="#000000">
0.04
</text>
<polyline fill="none" opacity="1" stroke="#FFFFFF" stroke-width="1" points="29,247 34,247 "/>
<text x="25" y="198" dy="0.5ex" text-anchor="end" font-family="sans-serif" font-size="4.838709677419355" opacity="1" fill="#000000">
0.06
</text>
<polyline fill="none" opacity="1" stroke="#FFFFFF" stroke-width="1" points="29,198 34,198 "/>
<text x="25" y="149" dy="0.5ex" text-anchor="end" font-family="sans-serif" font-size="4.838709677419355" opacity="1" fill="#000000">
0.08
</text>
<polyline fill="none" opacity="1" stroke="#FFFFFF" stroke-width="1" points="29,149 34,149 "/>
<text x="25" y="100" dy="0.5ex" text-anchor="end" font-family="sans-serif" font-size="4.838709677419355" opacity="1" fill="#000000">
0.1
</text>
<polyline fill="none" opacity="1" stroke="#FFFFFF" stroke-width="1" points="29,100 34,100 "/>
<text x="25" y="51" dy="0.5ex" text-anchor="end" font-family="sans-serif" font-size="4.838709677419355" opacity="1" fill="#000000">
0.12
</text>
<polyline fill="none" opacity="1" stroke="#FFFFFF" stroke-width="1" points="29,51 34,51 "/>
<polyline fill="none" opacity="1" stroke="#FFFFFF" stroke-width="1" points="35,361 506,361 "/>
<text x="56" y="371" dy="0.76em" text-anchor="middle" font-family="sans-serif" font-size="4.838709677419355" opacity="1" fill="#000000">
0.0
</text>
<polyline fill="none" opacity="1" stroke="#FFFFFF" stroke-width="1" points="56,361 56,366 "/>
<text x="99" y="371" dy="0.76em" text-anchor="middle" font-family="sans-serif" font-size="4.838709677419355" opacity="1" fill="#000000">
1.0
</text>
<polyline fill="none" opacity="1" stroke="#FFFFFF" stroke-width="1" points="99,361 99,366 "/>
<text x="142" y="371" dy="0.76em" text-anchor="middle" font-family="sans-serif" font-size="4.838709677419355" opacity="1" fill="#000000">
2.0
</text>
<polyline fill="none" opacity="1" stroke="#FFFFFF" stroke-width="1" points="142,361 142,366 "/>
<text x="184" y="371" dy="0.76em" text-anchor="middle" font-family="sans-serif" font-size="4.838709677419355" opacity="1" fill="#000000">
3.0
</text>
<polyline fill="none" opacity="1" stroke="#FFFFFF" stroke-width="1" points="184,361 184,366 "/>
<text x="227" y="371" dy="0.76em" text-anchor="middle" font-family="sans-serif" font-size="4.838709677419355" opacity="1" fill="#000000">
4.0
</text>
<polyline fill="none" opacity="1" stroke="#FFFFFF" stroke-width="1" points="227,361 227,366 "/>
<text x="270" y="371" dy="0.76em" text-anchor="middle" font-family="sans-serif" font-size="4.838709677419355" opacity="1" fill="#000000">
5.0
</text>
<polyline fill="none" opacity="1" stroke="#FFFFFF" stroke-width="1" points="270,361 270,366 "/>
<text x="313" y="371" dy="0.76em" text-anchor="middle" font-family="sans-serif" font-size="4.838709677419355" opacity="1" fill="#000000">
6.0
</text>
<polyline fill="none" opacity="1" stroke="#FFFFFF" stroke-width="1" points="313,361 313,366 "/>
<text x="356" y="371" dy="0.76em" text-anchor="middle" font-family="sans-serif" font-size="4.838709677419355" opacity="1" fill="#000000">
7.0
</text>
<polyline fill="none" opacity="1" stroke="#FFFFFF" stroke-width="1" points="356,361 356,366 "/>
<text x="398" y="371" dy="0.76em" text-anchor="middle" font-family="sans-serif" font-size="4.838709677419355" opacity="1" fill="#000000">
8.0
</text>
<polyline fill="none" opacity="1" stroke="#FFFFFF" stroke-width="1" points="398,361 398,366 "/>
<text x="441" y="371" dy="0.76em" text-anchor="middle" font-family="sans-serif" font-size="4.838709677419355" opacity="1" fill="#000000">
9.0
</text>
<polyline fill="none" opacity="1" stroke="#FFFFFF" stroke-width="1" points="441,361 441,366 "/>
<text x="484" y="371" dy="0.76em" text-anchor="middle" font-family="sans-serif" font-size="4.838709677419355" opacity="1" fill="#000000">
10.0
</text>
<polyline fill="none" opacity="1" stroke="#FFFFFF" stroke-width="1" points="484,361 484,366 "/>
<polyline fill="none" opacity="1" stroke="#000000" stroke-width="2" points="484,192 483,345 482,345 482,345 481,345 480,345 479,345 478,345 477,345 476,345 476,345 475,345 474,345 473,345 472,345 471,345 470,345 470,345 469,345 468,345 467,345 466,345 465,345 464,345 464,345 463,345 462,345 461,345 460,345 459,345 458,345 458,345 457,345 456,345 455,345 454,345 453,345 452,345 452,345 451,345 450,345 449,345 448,345 447,345 446,345 446,345 445,345 444,345 443,345 442,345 441,192 440,345 440,345 439,345 438,345 437,345 436,345 435,345 434,345 434,345 433,345 432,345 431,345 430,345 429,345 428,345 428,345 427,345 426,345 425,345 424,345 423,345 422,345 422,345 421,345 420,345 419,345 418,345 417,345 416,345 416,345 415,345 414,345 413,345 412,345 411,345 410,345 410,345 409,345 408,345 407,345 406,345 405,345 404,345 404,345 403,345 402,345 401,345 400,345 399,345 398,192 398,345 397,345 396,345 395,345 394,345 393,345 392,345 392,345 391,345 390,345 389,345 388,345 387,345 386,345 386,345 385,345 384,345 383,345 382,345 381,345 380,345 380,345 379,345 378,345 377,345 376,345 375,345 374,345 374,345 373,345 372,345 371,345 370,345 369,345 368,345 368,345 367,345 366,345 365,345 364,345 363,345 362,345 362,345 361,345 360,345 359,345 358,345 357,345 356,345 356,39 355,345 354,345 353,345 352,345 351,345 350,345 350,345 349,345 348,345 347,345 346,345 345,345 345,345 344,345 343,345 342,345 341,345 340,345 339,345 339,345 338,345 337,345 336,345 335,345 334,345 333,345 333,345 332,345 331,345 330,345 329,345 328,345 327,345 327,345 326,345 325,345 324,345 323,345 322,345 321,345 321,345 320,345 319,345 318,345 317,345 316,345 315,345 315,345 314,345 313,39 312,345 311,345 310,345 309,345 309,345 308,345 307,345 306,345 305,345 304,345 303,345 303,345 302,345 301,345 300,345 299,345 298,345 297,345 297,345 296,345 295,345 294,345 293,345 292,345 291,345 291,345 290,345 289,345 288,345 287,345 286,345 285,345 285,345 284,345 283,345 282,345 281,345 280,345 279,345 279,345 278,345 277,345 276,345 275,345 274,345 273,345 273,345 272,345 271,345 270,39 269,345 268,345 267,345 267,345 266,345 265,345 264,345 263,345 262,345 261,345 261,345 260,345 259,345 258,345 257,345 256,345 255,345 255,345 254,345 253,345 252,345 251,345 250,345 249,345 249,345 248,345 247,345 246,345 245,345 244,345 243,345 243,345 242,345 241,345 240,345 239,345 238,345 237,345 237,345 236,345 235,345 234,345 233,345 232,345 231,345 231,345 230,345 229,345 228,345 227,39 226,345 225,345 225,345 224,345 223,345 222,345 221,345 220,345 219,345 219,345 218,345 217,345 216,345 215,345 214,345 213,345 213,345 212,345 211,345 210,345 209,345 208,345 207,345 207,345 206,345 205,345 204,345 203,345 202,345 201,345 201,345 200,345 199,345 198,345 197,345 196,345 195,345 195,345 194,345 193,345 192,345 191,345 190,345 190,345 189,345 188,345 187,345 186,345 185,345 184,39 184,345 183,345 182,345 181,345 180,345 179,345 178,345 178,345 177,345 176,345 175,345 174,345 173,345 172,345 172,345 171,345 170,345 169,345 168,345 167,345 166,345 166,345 165,345 164,345 163,345 162,345 161,345 160,345 160,345 159,345 158,345 157,345 156,345 155,345 154,345 154,345 153,345 152,345 151,345 150,345 149,345 148,345 148,345 147,345 146,345 145,345 144,345 143,345 142,345 142,192 141,345 140,345 139,345 138,345 137,345 136,345 136,345 135,345 134,345 133,345 132,345 131,345 130,345 130,345 129,345 128,345 127,345 126,345 125,345 124,345 124,345 123,345 122,345 121,345 120,345 119,345 118,345 118,345 117,345 116,345 115,345 114,345 113,345 112,345 112,345 111,345 110,345 109,345 108,345 107,345 106,345 106,345 105,345 104,345 103,345 102,345 101,345 100,345 100,345 99,192 98,345 97,345 96,345 95,345 94,345 94,345 93,345 92,345 91,345 90,345 89,345 88,345 88,345 87,345 86,345 85,345 84,345 83,345 82,345 82,345 81,345 80,345 79,345 78,345 77,345 76,345 76,345 75,345 74,345 73,345 72,345 71,345 70,345 70,345 69,345 68,345 67,345 66,345 65,345 64,345 64,345 63,345 62,345 61,345 60,345 59,345 58,345 58,345 57,345 56,192 "/>
<rect x="512" y="0" width="512" height="384" opacity="1" fill="#FFFFFF" stroke="none"/>
<rect x="547" y="23" width="471" height="337" opacity="1" fill="#EEEEEE" stroke="none"/>
<text x="768" y="5" dy="0.76em" text-anchor="middle" font-family="sans-serif" font-size="17.879234142646474" opacity="1" fill="#000000">
n=5
</text>
<line opacity="1" stroke="#FFFFFF" stroke-width="1" x1="568" y1="360" x2="568" y2="23"/>
<line opacity="1" stroke="#FFFFFF" stroke-width="1" x1="596" y1="360" x2="596" y2="23"/>
<line opacity="1" stroke="#FFFFFF" stroke-width="1" x1="625" y1="360" x2="625" y2="23"/>
<line opacity="1" stroke="#FFFFFF" stroke-width="1" x1="654" y1="360" x2="654" y2="23"/>
<line opacity="1" stroke="#FFFFFF" stroke-width="1" x1="682" y1="360" x2="682" y2="23"/>
<line opacity="1" stroke="#FFFFFF" stroke-width="1" x1="711" y1="360" x2="711" y2="23"/>
<line opacity="1" stroke="#FFFFFF" stroke-width="1" x1="739" y1="360" x2="739" y2="23"/>
<line opacity="1" stroke="#FFFFFF" stroke-width="1" x1="768" y1="360" x2="768" y2="23"/>
<line opacity="1" stroke="#FFFFFF" stroke-width="1" x1="796" y1="360" x2="796" y2="23"/>
<line opacity="1" stroke="#FFFFFF" stroke-width="1" x1="825" y1="360" x2="825" y2="23"/>
<line opacity="1" stroke="#FFFFFF" stroke-width="1" x1="853" y1="360" x2="853" y2="23"/>
<line opacity="1" stroke="#FFFFFF" stroke-width="1" x1="882" y1="360" x2="882" y2="23"/>
<line opacity="1" stroke="#FFFFFF" stroke-width="1" x1="910" y1="360" x2="910" y2="23"/>
<line opacity="1" stroke="#FFFFFF" stroke-width="1" x1="939" y1="360" x2="939" y2="23"/>
<line opacity="1" stroke="#FFFFFF" stroke-width="1" x1="968" y1="360" x2="968" y2="23"/>
<line opacity="1" stroke="#FFFFFF" stroke-width="1" x1="996" y1="360" x2="996" y2="23"/>
<line opacity="1" stroke="#FFFFFF" stroke-width="1" x1="547" y1="345" x2="1018" y2="345"/>
<line opacity="1" stroke="#FFFFFF" stroke-width="1" x1="547" y1="329" x2="1018" y2="329"/>
<line opacity="1" stroke="#FFFFFF" stroke-width="1" x1="547" y1="313" x2="1018" y2="313"/>
<line opacity="1" stroke="#FFFFFF" stroke-width="1" x1="547" y1="296" x2="1018" y2="296"/>
<line opacity="1" stroke="#FFFFFF" stroke-width="1" x1="547" y1="280" x2="1018" y2="280"/>
<line opacity="1" stroke="#FFFFFF" stroke-width="1" x1="547" y1="263" x2="1018" y2="263"/>
<line opacity="1" stroke="#FFFFFF" stroke-width="1" x1="547" y1="247" x2="1018" y2="247"/>
<line opacity="1" stroke="#FFFFFF" stroke-width="1" x1="547" y1="231" x2="1018" y2="231"/>
<line opacity="1" stroke="#FFFFFF" stroke-width="1" x1="547" y1="214" x2="1018" y2="214"/>
<line opacity="1" stroke="#FFFFFF" stroke-width="1" x1="547" y1="198" x2="1018" y2="198"/>
<line opacity="1" stroke="#FFFFFF" stroke-width="1" x1="547" y1="182" x2="1018" y2="182"/>
<line opacity="1" stroke="#FFFFFF" stroke-width="1" x1="547" y1="165" x2="1018" y2="165"/>
<line opacity="1" stroke="#FFFFFF" stroke-width="1" x1="547" y1="149" x2="1018" y2="149"/>
<line opacity="1" stroke="#FFFFFF" stroke-width="1" x1="547" y1="133" x2="1018" y2="133"/>
<line opacity="1" stroke="#FFFFFF" stroke-width="1" x1="547" y1="116" x2="1018" y2="116"/>
<line opacity="1" stroke="#FFFFFF" stroke-width="1" x1="547" y1="100" x2="1018" y2="100"/>
<line opacity="1" stroke="#FFFFFF" stroke-width="1" x1="547" y1="84" x2="1018" y2="84"/>
<line opacity="1" stroke="#FFFFFF" stroke-width="1" x1="547" y1="67" x2="1018" y2="67"/>
<line opacity="1" stroke="#FFFFFF" stroke-width="1" x1="547" y1="51" x2="1018" y2="51"/>
<line opacity="1" stroke="#FFFFFF" stroke-width="1" x1="547" y1="35" x2="1018" y2="35"/>
<text x="512" y="192" dy="0.76em" text-anchor="middle" font-family="sans-serif" font-size="8.870967741935484" opacity="1" fill="#000000" transform="rotate(270, 512, 192)">
density
</text>
<text x="783" y="384" dy="-0.5ex" text-anchor="middle" font-family="sans-serif" font-size="8.870967741935484" opacity="1" fill="#000000">
x
</text>
<line opacity="1" stroke="#FFFFFF" stroke-width="1" x1="568" y1="360" x2="568" y2="23"/>
<line opacity="1" stroke="#FFFFFF" stroke-width="1" x1="625" y1="360" x2="625" y2="23"/>
<line opacity="1" stroke="#FFFFFF" stroke-width="1" x1="682" y1="360" x2="682" y2="23"/>
<line opacity="1" stroke="#FFFFFF" stroke-width="1" x1="739" y1="360" x2="739" y2="23"/>
<line opacity="1" stroke="#FFFFFF" stroke-width="1" x1="796" y1="360" x2="796" y2="23"/>
<line opacity="1" stroke="#FFFFFF" stroke-width="1" x1="853" y1="360" x2="853" y2="23"/>
<line opacity="1" stroke="#FFFFFF" stroke-width="1" x1="910" y1="360" x2="910" y2="23"/>
<line opacity="1" stroke="#FFFFFF" stroke-width="1" x1="968" y1="360" x2="968" y2="23"/>
<line opacity="1" stroke="#FFFFFF" stroke-width="1" x1="547" y1="345" x2="1018" y2="345"/>
<line opacity="1" stroke="#FFFFFF" stroke-width="1" x1="547" y1="313" x2="1018" y2="313"/>
<line opacity="1" stroke="#FFFFFF" stroke-width="1" x1="547" y1="280" x2="1018" y2="280"/>
<line opacity="1" stroke="#FFFFFF" stroke-width="1" x1="547" y1="247" x2="1018" y2="247"/>
<line opacity="1" stroke="#FFFFFF" stroke-width="1" x1="547" y1="214" x2="1018" y2="214"/>
<line opacity="1" stroke="#FFFFFF" stroke-width="1" x1="547" y1="182" x2="1018" y2="182"/>
<line opacity="1" stroke="#FFFFFF" stroke-width="1" x1="547" y1="149" x2="1018" y2="149"/>
<line opacity="1" stroke="#FFFFFF" stroke-width="1" x1="547" y1="116" x2="1018" y2="116"/>
<line opacity="1" stroke="#FFFFFF" stroke-width="1" x1="547" y1="84" x2="1018" y2="84"/>
<line opacity="1" stroke="#FFFFFF" stroke-width="1" x1="547" y1="51" x2="1018" y2="51"/>
<polyline fill="none" opacity="1" stroke="#FFFFFF" stroke-width="1" points="546,23 546,360 "/>
<text x="537" y="345" dy="0.5ex" text-anchor="end" font-family="sans-serif" font-size="4.838709677419355" opacity="1" fill="#000000">
0.0
</text>
<polyline fill="none" opacity="1" stroke="#FFFFFF" stroke-width="1" points="541,345 546,345 "/>
<text x="537" y="313" dy="0.5ex" text-anchor="end" font-family="sans-serif" font-size="4.838709677419355" opacity="1" fill="#000000">
0.01
</text>
<polyline fill="none" opacity="1" stroke="#FFFFFF" stroke-width="1" points="541,313 546,313 "/>
<text x="537" y="280" dy="0.5ex" text-anchor="end" font-family="sans-serif" font-size="4.838709677419355" opacity="1" fill="#000000">
0.02
</text>
<polyline fill="none" opacity="1" stroke="#FFFFFF" stroke-width="1" points="541,280 546,280 "/>
<text x="537" y="247" dy="0.5ex" text-anchor="end" font-family="sans-serif" font-size="4.838709677419355" opacity="1" fill="#000000">
0.03
</text>
<polyline fill="none" opacity="1" stroke="#FFFFFF" stroke-width="1" points="541,247 546,247 "/>
<text x="537" y="214" dy="0.5ex" text-anchor="end" font-family="sans-serif" font-size="4.838709677419355" opacity="1" fill="#000000">
0.04
</text>
<polyline fill="none" opacity="1" stroke="#FFFFFF" stroke-width="1" points="541,214 546,214 "/>
<text x="537" y="182" dy="0.5ex" text-anchor="end" font-family="sans-serif" font-size="4.838709677419355" opacity="1" fill="#000000">
0.05
</text>
<polyline fill="none" opacity="1" stroke="#FFFFFF" stroke-width="1" points="541,182 546,182 "/>
<text x="537" y="149" dy="0.5ex" text-anchor="end" font-family="sans-serif" font-size="4.838709677419355" opacity="1" fill="#000000">
0.06
</text>
<polyline fill="none" opacity="1" stroke="#FFFFFF" stroke-width="1" points="541,149 546,149 "/>
<text x="537" y="116" dy="0.5ex" text-anchor="end" font-family="sans-serif" font-size="4.838709677419355" opacity="1" fill="#000000">
0.07
</text>
<polyline fill="none" opacity="1" stroke="#FFFFFF" stroke-width="1" points="541,116 546,116 "/>
<text x="537" y="84" dy="0.5ex" text-anchor="end" font-family="sans-serif" font-size="4.838709677419355" opacity="1" fill="#000000">
0.08
</text>
<polyline fill="none" opacity="1" stroke="#FFFFFF" stroke-width="1" points="541,84 546,84 "/>
<text x="537" y="51" dy="0.5ex" text-anchor="end" font-family="sans-serif" font-size="4.838709677419355" opacity="1" fill="#000000">
0.09
</text>
<polyline fill="none" opacity="1" stroke="#FFFFFF" stroke-width="1" points="541,51 546,51 "/>
<polyline fill="none" opacity="1" stroke="#FFFFFF" stroke-width="1" points="547,361 1018,361 "/>
<text x="568" y="371" dy="0.76em" text-anchor="middle" font-family="sans-serif" font-size="4.838709677419355" opacity="1" fill="#000000">
0.0
</text>
<polyline fill="none" opacity="1" stroke="#FFFFFF" stroke-width="1" points="568,361 568,366 "/>
<text x="625" y="371" dy="0.76em" text-anchor="middle" font-family="sans-serif" font-size="4.838709677419355" opacity="1" fill="#000000">
2.0
</text>
<polyline fill="none" opacity="1" stroke="#FFFFFF" stroke-width="1" points="625,361 625,366 "/>
<text x="682" y="371" dy="0.76em" text-anchor="middle" font-family="sans-serif" font-size="4.838709677419355" opacity="1" fill="#000000">
4.0
</text>
<polyline fill="none" opacity="1" stroke="#FFFFFF" stroke-width="1" points="682,361 682,366 "/>
<text x="739" y="371" dy="0.76em" text-anchor="middle" font-family="sans-serif" font-size="4.838709677419355" opacity="1" fill="#000000">
6.0
</text>
<polyline fill="none" opacity="1" stroke="#FFFFFF" stroke-width="1" points="739,361 739,366 "/>
<text x="796" y="371" dy="0.76em" text-anchor="middle" font-family="sans-serif" font-size="4.838709677419355" opacity="1" fill="#000000">
8.0
</text>
<polyline fill="none" opacity="1" stroke="#FFFFFF" stroke-width="1" points="796,361 796,366 "/>
<text x="853" y="371" dy="0.76em" text-anchor="middle" font-family="sans-serif" font-size="4.838709677419355" opacity="1" fill="#000000">
10.0
</text>
<polyline fill="none" opacity="1" stroke="#FFFFFF" stroke-width="1" points="853,361 853,366 "/>
<text x="910" y="371" dy="0.76em" text-anchor="middle" font-family="sans-serif" font-size="4.838709677419355" opacity="1" fill="#000000">
12.0
</text>
<polyline fill="none" opacity="1" stroke="#FFFFFF" stroke-width="1" points="910,361 910,366 "/>
<text x="968" y="371" dy="0.76em" text-anchor="middle" font-family="sans-serif" font-size="4.838709677419355" opacity="1" fill="#000000">
14.0
</text>
<polyline fill="none" opacity="1" stroke="#FFFFFF" stroke-width="1" points="968,361 968,366 "/>
<polyline fill="none" opacity="1" stroke="#000000" stroke-width="2" points="996,243 995,345 994,345 994,345 993,345 992,345 991,345 990,345 989,345 988,345 988,345 987,345 986,345 985,345 984,345 983,345 982,345 982,345 981,345 980,345 979,345 978,345 977,345 976,345 976,345 975,345 974,345 973,345 972,345 971,345 970,345 970,345 969,345 968,345 967,345 966,345 965,345 964,345 964,345 963,345 962,345 961,345 960,345 959,345 958,345 958,345 957,345 956,345 955,345 954,345 953,345 952,345 952,345 951,345 950,345 949,345 948,345 947,345 946,345 946,345 945,345 944,345 943,345 942,345 941,345 940,345 940,345 939,345 938,345 937,345 936,345 935,345 934,345 934,345 933,345 932,345 931,345 930,345 929,345 928,345 928,345 927,345 926,345 925,345 924,345 923,345 922,345 922,345 921,345 920,345 919,345 918,345 917,345 916,345 916,345 915,345 914,345 913,345 912,345 911,345 910,141 910,345 909,345 908,345 907,345 906,345 905,345 904,345 904,345 903,345 902,345 901,345 900,345 899,345 898,345 898,345 897,345 896,345 895,345 894,345 893,345 892,345 892,345 891,345 890,345 889,345 888,345 887,345 886,345 886,345 885,345 884,345 883,345 882,345 881,345 880,345 880,345 879,345 878,345 877,345 876,345 875,345 874,345 874,345 873,345 872,345 871,345 870,345 869,345 868,345 868,345 867,345 866,345 865,345 864,345 863,345 862,345 862,345 861,345 860,345 859,345 858,345 857,345 857,345 856,345 855,345 854,345 853,345 852,345 851,345 851,345 850,345 849,345 848,345 847,345 846,345 845,345 845,345 844,345 843,345 842,345 841,345 840,345 839,345 839,345 838,345 837,345 836,345 835,345 834,345 833,345 833,345 832,345 831,345 830,345 829,345 828,345 827,345 827,345 826,345 825,39 824,345 823,345 822,345 821,345 821,345 820,345 819,345 818,345 817,345 816,345 815,345 815,345 814,345 813,345 812,345 811,345 810,345 809,345 809,345 808,345 807,345 806,345 805,345 804,345 803,345 803,345 802,345 801,345 800,345 799,345 798,345 797,345 797,345 796,345 795,345 794,345 793,345 792,345 791,345 791,345 790,345 789,345 788,345 787,345 786,345 785,345 785,345 784,345 783,345 782,345 781,345 780,345 779,345 779,345 778,345 777,345 776,345 775,345 774,345 773,345 773,345 772,345 771,345 770,345 769,345 768,345 767,345 767,345 766,345 765,345 764,345 763,345 762,345 761,345 761,345 760,345 759,345 758,345 757,345 756,345 755,345 755,345 754,345 753,345 752,345 751,345 750,345 749,345 749,345 748,345 747,345 746,345 745,345 744,345 743,345 743,345 742,345 741,345 740,345 739,39 738,345 737,345 737,345 736,345 735,345 734,345 733,345 732,345 731,345 731,345 730,345 729,345 728,345 727,345 726,345 725,345 725,345 724,345 723,345 722,345 721,345 720,345 719,345 719,345 718,345 717,345 716,345 715,345 714,345 713,345 713,345 712,345 711,345 710,345 709,345 708,345 707,345 707,345 706,345 705,345 704,345 703,345 702,345 702,345 701,345 700,345 699,345 698,345 697,345 696,345 696,345 695,345 694,345 693,345 692,345 691,345 690,345 690,345 689,345 688,345 687,345 686,345 685,345 684,345 684,345 683,345 682,345 681,345 680,345 679,345 678,345 678,345 677,345 676,345 675,345 674,345 673,345 672,345 672,345 671,345 670,345 669,345 668,345 667,345 666,345 666,345 665,345 664,345 663,345 662,345 661,345 660,345 660,345 659,345 658,345 657,345 656,345 655,345 654,345 654,141 653,345 652,345 651,345 650,345 649,345 648,345 648,345 647,345 646,345 645,345 644,345 643,345 642,345 642,345 641,345 640,345 639,345 638,345 637,345 636,345 636,345 635,345 634,345 633,345 632,345 631,345 630,345 630,345 629,345 628,345 627,345 626,345 625,345 624,345 624,345 623,345 622,345 621,345 620,345 619,345 618,345 618,345 617,345 616,345 615,345 614,345 613,345 612,345 612,345 611,345 610,345 609,345 608,345 607,345 606,345 606,345 605,345 604,345 603,345 602,345 601,345 600,345 600,345 599,345 598,345 597,345 596,345 595,345 594,345 594,345 593,345 592,345 591,345 590,345 589,345 588,345 588,345 587,345 586,345 585,345 584,345 583,345 582,345 582,345 581,345 580,345 579,345 578,345 577,345 576,345 576,345 575,345 574,345 573,345 572,345 571,345 570,345 570,345 569,345 568,243 "/>
<rect x="0" y="384" width="512" height="384" opacity="1" fill="#FFFFFF" stroke="none"/>
<rect x="35" y="407" width="471" height="337" opacity="1" fill="#EEEEEE" stroke="none"/>
<text x="256" y="389" dy="0.76em" text-anchor="middle" font-family="sans-serif" font-size="17.879234142646474" opacity="1" fill="#000000">
n=10
</text>
<line opacity="1" stroke="#FFFFFF" stroke-width="1" x1="56" y1="744" x2="56" y2="407"/>
<line opacity="1" stroke="#FFFFFF" stroke-width="1" x1="95" y1="744" x2="95" y2="407"/>
<line opacity="1" stroke="#FFFFFF" stroke-width="1" x1="134" y1="744" x2="134" y2="407"/>
<line opacity="1" stroke="#FFFFFF" stroke-width="1" x1="173" y1="744" x2="173" y2="407"/>
<line opacity="1" stroke="#FFFFFF" stroke-width="1" x1="212" y1="744" x2="212" y2="407"/>
<line opacity="1" stroke="#FFFFFF" stroke-width="1" x1="251" y1="744" x2="251" y2="407"/>
<line opacity="1" stroke="#FFFFFF" stroke-width="1" x1="289" y1="744" x2="289" y2="407"/>
<line opacity="1" stroke="#FFFFFF" stroke-width="1" x1="328" y1="744" x2="328" y2="407"/>
<line opacity="1" stroke="#FFFFFF" stroke-width="1" x1="367" y1="744" x2="367" y2="407"/>
<line opacity="1" stroke="#FFFFFF" stroke-width="1" x1="406" y1="744" x2="406" y2="407"/>
<line opacity="1" stroke="#FFFFFF" stroke-width="1" x1="445" y1="744" x2="445" y2="407"/>
<line opacity="1" stroke="#FFFFFF" stroke-width="1" x1="484" y1="744" x2="484" y2="407"/>
<line opacity="1" stroke="#FFFFFF" stroke-width="1" x1="35" y1="729" x2="506" y2="729"/>
<line opacity="1" stroke="#FFFFFF" stroke-width="1" x1="35" y1="711" x2="506" y2="711"/>
<line opacity="1" stroke="#FFFFFF" stroke-width="1" x1="35" y1="693" x2="506" y2="693"/>
<line opacity="1" stroke="#FFFFFF" stroke-width="1" x1="35" y1="675" x2="506" y2="675"/>
<line opacity="1" stroke="#FFFFFF" stroke-width="1" x1="35" y1="657" x2="506" y2="657"/>
<line opacity="1" stroke="#FFFFFF" stroke-width="1" x1="35" y1="640" x2="506" y2="640"/>
<line opacity="1" stroke="#FFFFFF" stroke-width="1" x1="35" y1="622" x2="506" y2="622"/>
<line opacity="1" stroke="#FFFFFF" stroke-width="1" x1="35" y1="604" x2="506" y2="604"/>
<line opacity="1" stroke="#FFFFFF" stroke-width="1" x1="35" y1="586" x2="506" y2="586"/>
<line opacity="1" stroke="#FFFFFF" stroke-width="1" x1="35" y1="568" x2="506" y2="568"/>
<line opacity="1" stroke="#FFFFFF" stroke-width="1" x1="35" y1="550" x2="506" y2="550"/>
<line opacity="1" stroke="#FFFFFF" stroke-width="1" x1="35" y1="532" x2="506" y2="532"/>
<line opacity="1" stroke="#FFFFFF" stroke-width="1" x1="35" y1="514" x2="506" y2="514"/>
<line opacity="1" stroke="#FFFFFF" stroke-width="1" x1="35" y1="496" x2="506" y2="496"/>
<line opacity="1" stroke="#FFFFFF" stroke-width="1" x1="35" y1="478" x2="506" y2="478"/>
<line opacity="1" stroke="#FFFFFF" stroke-width="1" x1="35" y1="460" x2="506" y2="460"/>
<line opacity="1" stroke="#FFFFFF" stroke-width="1" x1="35" y1="442" x2="506" y2="442"/>
<line opacity="1" stroke="#FFFFFF" stroke-width="1" x1="35" y1="424" x2="506" y2="424"/>
<text x="0" y="576" dy="0.76em" text-anchor="middle" font-family="sans-serif" font-size="8.870967741935484" opacity="1" fill="#000000" transform="rotate(270, 0, 576)">
density
</text>
<text x="271" y="768" dy="-0.5ex" text-anchor="middle" font-family="sans-serif" font-size="8.870967741935484" opacity="1" fill="#000000">
x
</text>
<line opacity="1" stroke="#FFFFFF" stroke-width="1" x1="56" y1="744" x2="56" y2="407"/>
<line opacity="1" stroke="#FFFFFF" stroke-width="1" x1="134" y1="744" x2="134" y2="407"/>
<line opacity="1" stroke="#FFFFFF" stroke-width="1" x1="212" y1="744" x2="212" y2="407"/>
<line opacity="1" stroke="#FFFFFF" stroke-width="1" x1="289" y1="744" x2="289" y2="407"/>
<line opacity="1" stroke="#FFFFFF" stroke-width="1" x1="367" y1="744" x2="367" y2="407"/>
<line opacity="1" stroke="#FFFFFF" stroke-width="1" x1="445" y1="744" x2="445" y2="407"/>
<line opacity="1" stroke="#FFFFFF" stroke-width="1" x1="35" y1="729" x2="506" y2="729"/>
<line opacity="1" stroke="#FFFFFF" stroke-width="1" x1="35" y1="684" x2="506" y2="684"/>
<line opacity="1" stroke="#FFFFFF" stroke-width="1" x1="35" y1="640" x2="506" y2="640"/>
<line opacity="1" stroke="#FFFFFF" stroke-width="1" x1="35" y1="595" x2="506" y2="595"/>
<line opacity="1" stroke="#FFFFFF" stroke-width="1" x1="35" y1="550" x2="506" y2="550"/>
<line opacity="1" stroke="#FFFFFF" stroke-width="1" x1="35" y1="505" x2="506" y2="505"/>
<line opacity="1" stroke="#FFFFFF" stroke-width="1" x1="35" y1="460" x2="506" y2="460"/>
<line opacity="1" stroke="#FFFFFF" stroke-width="1" x1="35" y1="415" x2="506" y2="415"/>
<polyline fill="none" opacity="1" stroke="#FFFFFF" stroke-width="1" points="34,407 34,744 "/>
<text x="25" y="729" dy="0.5ex" text-anchor="end" font-family="sans-serif" font-size="4.838709677419355" opacity="1" fill="#000000">
0.0
</text>
<polyline fill="none" opacity="1" stroke="#FFFFFF" stroke-width="1" points="29,729 34,729 "/>
<text x="25" y="684" dy="0.5ex" text-anchor="end" font-family="sans-serif" font-size="4.838709677419355" opacity="1" fill="#000000">
0.00
</text>
<polyline fill="none" opacity="1" stroke="#FFFFFF" stroke-width="1" points="29,684 34,684 "/>
<text x="25" y="640" dy="0.5ex" text-anchor="end" font-family="sans-serif" font-size="4.838709677419355" opacity="1" fill="#000000">
0.01
</text>
<polyline fill="none" opacity="1" stroke="#FFFFFF" stroke-width="1" points="29,640 34,640 "/>
<text x="25" y="595" dy="0.5ex" text-anchor="end" font-family="sans-serif" font-size="4.838709677419355" opacity="1" fill="#000000">
0.01
</text>
<polyline fill="none" opacity="1" stroke="#FFFFFF" stroke-width="1" points="29,595 34,595 "/>
<text x="25" y="550" dy="0.5ex" text-anchor="end" font-family="sans-serif" font-size="4.838709677419355" opacity="1" fill="#000000">
0.02
</text>
<polyline fill="none" opacity="1" stroke="#FFFFFF" stroke-width="1" points="29,550 34,550 "/>
<text x="25" y="505" dy="0.5ex" text-anchor="end" font-family="sans-serif" font-size="4.838709677419355" opacity="1" fill="#000000">
0.02
</text>
<polyline fill="none" opacity="1" stroke="#FFFFFF" stroke-width="1" points="29,505 34,505 "/>
<text x="25" y="460" dy="0.5ex" text-anchor="end" font-family="sans-serif" font-size="4.838709677419355" opacity="1" fill="#000000">
0.03
</text>
<polyline fill="none" opacity="1" stroke="#FFFFFF" stroke-width="1" points="29,460 34,460 "/>
<text x="25" y="415" dy="0.5ex" text-anchor="end" font-family="sans-serif" font-size="4.838709677419355" opacity="1" fill="#000000">
0.03
</text>
<polyline fill="none" opacity="1" stroke="#FFFFFF" stroke-width="1" points="29,415 34,415 "/>
<polyline fill="none" opacity="1" stroke="#FFFFFF" stroke-width="1" points="35,745 506,745 "/>
<text x="56" y="755" dy="0.76em" text-anchor="middle" font-family="sans-serif" font-size="4.838709677419355" opacity="1" fill="#000000">
0.0
</text>
<polyline fill="none" opacity="1" stroke="#FFFFFF" stroke-width="1" points="56,745 56,750 "/>
<text x="134" y="755" dy="0.76em" text-anchor="middle" font-family="sans-serif" font-size="4.838709677419355" opacity="1" fill="#000000">
10.0
</text>
<polyline fill="none" opacity="1" stroke="#FFFFFF" stroke-width="1" points="134,745 134,750 "/>
<text x="212" y="755" dy="0.76em" text-anchor="middle" font-family="sans-serif" font-size="4.838709677419355" opacity="1" fill="#000000">
20.0
</text>
<polyline fill="none" opacity="1" stroke="#FFFFFF" stroke-width="1" points="212,745 212,750 "/>
<text x="289" y="755" dy="0.76em" text-anchor="middle" font-family="sans-serif" font-size="4.838709677419355" opacity="1" fill="#000000">
30.0
</text>
<polyline fill="none" opacity="1" stroke="#FFFFFF" stroke-width="1" points="289,745 289,750 "/>
<text x="367" y="755" dy="0.76em" text-anchor="middle" font-family="sans-serif" font-size="4.838709677419355" opacity="1" fill="#000000">
40.0
</text>
<polyline fill="none" opacity="1" stroke="#FFFFFF" stroke-width="1" points="367,745 367,750 "/>
<text x="445" y="755" dy="0.76em" text-anchor="middle" font-family="sans-serif" font-size="4.838709677419355" opacity="1" fill="#000000">
50.0
</text>
<polyline fill="none" opacity="1" stroke="#FFFFFF" stroke-width="1" points="445,745 445,750 "/>
<polyline fill="none" opacity="1" stroke="#000000" stroke-width="2" points="484,720 483,729 482,729 482,729 481,729 480,729 479,729 478,729 477,729 476,729 476,729 475,729 474,729 473,729 472,729 471,729 470,729 470,729 469,729 468,729 467,729 466,729 465,729 464,729 464,729 463,729 462,729 461,729 460,729 459,729 458,729 458,729 457,729 456,729 455,729 454,729 453,729 452,729 452,729 451,729 450,729 449,729 448,729 447,729 446,729 446,729 445,729 444,729 443,729 442,729 441,729 440,729 440,729 439,729 438,729 437,729 436,729 435,729 434,729 434,729 433,729 432,729 431,729 430,729 429,729 428,729 428,729 427,729 426,729 425,729 424,729 423,729 422,729 422,729 421,729 420,729 419,729 418,729 417,729 416,729 416,729 415,729 414,729 413,729 412,729 411,729 410,729 410,729 409,729 408,729 407,729 406,729 405,729 404,729 404,729 403,729 402,729 401,729 400,729 399,729 398,633 398,729 397,729 396,729 395,729 394,729 393,729 392,729 392,729 391,729 390,729 389,729 388,729 387,729 386,729 386,729 385,729 384,729 383,729 382,729 381,729 380,729 380,729 379,729 378,729 377,729 376,729 375,729 374,729 374,729 373,729 372,729 371,729 370,729 369,729 368,729 368,729 367,729 366,729 365,729 364,729 363,729 362,729 362,729 361,729 360,729 359,729 358,729 357,729 356,729 356,729 355,729 354,729 353,729 352,729 351,729 350,729 350,729 349,729 348,729 347,729 346,729 345,729 345,729 344,729 343,729 342,729 341,729 340,729 339,729 339,729 338,729 337,729 336,729 335,729 334,729 333,729 333,729 332,729 331,729 330,729 329,729 328,729 327,729 327,729 326,729 325,729 324,729 323,729 322,729 321,729 321,729 320,729 319,729 318,729 317,729 316,729 315,729 315,729 314,729 313,423 312,729 311,729 310,729 309,729 309,729 308,729 307,729 306,729 305,729 304,729 303,729 303,729 302,729 301,729 300,729 299,729 298,729 297,729 297,729 296,729 295,729 294,729 293,729 292,729 291,729 291,729 290,729 289,729 288,729 287,729 286,729 285,729 285,729 284,729 283,729 282,729 281,729 280,729 279,729 279,729 278,729 277,729 276,729 275,729 274,729 273,729 273,729 272,729 271,729 270,729 269,729 268,729 267,729 267,729 266,729 265,729 264,729 263,729 262,729 261,729 261,729 260,729 259,729 258,729 257,729 256,729 255,729 255,729 254,729 253,729 252,729 251,729 250,729 249,729 249,729 248,729 247,729 246,729 245,729 244,729 243,729 243,729 242,729 241,729 240,729 239,729 238,729 237,729 237,729 236,729 235,729 234,729 233,729 232,729 231,729 231,729 230,729 229,729 228,729 227,423 226,729 225,729 225,729 224,729 223,729 222,729 221,729 220,729 219,729 219,729 218,729 217,729 216,729 215,729 214,729 213,729 213,729 212,729 211,729 210,729 209,729 208,729 207,729 207,729 206,729 205,729 204,729 203,729 202,729 201,729 201,729 200,729 199,729 198,729 197,729 196,729 195,729 195,729 194,729 193,729 192,729 191,729 190,729 190,729 189,729 188,729 187,729 186,729 185,729 184,729 184,729 183,729 182,729 181,729 180,729 179,729 178,729 178,729 177,729 176,729 175,729 174,729 173,729 172,729 172,729 171,729 170,729 169,729 168,729 167,729 166,729 166,729 165,729 164,729 163,729 162,729 161,729 160,729 160,729 159,729 158,729 157,729 156,729 155,729 154,729 154,729 153,729 152,729 151,729 150,729 149,729 148,729 148,729 147,729 146,729 145,729 144,729 143,729 142,729 142,633 141,729 140,729 139,729 138,729 137,729 136,729 136,729 135,729 134,729 133,729 132,729 131,729 130,729 130,729 129,729 128,729 127,729 126,729 125,729 124,729 124,729 123,729 122,729 121,729 120,729 119,729 118,729 118,729 117,729 116,729 115,729 114,729 113,729 112,729 112,729 111,729 110,729 109,729 108,729 107,729 106,729 106,729 105,729 104,729 103,729 102,729 101,729 100,729 100,729 99,729 98,729 97,729 96,729 95,729 94,729 94,729 93,729 92,729 91,729 90,729 89,729 88,729 88,729 87,729 86,729 85,729 84,729 83,729 82,729 82,729 81,729 80,729 79,729 78,729 77,729 76,729 76,729 75,729 74,729 73,729 72,729 71,729 70,729 70,729 69,729 68,729 67,729 66,729 65,729 64,729 64,729 63,729 62,729 61,729 60,729 59,729 58,729 58,729 57,729 56,720 "/>
<rect x="512" y="384" width="512" height="384" opacity="1" fill="#FFFFFF" stroke="none"/>
<rect x="547" y="407" width="471" height="337" opacity="1" fill="#EEEEEE" stroke="none"/>
<text x="768" y="389" dy="0.76em" text-anchor="middle" font-family="sans-serif" font-size="17.879234142646474" opacity="1" fill="#000000">
n=40
</text>
<line opacity="1" stroke="#FFFFFF" stroke-width="1" x1="568" y1="744" x2="568" y2="407"/>
<line opacity="1" stroke="#FFFFFF" stroke-width="1" x1="594" y1="744" x2="594" y2="407"/>
<line opacity="1" stroke="#FFFFFF" stroke-width="1" x1="620" y1="744" x2="620" y2="407"/>
<line opacity="1" stroke="#FFFFFF" stroke-width="1" x1="646" y1="744" x2="646" y2="407"/>
<line opacity="1" stroke="#FFFFFF" stroke-width="1" x1="672" y1="744" x2="672" y2="407"/>
<line opacity="1" stroke="#FFFFFF" stroke-width="1" x1="698" y1="744" x2="698" y2="407"/>
<line opacity="1" stroke="#FFFFFF" stroke-width="1" x1="725" y1="744" x2="725" y2="407"/>
<line opacity="1" stroke="#FFFFFF" stroke-width="1" x1="751" y1="744" x2="751" y2="407"/>
<line opacity="1" stroke="#FFFFFF" stroke-width="1" x1="777" y1="744" x2="777" y2="407"/>
<line opacity="1" stroke="#FFFFFF" stroke-width="1" x1="803" y1="744" x2="803" y2="407"/>
<line opacity="1" stroke="#FFFFFF" stroke-width="1" x1="829" y1="744" x2="829" y2="407"/>
<line opacity="1" stroke="#FFFFFF" stroke-width="1" x1="855" y1="744" x2="855" y2="407"/>
<line opacity="1" stroke="#FFFFFF" stroke-width="1" x1="881" y1="744" x2="881" y2="407"/>
<line opacity="1" stroke="#FFFFFF" stroke-width="1" x1="907" y1="744" x2="907" y2="407"/>
<line opacity="1" stroke="#FFFFFF" stroke-width="1" x1="933" y1="744" x2="933" y2="407"/>
<line opacity="1" stroke="#FFFFFF" stroke-width="1" x1="960" y1="744" x2="960" y2="407"/>
<line opacity="1" stroke="#FFFFFF" stroke-width="1" x1="986" y1="744" x2="986" y2="407"/>
<line opacity="1" stroke="#FFFFFF" stroke-width="1" x1="1012" y1="744" x2="1012" y2="407"/>
<line opacity="1" stroke="#FFFFFF" stroke-width="1" x1="547" y1="729" x2="1018" y2="729"/>
<line opacity="1" stroke="#FFFFFF" stroke-width="1" x1="547" y1="700" x2="1018" y2="700"/>
<line opacity="1" stroke="#FFFFFF" stroke-width="1" x1="547" y1="671" x2="1018" y2="671"/>
<line opacity="1" stroke="#FFFFFF" stroke-width="1" x1="547" y1="643" x2="1018" y2="643"/>
<line opacity="1" stroke="#FFFFFF" stroke-width="1" x1="547" y1="614" x2="1018" y2="614"/>
<line opacity="1" stroke="#FFFFFF" stroke-width="1" x1="547" y1="585" x2="1018" y2="585"/>
<line opacity="1" stroke="#FFFFFF" stroke-width="1" x1="547" y1="556" x2="1018" y2="556"/>
<line opacity="1" stroke="#FFFFFF" stroke-width="1" x1="547" y1="527" x2="1018" y2="527"/>
<line opacity="1" stroke="#FFFFFF" stroke-width="1" x1="547" y1="498" x2="1018" y2="498"/>
<line opacity="1" stroke="#FFFFFF" stroke-width="1" x1="547" y1="469" x2="1018" y2="469"/>
<line opacity="1" stroke="#FFFFFF" stroke-width="1" x1="547" y1="440" x2="1018" y2="440"/>
<line opacity="1" stroke="#FFFFFF" stroke-width="1" x1="547" y1="411" x2="1018" y2="411"/>
<text x="512" y="576" dy="0.76em" text-anchor="middle" font-family="sans-serif" font-size="8.870967741935484" opacity="1" fill="#000000" transform="rotate(270, 512, 576)">
density
</text>
<text x="783" y="768" dy="-0.5ex" text-anchor="middle" font-family="sans-serif" font-size="8.870967741935484" opacity="1" fill="#000000">
x
</text>
<line opacity="1" stroke="#FFFFFF" stroke-width="1" x1="568" y1="744" x2="568" y2="407"/>
<line opacity="1" stroke="#FFFFFF" stroke-width="1" x1="620" y1="744" x2="620" y2="407"/>
<line opacity="1" stroke="#FFFFFF" stroke-width="1" x1="672" y1="744" x2="672" y2="407"/>
<line opacity="1" stroke="#FFFFFF" stroke-width="1" x1="725" y1="744" x2="725" y2="407"/>
<line opacity="1" stroke="#FFFFFF" stroke-width="1" x1="777" y1="744" x2="777" y2="407"/>
<line opacity="1" stroke="#FFFFFF" stroke-width="1" x1="829" y1="744" x2="829" y2="407"/>
<line opacity="1" stroke="#FFFFFF" stroke-width="1" x1="881" y1="744" x2="881" y2="407"/>
<line opacity="1" stroke="#FFFFFF" stroke-width="1" x1="933" y1="744" x2="933" y2="407"/>
<line opacity="1" stroke="#FFFFFF" stroke-width="1" x1="986" y1="744" x2="986" y2="407"/>
<line opacity="1" stroke="#FFFFFF" stroke-width="1" x1="547" y1="729" x2="1018" y2="729"/>
<line opacity="1" stroke="#FFFFFF" stroke-width="1" x1="547" y1="671" x2="1018" y2="671"/>
<line opacity="1" stroke="#FFFFFF" stroke-width="1" x1="547" y1="614" x2="1018" y2="614"/>
<line opacity="1" stroke="#FFFFFF" stroke-width="1" x1="547" y1="556" x2="1018" y2="556"/>
<line opacity="1" stroke="#FFFFFF" stroke-width="1" x1="547" y1="498" x2="1018" y2="498"/>
<line opacity="1" stroke="#FFFFFF" stroke-width="1" x1="547" y1="440" x2="1018" y2="440"/>
<polyline fill="none" opacity="1" stroke="#FFFFFF" stroke-width="1" points="546,407 546,744 "/>
<text x="537" y="729" dy="0.5ex" text-anchor="end" font-family="sans-serif" font-size="4.838709677419355" opacity="1" fill="#000000">
0.0
</text>
<polyline fill="none" opacity="1" stroke="#FFFFFF" stroke-width="1" points="541,729 546,729 "/>
<text x="537" y="671" dy="0.5ex" text-anchor="end" font-family="sans-serif" font-size="4.838709677419355" opacity="1" fill="#000000">
0.00
</text>
<polyline fill="none" opacity="1" stroke="#FFFFFF" stroke-width="1" points="541,671 546,671 "/>
<text x="537" y="614" dy="0.5ex" text-anchor="end" font-family="sans-serif" font-size="4.838709677419355" opacity="1" fill="#000000">
0.00
</text>
<polyline fill="none" opacity="1" stroke="#FFFFFF" stroke-width="1" points="541,614 546,614 "/>
<text x="537" y="556" dy="0.5ex" text-anchor="end" font-family="sans-serif" font-size="4.838709677419355" opacity="1" fill="#000000">
0.00
</text>
<polyline fill="none" opacity="1" stroke="#FFFFFF" stroke-width="1" points="541,556 546,556 "/>
<text x="537" y="498" dy="0.5ex" text-anchor="end" font-family="sans-serif" font-size="4.838709677419355" opacity="1" fill="#000000">
0.00
</text>
<polyline fill="none" opacity="1" stroke="#FFFFFF" stroke-width="1" points="541,498 546,498 "/>
<text x="537" y="440" dy="0.5ex" text-anchor="end" font-family="sans-serif" font-size="4.838709677419355" opacity="1" fill="#000000">
0.00
</text>
<polyline fill="none" opacity="1" stroke="#FFFFFF" stroke-width="1" points="541,440 546,440 "/>
<polyline fill="none" opacity="1" stroke="#FFFFFF" stroke-width="1" points="547,745 1018,745 "/>
<text x="568" y="755" dy="0.76em" text-anchor="middle" font-family="sans-serif" font-size="4.838709677419355" opacity="1" fill="#000000">
0.0
</text>
<polyline fill="none" opacity="1" stroke="#FFFFFF" stroke-width="1" points="568,745 568,750 "/>
<text x="620" y="755" dy="0.76em" text-anchor="middle" font-family="sans-serif" font-size="4.838709677419355" opacity="1" fill="#000000">
100
</text>
<polyline fill="none" opacity="1" stroke="#FFFFFF" stroke-width="1" points="620,745 620,750 "/>
<text x="672" y="755" dy="0.76em" text-anchor="middle" font-family="sans-serif" font-size="4.838709677419355" opacity="1" fill="#000000">
200
</text>
<polyline fill="none" opacity="1" stroke="#FFFFFF" stroke-width="1" points="672,745 672,750 "/>
<text x="725" y="755" dy="0.76em" text-anchor="middle" font-family="sans-serif" font-size="4.838709677419355" opacity="1" fill="#000000">
300
</text>
<polyline fill="none" opacity="1" stroke="#FFFFFF" stroke-width="1" points="725,745 725,750 "/>
<text x="777" y="755" dy="0.76em" text-anchor="middle" font-family="sans-serif" font-size="4.838709677419355" opacity="1" fill="#000000">
400
</text>
<polyline fill="none" opacity="1" stroke="#FFFFFF" stroke-width="1" points="777,745 777,750 "/>
<text x="829" y="755" dy="0.76em" text-anchor="middle" font-family="sans-serif" font-size="4.838709677419355" opacity="1" fill="#000000">
500
</text>
<polyline fill="none" opacity="1" stroke="#FFFFFF" stroke-width="1" points="829,745 829,750 "/>
<text x="881" y="755" dy="0.76em" text-anchor="middle" font-family="sans-serif" font-size="4.838709677419355" opacity="1" fill="#000000">
600
</text>
<polyline fill="none" opacity="1" stroke="#FFFFFF" stroke-width="1" points="881,745 881,750 "/>
<text x="933" y="755" dy="0.76em" text-anchor="middle" font-family="sans-serif" font-size="4.838709677419355" opacity="1" fill="#000000">
700
</text>
<polyline fill="none" opacity="1" stroke="#FFFFFF" stroke-width="1" points="933,745 933,750 "/>
<text x="986" y="755" dy="0.76em" text-anchor="middle" font-family="sans-serif" font-size="4.838709677419355" opacity="1" fill="#000000">
800
</text>
<polyline fill="none" opacity="1" stroke="#FFFFFF" stroke-width="1" points="986,745 986,750 "/>
<polyline fill="none" opacity="1" stroke="#000000" stroke-width="2" points="996,729 995,729 994,729 994,729 993,729 992,729 991,729 990,729 989,729 988,729 988,729 987,729 986,729 985,729 984,729 983,729 982,729 982,729 981,729 980,729 979,729 978,729 977,729 976,729 976,729 975,729 974,729 973,729 972,729 971,729 970,729 970,729 969,729 968,729 967,729 966,729 965,729 964,729 964,729 963,729 962,729 961,729 960,729 959,729 958,729 958,729 957,729 956,729 955,729 954,729 953,729 952,729 952,729 951,729 950,729 949,729 948,729 947,729 946,729 946,729 945,729 944,729 943,729 942,729 941,729 940,729 940,729 939,729 938,729 937,729 936,729 935,729 934,729 934,729 933,729 932,729 931,729 930,729 929,729 928,729 928,729 927,729 926,729 925,729 924,729 923,729 922,729 922,729 921,729 920,729 919,729 918,729 917,729 916,729 916,729 915,729 914,729 913,729 912,729 911,729 910,728 910,729 909,729 908,729 907,729 906,729 905,729 904,729 904,729 903,729 902,729 901,729 900,729 899,729 898,729 898,729 897,729 896,729 895,729 894,729 893,729 892,729 892,729 891,729 890,729 889,723 888,729 887,729 886,729 886,729 885,729 884,729 883,729 882,729 881,729 880,729 880,729 879,729 878,729 877,729 876,729 875,729 874,729 874,729 873,729 872,729 871,729 870,729 869,729 868,729 868,702 867,729 866,729 865,729 864,729 863,729 862,729 862,729 861,729 860,729 859,729 858,729 857,729 857,729 856,729 855,729 854,729 853,729 852,729 851,729 851,729 850,729 849,729 848,729 847,729 846,648 845,729 845,729 844,729 843,729 842,729 841,729 840,729 839,729 839,729 838,729 837,729 836,729 835,729 834,729 833,729 833,729 832,729 831,729 830,729 829,729 828,729 827,729 827,729 826,729 825,559 824,729 823,729 822,729 821,729 821,729 820,729 819,729 818,729 817,729 816,729 815,729 815,729 814,729 813,729 812,729 811,729 810,729 809,729 809,729 808,729 807,729 806,729 805,729 804,729 803,464 803,729 802,729 801,729 800,729 799,729 798,729 797,729 797,729 796,729 795,729 794,729 793,729 792,729 791,729 791,729 790,729 789,729 788,729 787,729 786,729 785,729 785,729 784,729 783,729 782,423 781,729 780,729 779,729 779,729 778,729 777,729 776,729 775,729 774,729 773,729 773,729 772,729 771,729 770,729 769,729 768,729 767,729 767,729 766,729 765,729 764,729 763,729 762,729 761,729 761,464 760,729 759,729 758,729 757,729 756,729 755,729 755,729 754,729 753,729 752,729 751,729 750,729 749,729 749,729 748,729 747,729 746,729 745,729 744,729 743,729 743,729 742,729 741,729 740,729 739,559 738,729 737,729 737,729 736,729 735,729 734,729 733,729 732,729 731,729 731,729 730,729 729,729 728,729 727,729 726,729 725,729 725,729 724,729 723,729 722,729 721,729 720,729 719,729 719,729 718,648 717,729 716,729 715,729 714,729 713,729 713,729 712,729 711,729 710,729 709,729 708,729 707,729 707,729 706,729 705,729 704,729 703,729 702,729 702,729 701,729 700,729 699,729 698,729 697,729 696,702 696,729 695,729 694,729 693,729 692,729 691,729 690,729 690,729 689,729 688,729 687,729 686,729 685,729 684,729 684,729 683,729 682,729 681,729 680,729 679,729 678,729 678,729 677,729 676,729 675,723 674,729 673,729 672,729 672,729 671,729 670,729 669,729 668,729 667,729 666,729 666,729 665,729 664,729 663,729 662,729 661,729 660,729 660,729 659,729 658,729 657,729 656,729 655,729 654,729 654,728 653,729 652,729 651,729 650,729 649,729 648,729 648,729 647,729 646,729 645,729 644,729 643,729 642,729 642,729 641,729 640,729 639,729 638,729 637,729 636,729 636,729 635,729 634,729 633,729 632,729 631,729 630,729 630,729 629,729 628,729 627,729 626,729 625,729 624,729 624,729 623,729 622,729 621,729 620,729 619,729 618,729 618,729 617,729 616,729 615,729 614,729 613,729 612,729 612,729 611,729 610,729 609,729 608,729 607,729 606,729 606,729 605,729 604,729 603,729 602,729 601,729 600,729 600,729 599,729 598,729 597,729 596,729 595,729 594,729 594,729 593,729 592,729 591,729 590,729 589,729 588,729 588,729 587,729 586,729 585,729 584,729 583,729 582,729 582,729 581,729 580,729 579,729 578,729 577,729 576,729 576,729 575,729 574,729 573,729 572,729 571,729 570,729 570,729 569,729 568,729 "/>
</svg>
