<svg width="1024" height="768" viewBox="0 0 1024 768" xmlns="http://www.w3.org/2000/svg">
<rect x="0" y="0" width="1024" height="768" opacity="1" fill="#FFFFFF" stroke="none"/>
<rect x="71" y="46" width="942" height="675" opacity="1" fill="#EEEEEE" stroke="none"/>
<text x="512" y="5" dy="0.76em" text-anchor="middle" font-family="sans-serif" font-size="35.75846828529295" opacity="1" fill="#000000">
Bessel Functions J_nu(x) Near 0 log-log Scale
</text>
<line opacity="1" stroke="#FFFFFF" stroke-width="1" x1="88" y1="721" x2="88" y2="46"/>
<line opacity="1" stroke="#FFFFFF" stroke-width="1" x1="156" y1="721" x2="156" y2="46"/>
<line opacity="1" stroke="#FFFFFF" stroke-width="1" x1="224" y1="721" x2="224" y2="46"/>
<line opacity="1" stroke="#FFFFFF" stroke-width="1" x1="292" y1="721" x2="292" y2="46"/>
<line opacity="1" stroke="#FFFFFF" stroke-width="1" x1="359" y1="721" x2="359" y2="46"/>
<line opacity="1" stroke="#FFFFFF" stroke-width="1" x1="427" y1="721" x2="427" y2="46"/>
<line opacity="1" stroke="#FFFFFF" stroke-width="1" x1="495" y1="721" x2="495" y2="46"/>
<line opacity="1" stroke="#FFFFFF" stroke-width="1" x1="563" y1="721" x2="563" y2="46"/>
<line opacity="1" stroke="#FFFFFF" stroke-width="1" x1="630" y1="721" x2="630" y2="46"/>
<line opacity="1" stroke="#FFFFFF" stroke-width="1" x1="698" y1="721" x2="698" y2="46"/>
<line opacity="1" stroke="#FFFFFF" stroke-width="1" x1="766" y1="721" x2="766" y2="46"/>
<line opacity="1" stroke="#FFFFFF" stroke-width="1" x1="834" y1="721" x2="834" y2="46"/>
<line opacity="1" stroke="#FFFFFF" stroke-width="1" x1="901" y1="721" x2="901" y2="46"/>
<line opacity="1" stroke="#FFFFFF" stroke-width="1" x1="969" y1="721" x2="969" y2="46"/>
<line opacity="1" stroke="#FFFFFF" stroke-width="1" x1="71" y1="691" x2="1013" y2="691"/>
<line opacity="1" stroke="#FFFFFF" stroke-width="1" x1="71" y1="614" x2="1013" y2="614"/>
<line opacity="1" stroke="#FFFFFF" stroke-width="1" x1="71" y1="537" x2="1013" y2="537"/>
<line opacity="1" stroke="#FFFFFF" stroke-width="1" x1="71" y1="461" x2="1013" y2="461"/>
<line opacity="1" stroke="#FFFFFF" stroke-width="1" x1="71" y1="384" x2="1013" y2="384"/>
<line opacity="1" stroke="#FFFFFF" stroke-width="1" x1="71" y1="307" x2="1013" y2="307"/>
<line opacity="1" stroke="#FFFFFF" stroke-width="1" x1="71" y1="231" x2="1013" y2="231"/>
<line opacity="1" stroke="#FFFFFF" stroke-width="1" x1="71" y1="154" x2="1013" y2="154"/>
<line opacity="1" stroke="#FFFFFF" stroke-width="1" x1="71" y1="77" x2="1013" y2="77"/>
<text x="0" y="384" dy="0.76em" text-anchor="middle" font-family="sans-serif" font-size="17.741935483870968" opacity="1" fill="#000000" transform="rotate(270, 0, 384)">
 
</text>
<text x="542" y="768" dy="-0.5ex" text-anchor="middle" font-family="sans-serif" font-size="17.741935483870968" opacity="1" fill="#000000">
x
</text>
<line opacity="1" stroke="#FFFFFF" stroke-width="1" x1="88" y1="721" x2="88" y2="46"/>
<line opacity="1" stroke="#FFFFFF" stroke-width="1" x1="224" y1="721" x2="224" y2="46"/>
<line opacity="1" stroke="#FFFFFF" stroke-width="1" x1="359" y1="721" x2="359" y2="46"/>
<line opacity="1" stroke="#FFFFFF" stroke-width="1" x1="495" y1="721" x2="495" y2="46"/>
<line opacity="1" stroke="#FFFFFF" stroke-width="1" x1="630" y1="721" x2="630" y2="46"/>
<line opacity="1" stroke="#FFFFFF" stroke-width="1" x1="766" y1="721" x2="766" y2="46"/>
<line opacity="1" stroke="#FFFFFF" stroke-width="1" x1="901" y1="721" x2="901" y2="46"/>
<line opacity="1" stroke="#FFFFFF" stroke-width="1" x1="71" y1="691" x2="1013" y2="691"/>
<line opacity="1" stroke="#FFFFFF" stroke-width="1" x1="71" y1="614" x2="1013" y2="614"/>
<line opacity="1" stroke="#FFFFFF" stroke-width="1" x1="71" y1="537" x2="1013" y2="537"/>
<line opacity="1" stroke="#FFFFFF" stroke-width="1" x1="71" y1="461" x2="1013" y2="461"/>
<line opacity="1" stroke="#FFFFFF" stroke-width="1" x1="71" y1="384" x2="1013" y2="384"/>
<line opacity="1" stroke="#FFFFFF" stroke-width="1" x1="71" y1="307" x2="1013" y2="307"/>
<line opacity="1" stroke="#FFFFFF" stroke-width="1" x1="71" y1="231" x2="1013" y2="231"/>
<line opacity="1" stroke="#FFFFFF" stroke-width="1" x1="71" y1="154" x2="1013" y2="154"/>
<line opacity="1" stroke="#FFFFFF" stroke-width="1" x1="71" y1="77" x2="1013" y2="77"/>
<polyline fill="none" opacity="1" stroke="#FFFFFF" stroke-width="1" points="70,46 70,721 "/>
<text x="61" y="691" dy="0.5ex" text-anchor="end" font-family="sans-serif" font-size="10.483870967741936" opacity="1" fill="#000000">
1e-40
</text>
<polyline fill="none" opacity="1" stroke="#FFFFFF" stroke-width="1" points="65,691 70,691 "/>
<text x="61" y="614" dy="0.5ex" text-anchor="end" font-family="sans-serif" font-size="10.483870967741936" opacity="1" fill="#000000">
1e-35
</text>
<polyline fill="none" opacity="1" stroke="#FFFFFF" stroke-width="1" points="65,614 70,614 "/>
<text x="61" y="537" dy="0.5ex" text-anchor="end" font-family="sans-serif" font-size="10.483870967741936" opacity="1" fill="#000000">
1e-30
</text>
<polyline fill="none" opacity="1" stroke="#FFFFFF" stroke-width="1" points="65,537 70,537 "/>
<text x="61" y="461" dy="0.5ex" text-anchor="end" font-family="sans-serif" font-size="10.483870967741936" opacity="1" fill="#000000">
1e-25
</text>
<polyline fill="none" opacity="1" stroke="#FFFFFF" stroke-width="1" points="65,461 70,461 "/>
<text x="61" y="384" dy="0.5ex" text-anchor="end" font-family="sans-serif" font-size="10.483870967741936" opacity="1" fill="#000000">
1e-20
</text>
<polyline fill="none" opacity="1" stroke="#FFFFFF" stroke-width="1" points="65,384 70,384 "/>
<text x="61" y="307" dy="0.5ex" text-anchor="end" font-family="sans-serif" font-size="10.483870967741936" opacity="1" fill="#000000">
1e-15
</text>
<polyline fill="none" opacity="1" stroke="#FFFFFF" stroke-width="1" points="65,307 70,307 "/>
<text x="61" y="231" dy="0.5ex" text-anchor="end" font-family="sans-serif" font-size="10.483870967741936" opacity="1" fill="#000000">
1e-10
</text>
<polyline fill="none" opacity="1" stroke="#FFFFFF" stroke-width="1" points="65,231 70,231 "/>
<text x="61" y="154" dy="0.5ex" text-anchor="end" font-family="sans-serif" font-size="10.483870967741936" opacity="1" fill="#000000">
1e-5
</text>
<polyline fill="none" opacity="1" stroke="#FFFFFF" stroke-width="1" points="65,154 70,154 "/>
<text x="61" y="77" dy="0.5ex" text-anchor="end" font-family="sans-serif" font-size="10.483870967741936" opacity="1" fill="#000000">
0.0
</text>
<polyline fill="none" opacity="1" stroke="#FFFFFF" stroke-width="1" points="65,77 70,77 "/>
<polyline fill="none" opacity="1" stroke="#FFFFFF" stroke-width="1" points="71,722 1013,722 "/>
<text x="88" y="732" dy="0.76em" text-anchor="middle" font-family="sans-serif" font-size="10.483870967741936" opacity="1" fill="#000000">
1e-5
</text>
<polyline fill="none" opacity="1" stroke="#FFFFFF" stroke-width="1" points="88,722 88,727 "/>
<text x="224" y="732" dy="0.76em" text-anchor="middle" font-family="sans-serif" font-size="10.483870967741936" opacity="1" fill="#000000">
1e-4
</text>
<polyline fill="none" opacity="1" stroke="#FFFFFF" stroke-width="1" points="224,722 224,727 "/>
<text x="359" y="732" dy="0.76em" text-anchor="middle" font-family="sans-serif" font-size="10.483870967741936" opacity="1" fill="#000000">
0.00
</text>
<polyline fill="none" opacity="1" stroke="#FFFFFF" stroke-width="1" points="359,722 359,727 "/>
<text x="495" y="732" dy="0.76em" text-anchor="middle" font-family="sans-serif" font-size="10.483870967741936" opacity="1" fill="#000000">
0.01
</text>
<polyline fill="none" opacity="1" stroke="#FFFFFF" stroke-width="1" points="495,722 495,727 "/>
<text x="630" y="732" dy="0.76em" text-anchor="middle" font-family="sans-serif" font-size="10.483870967741936" opacity="1" fill="#000000">
0.1
</text>
<polyline fill="none" opacity="1" stroke="#FFFFFF" stroke-width="1" points="630,722 630,727 "/>
<text x="766" y="732" dy="0.76em" text-anchor="middle" font-family="sans-serif" font-size="10.483870967741936" opacity="1" fill="#000000">
0.0
</text>
<polyline fill="none" opacity="1" stroke="#FFFFFF" stroke-width="1" points="766,722 766,727 "/>
<text x="901" y="732" dy="0.76em" text-anchor="middle" font-family="sans-serif" font-size="10.483870967741936" opacity="1" fill="#000000">
10.0
</text>
<polyline fill="none" opacity="1" stroke="#FFFFFF" stroke-width="1" points="901,722 901,727 "/>
<polyline fill="none" opacity="1" stroke="#440154" stroke-width="2" points="970,90 966,96 963,91 960,94 956,90 953,98 950,89 946,97 943,90 940,89 936,108 933,90 930,88 926,95 923,93 920,88 916,88 913,94 909,95 906,88 903,86 899,87 896,91 893,141 889,91 886,87 883,85 879,85 876,86 873,88 869,93 866,108 863,92 859,88 856,85 853,84 849,84 846,83 843,83 839,84 836,84 833,85 829,87 826,89 822,92 819,99 816,100 812,92 809,89 806,87 802,85 799,84 796,83 792,82 789,82 786,81 782,81 779,80 776,80 772,79 769,79 766,79 762,79 759,79 756,78 752,78 749,78 746,78 742,78 739,78 736,78 732,78 729,78 725,78 722,78 719,78 715,77 712,77 709,77 705,77 702,77 699,77 695,77 692,77 689,77 685,77 682,77 679,77 675,77 672,77 669,77 665,77 662,77 659,77 655,77 652,77 649,77 645,77 642,77 639,77 635,77 632,77 628,77 625,77 622,77 618,77 615,77 612,77 608,77 605,77 602,77 598,77 595,77 592,77 588,77 585,77 582,77 578,77 575,77 572,77 568,77 565,77 562,77 558,77 555,77 552,77 548,77 545,77 542,77 538,77 535,77 531,77 528,77 525,77 521,77 518,77 515,77 511,77 508,77 505,77 501,77 498,77 495,77 491,77 488,77 485,77 481,77 478,77 475,77 471,77 468,77 465,77 461,77 458,77 455,77 451,77 448,77 444,77 441,77 438,77 434,77 431,77 428,77 424,77 421,77 418,77 414,77 411,77 408,77 404,77 401,77 398,77 394,77 391,77 388,77 384,77 381,77 378,77 374,77 371,77 368,77 364,77 361,77 358,77 354,77 351,77 347,77 344,77 341,77 337,77 334,77 331,77 327,77 324,77 321,77 317,77 314,77 311,77 307,77 304,77 301,77 297,77 294,77 291,77 287,77 284,77 281,77 277,77 274,77 271,77 267,77 264,77 261,77 257,77 254,77 250,77 247,77 244,77 240,77 237,77 234,77 230,77 227,77 224,77 220,77 217,77 214,77 210,77 207,77 204,77 200,77 197,77 194,77 190,77 187,77 184,77 180,77 177,77 174,77 170,77 167,77 163,77 160,77 157,77 153,77 150,77 147,77 143,77 140,77 137,77 133,77 130,77 127,77 123,77 120,77 117,77 113,77 "/>
<polyline fill="none" opacity="1" stroke="#451667" stroke-width="2" points="970,94 966,91 963,98 960,90 956,96 953,90 950,92 946,94 943,89 940,96 936,91 933,88 930,93 926,94 923,88 920,88 916,95 913,93 909,88 906,87 903,88 899,95 896,95 893,88 889,86 886,86 883,86 879,89 876,95 873,98 869,90 866,87 863,85 859,84 856,84 853,84 849,85 846,86 843,87 839,90 836,95 833,105 829,93 826,89 822,87 819,85 816,84 812,83 809,82 806,82 802,81 799,81 796,80 792,80 789,80 786,80 782,80 779,80 776,80 772,80 769,80 766,80 762,80 759,80 756,80 752,80 749,80 746,80 742,81 739,81 736,81 732,81 729,81 725,81 722,81 719,82 715,82 712,82 709,82 705,82 702,82 699,83 695,83 692,83 689,83 685,83 682,83 679,84 675,84 672,84 669,84 665,84 662,85 659,85 655,85 652,85 649,85 645,86 642,86 639,86 635,86 632,86 628,86 625,87 622,87 618,87 615,87 612,87 608,88 605,88 602,88 598,88 595,88 592,89 588,89 585,89 582,89 578,89 575,89 572,90 568,90 565,90 562,90 558,90 555,91 552,91 548,91 545,91 542,91 538,92 535,92 531,92 528,92 525,92 521,93 518,93 515,93 511,93 508,93 505,93 501,94 498,94 495,94 491,94 488,94 485,95 481,95 478,95 475,95 471,95 468,96 465,96 461,96 458,96 455,96 451,96 448,97 444,97 441,97 438,97 434,97 431,98 428,98 424,98 421,98 418,98 414,99 411,99 408,99 404,99 401,99 398,100 394,100 391,100 388,100 384,100 381,100 378,101 374,101 371,101 368,101 364,101 361,102 358,102 354,102 351,102 347,102 344,103 341,103 337,103 334,103 331,103 327,104 324,104 321,104 317,104 314,104 311,104 307,105 304,105 301,105 297,105 294,105 291,106 287,106 284,106 281,106 277,106 274,107 271,107 267,107 264,107 261,107 257,107 254,108 250,108 247,108 244,108 240,108 237,109 234,109 230,109 227,109 224,109 220,110 217,110 214,110 210,110 207,110 204,111 200,111 197,111 194,111 190,111 187,111 184,112 180,112 177,112 174,112 170,112 167,113 163,113 160,113 157,113 153,113 150,114 147,114 143,114 140,114 137,114 133,114 130,115 127,115 123,115 120,115 117,115 113,116 "/>
<polyline fill="none" opacity="1" stroke="#462C7A" stroke-width="2" points="970,101 966,91 963,95 960,91 956,96 953,89 950,120 946,89 943,92 940,94 936,88 933,91 930,96 926,88 923,88 920,95 916,93 913,88 909,87 906,90 903,103 899,91 896,87 893,86 889,86 886,88 883,94 879,99 876,90 873,87 869,85 866,84 863,84 859,85 856,86 853,88 849,92 846,101 843,96 839,90 836,87 833,85 829,84 826,83 822,82 819,82 816,81 812,81 809,81 806,81 802,81 799,81 796,81 792,81 789,81 786,81 782,81 779,82 776,82 772,82 769,82 766,83 762,83 759,83 756,84 752,84 749,84 746,85 742,85 739,85 736,86 732,86 729,86 725,87 722,87 719,87 715,88 712,88 709,88 705,89 702,89 699,89 695,90 692,90 689,91 685,91 682,91 679,92 675,92 672,92 669,93 665,93 662,94 659,94 655,94 652,95 649,95 645,95 642,96 639,96 635,97 632,97 628,97 625,98 622,98 618,98 615,99 612,99 608,100 605,100 602,100 598,101 595,101 592,102 588,102 585,102 582,103 578,103 575,103 572,104 568,104 565,105 562,105 558,105 555,106 552,106 548,106 545,107 542,107 538,108 535,108 531,108 528,109 525,109 521,109 518,110 515,110 511,111 508,111 505,111 501,112 498,112 495,113 491,113 488,113 485,114 481,114 478,114 475,115 471,115 468,116 465,116 461,116 458,117 455,117 451,117 448,118 444,118 441,119 438,119 434,119 431,120 428,120 424,120 421,121 418,121 414,122 411,122 408,122 404,123 401,123 398,123 394,124 391,124 388,125 384,125 381,125 378,126 374,126 371,127 368,127 364,127 361,128 358,128 354,128 351,129 347,129 344,130 341,130 337,130 334,131 331,131 327,131 324,132 321,132 317,133 314,133 311,133 307,134 304,134 301,134 297,135 294,135 291,136 287,136 284,136 281,137 277,137 274,138 271,138 267,138 264,139 261,139 257,139 254,140 250,140 247,141 244,141 240,141 237,142 234,142 230,142 227,143 224,143 220,144 217,144 214,144 210,145 207,145 204,145 200,146 197,146 194,147 190,147 187,147 184,148 180,148 177,148 174,149 170,149 167,150 163,150 160,150 157,151 153,151 150,152 147,152 143,152 140,153 137,153 133,153 130,154 127,154 123,155 120,155 117,155 113,156 "/>
<polyline fill="none" opacity="1" stroke="#413F83" stroke-width="2" points="970,92 966,96 963,90 960,97 956,90 953,93 950,92 946,90 943,107 940,89 936,90 933,103 930,89 926,88 923,94 920,93 916,88 913,87 909,91 906,108 903,90 899,87 896,86 893,87 889,91 886,127 883,91 879,87 876,85 873,85 869,85 866,86 863,87 859,90 856,97 853,98 849,90 846,87 843,85 839,84 836,83 833,82 829,82 826,82 822,82 819,81 816,81 812,82 809,82 806,82 802,82 799,83 796,83 792,83 789,84 786,84 782,84 779,85 776,85 772,86 769,86 766,87 762,87 759,88 756,88 752,89 749,89 746,90 742,90 739,91 736,91 732,92 729,92 725,93 722,94 719,94 715,95 712,95 709,96 705,96 702,97 699,97 695,98 692,99 689,99 685,100 682,100 679,101 675,101 672,102 669,103 665,103 662,104 659,104 655,105 652,105 649,106 645,106 642,107 639,108 635,108 632,109 628,109 625,110 622,110 618,111 615,112 612,112 608,113 605,113 602,114 598,114 595,115 592,116 588,116 585,117 582,117 578,118 575,118 572,119 568,120 565,120 562,121 558,121 555,122 552,122 548,123 545,124 542,124 538,125 535,125 531,126 528,126 525,127 521,128 518,128 515,129 511,129 508,130 505,130 501,131 498,131 495,132 491,133 488,133 485,134 481,134 478,135 475,135 471,136 468,137 465,137 461,138 458,138 455,139 451,139 448,140 444,141 441,141 438,142 434,142 431,143 428,143 424,144 421,145 418,145 414,146 411,146 408,147 404,147 401,148 398,149 394,149 391,150 388,150 384,151 381,151 378,152 374,153 371,153 368,154 364,154 361,155 358,155 354,156 351,156 347,157 344,158 341,158 337,159 334,159 331,160 327,160 324,161 321,162 317,162 314,163 311,163 307,164 304,164 301,165 297,166 294,166 291,167 287,167 284,168 281,168 277,169 274,170 271,170 267,171 264,171 261,172 257,172 254,173 250,174 247,174 244,175 240,175 237,176 234,176 230,177 227,178 224,178 220,179 217,179 214,180 210,180 207,181 204,181 200,182 197,183 194,183 190,184 187,184 184,185 180,185 177,186 174,187 170,187 167,188 163,188 160,189 157,189 153,190 150,191 147,191 143,192 140,192 137,193 133,193 130,194 127,195 123,195 120,196 117,196 113,197 "/>
<polyline fill="none" opacity="1" stroke="#3A528A" stroke-width="2" points="970,90 966,97 963,90 960,95 956,90 953,100 950,89 946,96 943,91 940,89 936,100 933,90 930,88 926,93 923,95 920,88 916,88 913,91 909,101 906,89 903,87 899,87 896,89 893,96 889,95 886,89 883,86 879,85 876,85 873,86 869,88 866,92 863,104 859,94 856,89 853,86 849,85 846,84 843,83 839,82 836,82 833,82 829,82 826,82 822,82 819,83 816,83 812,83 809,84 806,84 802,85 799,85 796,86 792,86 789,87 786,88 782,88 779,89 776,90 772,90 769,91 766,92 762,92 759,93 756,94 752,94 749,95 746,96 742,97 739,97 736,98 732,99 729,100 725,100 722,101 719,102 715,103 712,103 709,104 705,105 702,106 699,106 695,107 692,108 689,109 685,109 682,110 679,111 675,112 672,112 669,113 665,114 662,115 659,115 655,116 652,117 649,118 645,118 642,119 639,120 635,121 632,121 628,122 625,123 622,124 618,124 615,125 612,126 608,127 605,127 602,128 598,129 595,130 592,130 588,131 585,132 582,133 578,134 575,134 572,135 568,136 565,137 562,137 558,138 555,139 552,140 548,140 545,141 542,142 538,143 535,143 531,144 528,145 525,146 521,146 518,147 515,148 511,149 508,149 505,150 501,151 498,152 495,152 491,153 488,154 485,155 481,155 478,156 475,157 471,158 468,159 465,159 461,160 458,161 455,162 451,162 448,163 444,164 441,165 438,165 434,166 431,167 428,168 424,168 421,169 418,170 414,171 411,171 408,172 404,173 401,174 398,174 394,175 391,176 388,177 384,177 381,178 378,179 374,180 371,180 368,181 364,182 361,183 358,184 354,184 351,185 347,186 344,187 341,187 337,188 334,189 331,190 327,190 324,191 321,192 317,193 314,193 311,194 307,195 304,196 301,196 297,197 294,198 291,199 287,199 284,200 281,201 277,202 274,202 271,203 267,204 264,205 261,205 257,206 254,207 250,208 247,209 244,209 240,210 237,211 234,212 230,212 227,213 224,214 220,215 217,215 214,216 210,217 207,218 204,218 200,219 197,220 194,221 190,221 187,222 184,223 180,224 177,224 174,225 170,226 167,227 163,227 160,228 157,229 153,230 150,230 147,231 143,232 140,233 137,234 133,234 130,235 127,236 123,237 120,237 117,238 113,239 "/>
<polyline fill="none" opacity="1" stroke="#33638D" stroke-width="2" points="970,93 966,91 963,96 960,90 956,95 953,91 950,91 946,96 943,89 940,94 936,93 933,88 930,91 926,98 923,88 920,88 916,91 913,100 909,89 906,87 903,87 899,90 896,104 893,92 889,87 886,86 883,85 879,86 876,88 873,91 869,105 866,93 863,88 859,86 856,84 853,83 849,83 846,83 843,82 839,82 836,83 833,83 829,83 826,84 822,84 819,85 816,85 812,86 809,87 806,87 802,88 799,89 796,90 792,90 789,91 786,92 782,93 779,94 776,95 772,95 769,96 766,97 762,98 759,99 756,100 752,101 749,102 746,103 742,104 739,105 736,105 732,106 729,107 725,108 722,109 719,110 715,111 712,112 709,113 705,114 702,115 699,116 695,117 692,118 689,119 685,120 682,120 679,121 675,122 672,123 669,124 665,125 662,126 659,127 655,128 652,129 649,130 645,131 642,132 639,133 635,134 632,135 628,136 625,137 622,137 618,138 615,139 612,140 608,141 605,142 602,143 598,144 595,145 592,146 588,147 585,148 582,149 578,150 575,151 572,152 568,153 565,154 562,155 558,155 555,156 552,157 548,158 545,159 542,160 538,161 535,162 531,163 528,164 525,165 521,166 518,167 515,168 511,169 508,170 505,171 501,172 498,173 495,173 491,174 488,175 485,176 481,177 478,178 475,179 471,180 468,181 465,182 461,183 458,184 455,185 451,186 448,187 444,188 441,189 438,190 434,191 431,191 428,192 424,193 421,194 418,195 414,196 411,197 408,198 404,199 401,200 398,201 394,202 391,203 388,204 384,205 381,206 378,207 374,208 371,209 368,209 364,210 361,211 358,212 354,213 351,214 347,215 344,216 341,217 337,218 334,219 331,220 327,221 324,222 321,223 317,224 314,225 311,226 307,227 304,227 301,228 297,229 294,230 291,231 287,232 284,233 281,234 277,235 274,236 271,237 267,238 264,239 261,240 257,241 254,242 250,243 247,244 244,245 240,245 237,246 234,247 230,248 227,249 224,250 220,251 217,252 214,253 210,254 207,255 204,256 200,257 197,258 194,259 190,260 187,261 184,262 180,263 177,263 174,264 170,265 167,266 163,267 160,268 157,269 153,270 150,271 147,272 143,273 140,274 137,275 133,276 130,277 127,278 123,279 120,280 117,281 113,281 "/>
<polyline fill="none" opacity="1" stroke="#2D728E" stroke-width="2" points="970,108 966,90 963,97 960,90 956,99 953,89 950,101 946,90 943,90 940,99 936,89 933,90 930,108 926,89 923,88 920,91 916,101 913,89 909,87 906,87 903,91 899,105 896,90 893,87 889,85 886,86 883,87 879,90 876,99 873,95 869,89 866,86 863,85 859,84 856,83 853,83 849,83 846,83 843,83 839,84 836,84 833,85 829,85 826,86 822,87 819,88 816,88 812,89 809,90 806,91 802,92 799,93 796,94 792,95 789,96 786,97 782,98 779,99 776,100 772,101 769,102 766,103 762,105 759,106 756,107 752,108 749,109 746,110 742,111 739,112 736,113 732,115 729,116 725,117 722,118 719,119 715,120 712,121 709,122 705,124 702,125 699,126 695,127 692,128 689,129 685,130 682,131 679,133 675,134 672,135 669,136 665,137 662,138 659,139 655,141 652,142 649,143 645,144 642,145 639,146 635,147 632,148 628,150 625,151 622,152 618,153 615,154 612,155 608,156 605,158 602,159 598,160 595,161 592,162 588,163 585,164 582,166 578,167 575,168 572,169 568,170 565,171 562,172 558,173 555,175 552,176 548,177 545,178 542,179 538,180 535,181 531,183 528,184 525,185 521,186 518,187 515,188 511,189 508,191 505,192 501,193 498,194 495,195 491,196 488,197 485,198 481,200 478,201 475,202 471,203 468,204 465,205 461,206 458,208 455,209 451,210 448,211 444,212 441,213 438,214 434,216 431,217 428,218 424,219 421,220 418,221 414,222 411,223 408,225 404,226 401,227 398,228 394,229 391,230 388,231 384,233 381,234 378,235 374,236 371,237 368,238 364,239 361,241 358,242 354,243 351,244 347,245 344,246 341,247 337,248 334,250 331,251 327,252 324,253 321,254 317,255 314,256 311,258 307,259 304,260 301,261 297,262 294,263 291,264 287,266 284,267 281,268 277,269 274,270 271,271 267,272 264,273 261,275 257,276 254,277 250,278 247,279 244,280 240,281 237,283 234,284 230,285 227,286 224,287 220,288 217,289 214,291 210,292 207,293 204,294 200,295 197,296 194,297 190,299 187,300 184,301 180,302 177,303 174,304 170,305 167,306 163,308 160,309 157,310 153,311 150,312 147,313 143,314 140,316 137,317 133,318 130,319 127,320 123,321 120,322 117,324 113,325 "/>
<polyline fill="none" opacity="1" stroke="#27818F" stroke-width="2" points="970,92 966,94 963,91 960,95 956,91 953,92 950,93 946,89 943,100 940,90 936,89 933,99 930,91 926,88 923,90 920,106 916,89 913,87 909,88 906,92 903,99 899,89 896,86 893,86 889,86 886,88 883,94 879,101 876,91 873,87 869,85 866,84 863,83 859,83 856,83 853,83 849,84 846,84 843,85 839,85 836,86 833,87 829,88 826,89 822,90 819,91 816,92 812,93 809,94 806,95 802,96 799,98 796,99 792,100 789,101 786,103 782,104 779,105 776,106 772,108 769,109 766,110 762,111 759,113 756,114 752,115 749,117 746,118 742,119 739,121 736,122 732,123 729,124 725,126 722,127 719,128 715,130 712,131 709,132 705,134 702,135 699,136 695,138 692,139 689,140 685,142 682,143 679,144 675,146 672,147 669,148 665,150 662,151 659,152 655,154 652,155 649,156 645,157 642,159 639,160 635,161 632,163 628,164 625,165 622,167 618,168 615,169 612,171 608,172 605,173 602,175 598,176 595,177 592,179 588,180 585,181 582,183 578,184 575,185 572,187 568,188 565,189 562,191 558,192 555,193 552,195 548,196 545,197 542,199 538,200 535,201 531,203 528,204 525,205 521,207 518,208 515,209 511,211 508,212 505,213 501,215 498,216 495,217 491,218 488,220 485,221 481,222 478,224 475,225 471,226 468,228 465,229 461,230 458,232 455,233 451,234 448,236 444,237 441,238 438,240 434,241 431,242 428,244 424,245 421,246 418,248 414,249 411,250 408,252 404,253 401,254 398,256 394,257 391,258 388,260 384,261 381,262 378,264 374,265 371,266 368,268 364,269 361,270 358,272 354,273 351,274 347,275 344,277 341,278 337,279 334,281 331,282 327,283 324,285 321,286 317,287 314,289 311,290 307,291 304,293 301,294 297,295 294,297 291,298 287,299 284,301 281,302 277,303 274,305 271,306 267,307 264,309 261,310 257,311 254,313 250,314 247,315 244,317 240,318 237,319 234,321 230,322 227,323 224,325 220,326 217,327 214,329 210,330 207,331 204,333 200,334 197,335 194,336 190,338 187,339 184,340 180,342 177,343 174,344 170,346 167,347 163,348 160,350 157,351 153,352 150,354 147,355 143,356 140,358 137,359 133,360 130,362 127,363 123,364 120,366 117,367 113,368 "/>
<polyline fill="none" opacity="1" stroke="#23918C" stroke-width="2" points="970,90 966,103 963,90 960,100 956,89 953,108 950,89 946,92 943,93 940,88 936,93 933,93 930,88 926,89 923,106 920,90 916,87 913,88 909,93 906,98 903,89 899,86 896,86 893,87 889,90 886,99 883,94 879,88 876,86 873,84 869,84 866,83 863,83 859,84 856,84 853,85 849,85 846,86 843,87 839,88 836,89 833,90 829,91 826,92 822,93 819,95 816,96 812,97 809,99 806,100 802,101 799,103 796,104 792,106 789,107 786,108 782,110 779,111 776,113 772,114 769,116 766,117 762,119 759,120 756,122 752,123 749,125 746,126 742,128 739,129 736,131 732,132 729,134 725,135 722,137 719,138 715,140 712,141 709,143 705,144 702,146 699,147 695,149 692,150 689,152 685,153 682,155 679,156 675,158 672,159 669,161 665,162 662,164 659,165 655,167 652,168 649,170 645,171 642,173 639,174 635,176 632,178 628,179 625,181 622,182 618,184 615,185 612,187 608,188 605,190 602,191 598,193 595,194 592,196 588,197 585,199 582,200 578,202 575,203 572,205 568,206 565,208 562,209 558,211 555,212 552,214 548,215 545,217 542,218 538,220 535,221 531,223 528,224 525,226 521,228 518,229 515,231 511,232 508,234 505,235 501,237 498,238 495,240 491,241 488,243 485,244 481,246 478,247 475,249 471,250 468,252 465,253 461,255 458,256 455,258 451,259 448,261 444,262 441,264 438,265 434,267 431,268 428,270 424,271 421,273 418,274 414,276 411,278 408,279 404,281 401,282 398,284 394,285 391,287 388,288 384,290 381,291 378,293 374,294 371,296 368,297 364,299 361,300 358,302 354,303 351,305 347,306 344,308 341,309 337,311 334,312 331,314 327,315 324,317 321,318 317,320 314,321 311,323 307,324 304,326 301,328 297,329 294,331 291,332 287,334 284,335 281,337 277,338 274,340 271,341 267,343 264,344 261,346 257,347 254,349 250,350 247,352 244,353 240,355 237,356 234,358 230,359 227,361 224,362 220,364 217,365 214,367 210,368 207,370 204,371 200,373 197,375 194,376 190,378 187,379 184,381 180,382 177,384 174,385 170,387 167,388 163,390 160,391 157,393 153,394 150,396 147,397 143,399 140,400 137,402 133,403 130,405 127,406 123,408 120,409 117,411 113,412 "/>
<polyline fill="none" opacity="1" stroke="#20A088" stroke-width="2" points="970,92 966,92 963,93 960,91 956,92 953,93 950,89 946,112 943,89 940,90 936,100 933,89 930,89 926,97 923,91 920,87 916,88 913,93 909,98 906,89 903,86 899,86 896,88 893,92 889,119 886,91 883,87 879,85 876,84 873,84 869,84 866,84 863,84 859,85 856,85 853,86 849,87 846,88 843,90 839,91 836,92 833,93 829,95 826,96 822,98 819,99 816,101 812,102 809,104 806,105 802,107 799,108 796,110 792,112 789,113 786,115 782,116 779,118 776,120 772,121 769,123 766,125 762,126 759,128 756,130 752,131 749,133 746,135 742,136 739,138 736,140 732,142 729,143 725,145 722,147 719,148 715,150 712,152 709,153 705,155 702,157 699,159 695,160 692,162 689,164 685,165 682,167 679,169 675,170 672,172 669,174 665,176 662,177 659,179 655,181 652,182 649,184 645,186 642,187 639,189 635,191 632,193 628,194 625,196 622,198 618,199 615,201 612,203 608,205 605,206 602,208 598,210 595,211 592,213 588,215 585,216 582,218 578,220 575,222 572,223 568,225 565,227 562,228 558,230 555,232 552,234 548,235 545,237 542,239 538,240 535,242 531,244 528,245 525,247 521,249 518,251 515,252 511,254 508,256 505,257 501,259 498,261 495,262 491,264 488,266 485,268 481,269 478,271 475,273 471,274 468,276 465,278 461,280 458,281 455,283 451,285 448,286 444,288 441,290 438,291 434,293 431,295 428,297 424,298 421,300 418,302 414,303 411,305 408,307 404,309 401,310 398,312 394,314 391,315 388,317 384,319 381,320 378,322 374,324 371,326 368,327 364,329 361,331 358,332 354,334 351,336 347,338 344,339 341,341 337,343 334,344 331,346 327,348 324,349 321,351 317,353 314,355 311,356 307,358 304,360 301,361 297,363 294,365 291,366 287,368 284,370 281,372 277,373 274,375 271,377 267,378 264,380 261,382 257,384 254,385 250,387 247,389 244,390 240,392 237,394 234,395 230,397 227,399 224,401 220,402 217,404 214,406 210,407 207,409 204,411 200,413 197,414 194,416 190,418 187,419 184,421 180,423 177,424 174,426 170,428 167,430 163,431 160,433 157,435 153,436 150,438 147,440 143,441 140,443 137,445 133,447 130,448 127,450 123,452 120,453 117,455 113,457 "/>
<polyline fill="none" opacity="1" stroke="#2FAE7E" stroke-width="2" points="970,101 966,90 963,108 960,90 956,108 953,89 950,94 946,92 943,89 940,99 936,90 933,88 930,93 926,94 923,88 920,88 916,92 913,99 909,89 906,86 903,86 899,88 896,93 893,101 889,90 886,87 883,85 879,84 876,84 873,84 869,84 866,85 863,86 859,86 856,88 853,89 849,90 846,91 843,93 839,94 836,96 833,97 829,99 826,100 822,102 819,104 816,105 812,107 809,109 806,111 802,112 799,114 796,116 792,118 789,120 786,121 782,123 779,125 776,127 772,129 769,131 766,133 762,134 759,136 756,138 752,140 749,142 746,144 742,146 739,148 736,149 732,151 729,153 725,155 722,157 719,159 715,161 712,163 709,164 705,166 702,168 699,170 695,172 692,174 689,176 685,178 682,180 679,182 675,183 672,185 669,187 665,189 662,191 659,193 655,195 652,197 649,199 645,200 642,202 639,204 635,206 632,208 628,210 625,212 622,214 618,216 615,217 612,219 608,221 605,223 602,225 598,227 595,229 592,231 588,233 585,235 582,236 578,238 575,240 572,242 568,244 565,246 562,248 558,250 555,252 552,253 548,255 545,257 542,259 538,261 535,263 531,265 528,267 525,269 521,271 518,272 515,274 511,276 508,278 505,280 501,282 498,284 495,286 491,288 488,289 485,291 481,293 478,295 475,297 471,299 468,301 465,303 461,305 458,307 455,308 451,310 448,312 444,314 441,316 438,318 434,320 431,322 428,324 424,325 421,327 418,329 414,331 411,333 408,335 404,337 401,339 398,341 394,343 391,344 388,346 384,348 381,350 378,352 374,354 371,356 368,358 364,360 361,361 358,363 354,365 351,367 347,369 344,371 341,373 337,375 334,377 331,378 327,380 324,382 321,384 317,386 314,388 311,390 307,392 304,394 301,396 297,397 294,399 291,401 287,403 284,405 281,407 277,409 274,411 271,413 267,414 264,416 261,418 257,420 254,422 250,424 247,426 244,428 240,430 237,432 234,433 230,435 227,437 224,439 220,441 217,443 214,445 210,447 207,449 204,450 200,452 197,454 194,456 190,458 187,460 184,462 180,464 177,466 174,468 170,469 167,471 163,473 160,475 157,477 153,479 150,481 147,483 143,485 140,486 137,488 133,490 130,492 127,494 123,496 120,498 117,500 113,502 "/>
<polyline fill="none" opacity="1" stroke="#42BC73" stroke-width="2" points="970,95 966,92 963,92 960,92 956,93 953,90 950,102 946,89 943,92 940,94 936,88 933,91 930,100 926,89 923,87 920,91 916,104 913,89 909,87 906,86 903,88 899,94 896,98 893,89 889,86 886,85 883,84 879,84 876,84 873,85 869,85 866,86 863,87 859,89 856,90 853,91 849,93 846,94 843,96 839,98 836,100 833,101 829,103 826,105 822,107 819,109 816,111 812,113 809,114 806,116 802,118 799,120 796,122 792,124 789,126 786,128 782,130 779,132 776,135 772,137 769,139 766,141 762,143 759,145 756,147 752,149 749,151 746,153 742,155 739,157 736,159 732,161 729,163 725,165 722,168 719,170 715,172 712,174 709,176 705,178 702,180 699,182 695,184 692,186 689,188 685,190 682,193 679,195 675,197 672,199 669,201 665,203 662,205 659,207 655,209 652,211 649,213 645,215 642,218 639,220 635,222 632,224 628,226 625,228 622,230 618,232 615,234 612,236 608,238 605,240 602,243 598,245 595,247 592,249 588,251 585,253 582,255 578,257 575,259 572,261 568,263 565,265 562,268 558,270 555,272 552,274 548,276 545,278 542,280 538,282 535,284 531,286 528,288 525,290 521,293 518,295 515,297 511,299 508,301 505,303 501,305 498,307 495,309 491,311 488,313 485,315 481,318 478,320 475,322 471,324 468,326 465,328 461,330 458,332 455,334 451,336 448,338 444,340 441,343 438,345 434,347 431,349 428,351 424,353 421,355 418,357 414,359 411,361 408,363 404,365 401,368 398,370 394,372 391,374 388,376 384,378 381,380 378,382 374,384 371,386 368,388 364,390 361,393 358,395 354,397 351,399 347,401 344,403 341,405 337,407 334,409 331,411 327,413 324,415 321,418 317,420 314,422 311,424 307,426 304,428 301,430 297,432 294,434 291,436 287,438 284,440 281,443 277,445 274,447 271,449 267,451 264,453 261,455 257,457 254,459 250,461 247,463 244,465 240,468 237,470 234,472 230,474 227,476 224,478 220,480 217,482 214,484 210,486 207,488 204,490 200,493 197,495 194,497 190,499 187,501 184,503 180,505 177,507 174,509 170,511 167,513 163,515 160,518 157,520 153,522 150,524 147,526 143,528 140,530 137,532 133,534 130,536 127,538 123,540 120,543 117,545 113,547 "/>
<polyline fill="none" opacity="1" stroke="#60C861" stroke-width="2" points="970,101 966,90 963,98 960,90 956,116 953,89 950,92 946,93 943,88 940,91 936,97 933,88 930,87 926,91 923,110 920,90 916,87 913,85 909,85 906,86 903,87 899,89 896,90 893,93 889,95 886,97 883,100 879,103 876,106 873,109 869,112 866,115 863,119 859,122 856,125 853,129 849,132 846,136 843,139 839,143 836,146 833,150 829,154 826,157 822,161 819,164 816,168 812,172 809,176 806,179 802,183 799,187 796,191 792,194 789,198 786,202 782,205 779,209 776,213 772,217 769,221 766,224 762,228 759,232 756,236 752,239 749,243 746,247 742,251 739,255 736,258 732,262 729,266 725,270 722,273 719,277 715,281 712,285 709,289 705,292 702,296 699,300 695,304 692,308 689,311 685,315 682,319 679,323 675,326 672,330 669,334 665,338 662,342 659,345 655,349 652,353 649,357 645,361 642,364 639,368 635,372 632,376 628,379 625,383 622,387 618,391 615,395 612,398 608,402 605,406 602,410 598,414 595,417 592,421 588,425 585,429 582,433 578,436 575,440 572,444 568,448 565,451 562,455 558,459 555,463 552,467 548,470 545,474 542,478 538,482 535,486 531,489 528,493 525,497 521,501 518,505 515,508 511,512 508,516 505,520 501,523 498,527 495,531 491,535 488,539 485,542 481,546 478,550 475,554 471,558 468,561 465,565 461,569 458,573 455,576 451,580 448,584 444,588 441,592 438,595 434,599 431,603 428,607 424,611 421,614 418,618 414,622 411,626 408,630 404,633 401,637 398,641 394,645 391,648 388,652 384,656 381,660 378,664 374,667 371,671 368,675 364,679 361,683 358,686 354,690 351,694 347,698 344,701 341,705 337,709 334,713 331,717 327,720 326,721 "/>
<polyline fill="none" opacity="1" stroke="#85D34A" stroke-width="2" points="970,92 966,93 963,91 960,92 956,93 953,89 950,106 946,89 943,89 940,101 936,90 933,87 930,89 926,98 923,92 920,87 916,86 913,85 909,86 906,87 903,88 899,90 896,93 893,95 889,98 886,100 883,103 879,106 876,110 873,113 869,116 866,120 863,123 859,127 856,130 853,134 849,137 846,141 843,145 839,149 836,152 833,156 829,160 826,164 822,168 819,172 816,176 812,179 809,183 806,187 802,191 799,195 796,199 792,203 789,207 786,211 782,215 779,219 776,223 772,227 769,231 766,235 762,239 759,242 756,246 752,250 749,254 746,258 742,262 739,266 736,270 732,274 729,278 725,282 722,286 719,290 715,294 712,298 709,302 705,306 702,310 699,314 695,318 692,322 689,326 685,330 682,334 679,338 675,342 672,346 669,350 665,354 662,358 659,362 655,366 652,370 649,374 645,378 642,382 639,386 635,390 632,394 628,397 625,401 622,405 618,409 615,413 612,417 608,421 605,425 602,429 598,433 595,437 592,441 588,445 585,449 582,453 578,457 575,461 572,465 568,469 565,473 562,477 558,481 555,485 552,489 548,493 545,497 542,501 538,505 535,509 531,513 528,517 525,521 521,525 518,529 515,533 511,537 508,541 505,545 501,549 498,553 495,557 491,561 488,565 485,569 481,573 478,576 475,580 471,584 468,588 465,592 461,596 458,600 455,604 451,608 448,612 444,616 441,620 438,624 434,628 431,632 428,636 424,640 421,644 418,648 414,652 411,656 408,660 404,664 401,668 398,672 394,676 391,680 388,684 384,688 381,692 378,696 374,700 371,704 368,708 364,712 361,716 358,720 356,721 "/>
<polyline fill="none" opacity="1" stroke="#ACDD37" stroke-width="2" points="970,89 966,100 963,90 960,89 956,108 953,90 950,87 946,87 943,89 940,91 936,95 933,99 930,103 926,108 923,113 920,119 916,125 913,131 909,137 906,143 903,150 899,157 896,163 893,170 889,177 886,184 883,191 879,198 876,205 873,213 869,220 866,227 863,234 859,242 856,249 853,256 849,264 846,271 843,279 839,286 836,294 833,301 829,309 826,316 822,324 819,331 816,339 812,346 809,354 806,361 802,369 799,376 796,384 792,392 789,399 786,407 782,414 779,422 776,429 772,437 769,444 766,452 762,460 759,467 756,475 752,482 749,490 746,497 742,505 739,513 736,520 732,528 729,535 725,543 722,550 719,558 715,566 712,573 709,581 705,588 702,596 699,604 695,611 692,619 689,626 685,634 682,641 679,649 675,657 672,664 669,672 665,679 662,687 659,694 655,702 652,710 649,717 647,721 "/>
<polyline fill="none" opacity="1" stroke="#D5E22E" stroke-width="2" points="970,90 966,99 963,89 960,92 956,96 953,88 950,87 946,88 943,90 940,93 936,97 933,101 930,106 926,111 923,117 920,122 916,128 913,135 909,141 906,148 903,154 899,161 896,168 893,175 889,182 886,190 883,197 879,204 876,211 873,219 869,226 866,234 863,241 859,249 856,256 853,264 849,272 846,279 843,287 839,294 836,302 833,310 829,318 826,325 822,333 819,341 816,348 812,356 809,364 806,371 802,379 799,387 796,395 792,402 789,410 786,418 782,426 779,433 776,441 772,449 769,457 766,464 762,472 759,480 756,488 752,495 749,503 746,511 742,519 739,527 736,534 732,542 729,550 725,558 722,565 719,573 715,581 712,589 709,596 705,604 702,612 699,620 695,627 692,635 689,643 685,651 682,659 679,666 675,674 672,682 669,690 665,697 662,705 659,713 655,721 655,721 "/>
<rect x="878" y="300" width="99" height="352" opacity="1" fill="none" stroke="#000000"/>
<text x="918" y="310" dy="0.76em" text-anchor="start" font-family="sans-serif" font-size="13.709677419354838" opacity="1" fill="#000000">
nu=0
</text>
<text x="918" y="331" dy="0.76em" text-anchor="start" font-family="sans-serif" font-size="13.709677419354838" opacity="1" fill="#000000">
nu=0.5
</text>
<text x="918" y="353" dy="0.76em" text-anchor="start" font-family="sans-serif" font-size="13.709677419354838" opacity="1" fill="#000000">
nu=1
</text>
<text x="918" y="374" dy="0.76em" text-anchor="start" font-family="sans-serif" font-size="13.709677419354838" opacity="1" fill="#000000">
nu=1.5
</text>
<text x="918" y="395" dy="0.76em" text-anchor="start" font-family="sans-serif" font-size="13.709677419354838" opacity="1" fill="#000000">
nu=2
</text>
<text x="918" y="416" dy="0.76em" text-anchor="start" font-family="sans-serif" font-size="13.709677419354838" opacity="1" fill="#000000">
nu=2.5
</text>
<text x="918" y="438" dy="0.76em" text-anchor="start" font-family="sans-serif" font-size="13.709677419354838" opacity="1" fill="#000000">
nu=3
</text>
<text x="918" y="459" dy="0.76em" text-anchor="start" font-family="sans-serif" font-size="13.709677419354838" opacity="1" fill="#000000">
nu=3.5
</text>
<text x="918" y="480" dy="0.76em" text-anchor="start" font-family="sans-serif" font-size="13.709677419354838" opacity="1" fill="#000000">
nu=4
</text>
<text x="918" y="501" dy="0.76em" text-anchor="start" font-family="sans-serif" font-size="13.709677419354838" opacity="1" fill="#000000">
nu=4.5
</text>
<text x="918" y="523" dy="0.76em" text-anchor="start" font-family="sans-serif" font-size="13.709677419354838" opacity="1" fill="#000000">
nu=5
</text>
<text x="918" y="544" dy="0.76em" text-anchor="start" font-family="sans-serif" font-size="13.709677419354838" opacity="1" fill="#000000">
nu=5.5
</text>
<text x="918" y="565" dy="0.76em" text-anchor="start" font-family="sans-serif" font-size="13.709677419354838" opacity="1" fill="#000000">
nu=10
</text>
<text x="918" y="586" dy="0.76em" text-anchor="start" font-family="sans-serif" font-size="13.709677419354838" opacity="1" fill="#000000">
nu=10.5
</text>
<text x="918" y="608" dy="0.76em" text-anchor="start" font-family="sans-serif" font-size="13.709677419354838" opacity="1" fill="#000000">
nu=20
</text>
<text x="918" y="629" dy="0.76em" text-anchor="start" font-family="sans-serif" font-size="13.709677419354838" opacity="1" fill="#000000">
nu=20.5
</text>
<circle cx="893" cy="316" r="2" opacity="1" fill="#440154" stroke="none" stroke-width="1"/>
<circle cx="893" cy="337" r="2" opacity="1" fill="#451667" stroke="none" stroke-width="1"/>
<circle cx="893" cy="359" r="2" opacity="1" fill="#462C7A" stroke="none" stroke-width="1"/>
<circle cx="893" cy="380" r="2" opacity="1" fill="#413F83" stroke="none" stroke-width="1"/>
<circle cx="893" cy="401" r="2" opacity="1" fill="#3A528A" stroke="none" stroke-width="1"/>
<circle cx="893" cy="422" r="2" opacity="1" fill="#33638D" stroke="none" stroke-width="1"/>
<circle cx="893" cy="444" r="2" opacity="1" fill="#2D728E" stroke="none" stroke-width="1"/>
<circle cx="893" cy="465" r="2" opacity="1" fill="#27818F" stroke="none" stroke-width="1"/>
<circle cx="893" cy="486" r="2" opacity="1" fill="#23918C" stroke="none" stroke-width="1"/>
<circle cx="893" cy="507" r="2" opacity="1" fill="#20A088" stroke="none" stroke-width="1"/>
<circle cx="893" cy="529" r="2" opacity="1" fill="#2FAE7E" stroke="none" stroke-width="1"/>
<circle cx="893" cy="550" r="2" opacity="1" fill="#42BC73" stroke="none" stroke-width="1"/>
<circle cx="893" cy="571" r="2" opacity="1" fill="#60C861" stroke="none" stroke-width="1"/>
<circle cx="893" cy="592" r="2" opacity="1" fill="#85D34A" stroke="none" stroke-width="1"/>
<circle cx="893" cy="614" r="2" opacity="1" fill="#ACDD37" stroke="none" stroke-width="1"/>
<circle cx="893" cy="635" r="2" opacity="1" fill="#D5E22E" stroke="none" stroke-width="1"/>
</svg>
